;FFMETADATA1
major_brand=isom
minor_version=512
compatible_brands=isomiso2avc1mp41
encoder=Lavf56.15.101

[CHAPTER]
TIMEBASE=1/1000
START=21158
END=73909
title=p001[G]

[CHAPTER]
TIMEBASE=1/1000
START=72909
END=122620
title=p002[G]

[CHAPTER]
TIMEBASE=1/1000
START=121620
END=142820
title=p003[G]

[CHAPTER]
TIMEBASE=1/1000
START=141820
END=168913
title=p004[G]

[CHAPTER]
TIMEBASE=1/1000
START=167913
END=197116
title=e001[G]

[CHAPTER]
TIMEBASE=1/1000
START=196116
END=204603
title=e002

[CHAPTER]
TIMEBASE=1/1000
START=203603
END=227346
title=e003[G]

[CHAPTER]
TIMEBASE=1/1000
START=226346
END=258856
title=e004[G]

[CHAPTER]
TIMEBASE=1/1000
START=257856
END=264809
title=e005

[CHAPTER]
TIMEBASE=1/1000
START=263809
END=271010
title=e006

[CHAPTER]
TIMEBASE=1/1000
START=270010
END=287060
title=e007[G]

[CHAPTER]
TIMEBASE=1/1000
START=286060
END=299871
title=e008[G]

[CHAPTER]
TIMEBASE=1/1000
START=298871
END=315085
title=e009[G]

[CHAPTER]
TIMEBASE=1/1000
START=314085
END=339225
title=e010[G]

[CHAPTER]
TIMEBASE=1/1000
START=338225
END=354245
title=e011[G]

[CHAPTER]
TIMEBASE=1/1000
START=353245
END=385298
title=e012[G]

[CHAPTER]
TIMEBASE=1/1000
START=384298
END=406824
title=e013[G]

[CHAPTER]
TIMEBASE=1/1000
START=405824
END=427286
title=e014[G]

[CHAPTER]
TIMEBASE=1/1000
START=426286
END=443734
title=e015[G]

[CHAPTER]
TIMEBASE=1/1000
START=442734
END=457914
title=e016[G]

[CHAPTER]
TIMEBASE=1/1000
START=456914
END=471326
title=e017[G]

[CHAPTER]
TIMEBASE=1/1000
START=470326
END=485804
title=e018[G]

[CHAPTER]
TIMEBASE=1/1000
START=484804
END=505472
title=e019[G]

[CHAPTER]
TIMEBASE=1/1000
START=504472
END=526156
title=e020[G]

[CHAPTER]
TIMEBASE=1/1000
START=525156
END=573418
title=e021[G]

[CHAPTER]
TIMEBASE=1/1000
START=572418
END=585058
title=e022

[CHAPTER]
TIMEBASE=1/1000
START=584058
END=591605
title=e023

[CHAPTER]
TIMEBASE=1/1000
START=590605
END=614006
title=e024[G]

[CHAPTER]
TIMEBASE=1/1000
START=613006
END=628075
title=e025[G]

[CHAPTER]
TIMEBASE=1/1000
START=627075
END=641404
title=e026[G]

[CHAPTER]
TIMEBASE=1/1000
START=640404
END=648073
title=e027

[CHAPTER]
TIMEBASE=1/1000
START=647073
END=660867
title=e028[G]

[CHAPTER]
TIMEBASE=1/1000
START=659867
END=672626
title=e029[G]

[CHAPTER]
TIMEBASE=1/1000
START=671626
END=693729
title=e030[G]

[CHAPTER]
TIMEBASE=1/1000
START=692729
END=701370
title=e031

[CHAPTER]
TIMEBASE=1/1000
START=700370
END=713000
title=e032[G]

[CHAPTER]
TIMEBASE=1/1000
START=712000
END=727382
title=e033[G]

[CHAPTER]
TIMEBASE=1/1000
START=726382
END=741122
title=e034[G]

[CHAPTER]
TIMEBASE=1/1000
START=740122
END=747562
title=e035

[CHAPTER]
TIMEBASE=1/1000
START=746562
END=765325
title=e036[G]

[CHAPTER]
TIMEBASE=1/1000
START=764325
END=771769
title=e037

[CHAPTER]
TIMEBASE=1/1000
START=770769
END=777374
title=e038

[CHAPTER]
TIMEBASE=1/1000
START=776374
END=787376
title=e039[G]

[CHAPTER]
TIMEBASE=1/1000
START=786376
END=792570
title=e040

[CHAPTER]
TIMEBASE=1/1000
START=791570
END=799256
title=e041

[CHAPTER]
TIMEBASE=1/1000
START=798256
END=810516
title=e042[G]

[CHAPTER]
TIMEBASE=1/1000
START=809516
END=827531
title=e043[G]

[CHAPTER]
TIMEBASE=1/1000
START=826531
END=837339
title=e044[G]

[CHAPTER]
TIMEBASE=1/1000
START=836339
END=848827
title=e045[G]

[CHAPTER]
TIMEBASE=1/1000
START=847827
END=867982
title=e046[G]

[CHAPTER]
TIMEBASE=1/1000
START=866982
END=919221
title=e047[G]

[CHAPTER]
TIMEBASE=1/1000
START=918221
END=934523
title=e048[G]

[CHAPTER]
TIMEBASE=1/1000
START=933523
END=940360
title=e049

[CHAPTER]
TIMEBASE=1/1000
START=939360
END=951145
title=e050[G]

[CHAPTER]
TIMEBASE=1/1000
START=950145
END=963994
title=e051[G]

[CHAPTER]
TIMEBASE=1/1000
START=962994
END=969150
title=e052

[CHAPTER]
TIMEBASE=1/1000
START=968150
END=974992
title=e053

[CHAPTER]
TIMEBASE=1/1000
START=973992
END=1008237
title=e054[G]

[CHAPTER]
TIMEBASE=1/1000
START=1007237
END=1014564
title=e055

[CHAPTER]
TIMEBASE=1/1000
START=1013564
END=1031620
title=e056[G]

[CHAPTER]
TIMEBASE=1/1000
START=1030620
END=1053786
title=e057[G]

[CHAPTER]
TIMEBASE=1/1000
START=1052786
END=1060207
title=e058

[CHAPTER]
TIMEBASE=1/1000
START=1059207
END=1065726
title=e059

[CHAPTER]
TIMEBASE=1/1000
START=1064726
END=1096214
title=e060[G]

[CHAPTER]
TIMEBASE=1/1000
START=1095214
END=1107043
title=e061[G]

[CHAPTER]
TIMEBASE=1/1000
START=1106043
END=1125308
title=e062[G]

[CHAPTER]
TIMEBASE=1/1000
START=1124308
END=1131088
title=e063

[CHAPTER]
TIMEBASE=1/1000
START=1130088
END=1148656
title=e064[G]

[CHAPTER]
TIMEBASE=1/1000
START=1147656
END=1153652
title=e065

[CHAPTER]
TIMEBASE=1/1000
START=1152652
END=1158901
title=e066

[CHAPTER]
TIMEBASE=1/1000
START=1157901
END=1170239
title=e067[G]

[CHAPTER]
TIMEBASE=1/1000
START=1169239
END=1193406
title=e068[G]

[CHAPTER]
TIMEBASE=1/1000
START=1192406
END=1198632
title=e069

[CHAPTER]
TIMEBASE=1/1000
START=1197632
END=1204027
title=e070

[CHAPTER]
TIMEBASE=1/1000
START=1203027
END=1225472
title=e071[G]

[CHAPTER]
TIMEBASE=1/1000
START=1224472
END=1235482
title=e072[G]

[CHAPTER]
TIMEBASE=1/1000
START=1234482
END=1240664
title=e073

[CHAPTER]
TIMEBASE=1/1000
START=1239664
END=1254853
title=e074[G]

[CHAPTER]
TIMEBASE=1/1000
START=1253853
END=1264842
title=e075[G]

[CHAPTER]
TIMEBASE=1/1000
START=1263842
END=1291462
title=e076[G]

[CHAPTER]
TIMEBASE=1/1000
START=1290462
END=1296487
title=e077

[CHAPTER]
TIMEBASE=1/1000
START=1295487
END=1306981
title=e078[G]

[CHAPTER]
TIMEBASE=1/1000
START=1305981
END=1312866
title=e079

[CHAPTER]
TIMEBASE=1/1000
START=1311866
END=1322929
title=e080[G]

[CHAPTER]
TIMEBASE=1/1000
START=1321929
END=1329626
title=e081

[CHAPTER]
TIMEBASE=1/1000
START=1328626
END=1342887
title=e082[G]

[CHAPTER]
TIMEBASE=1/1000
START=1341887
END=1360037
title=e083[G]

[CHAPTER]
TIMEBASE=1/1000
START=1359037
END=1370236
title=e084[G]

[CHAPTER]
TIMEBASE=1/1000
START=1369236
END=1375831
title=e085

[CHAPTER]
TIMEBASE=1/1000
START=1374831
END=1381027
title=e086

[CHAPTER]
TIMEBASE=1/1000
START=1380027
END=1392267
title=e087[G]

[CHAPTER]
TIMEBASE=1/1000
START=1391267
END=1397658
title=e088

[CHAPTER]
TIMEBASE=1/1000
START=1396658
END=1406978
title=e089[G]

[CHAPTER]
TIMEBASE=1/1000
START=1405978
END=1419645
title=e090[G]

[CHAPTER]
TIMEBASE=1/1000
START=1418645
END=1435878
title=e091[G]

[CHAPTER]
TIMEBASE=1/1000
START=1434878
END=1442212
title=e092

[CHAPTER]
TIMEBASE=1/1000
START=1441212
END=1450878
title=e093

[CHAPTER]
TIMEBASE=1/1000
START=1449878
END=1462399
title=e094[G]

[CHAPTER]
TIMEBASE=1/1000
START=1461399
END=1473895
title=e095[G]

[CHAPTER]
TIMEBASE=1/1000
START=1472895
END=1480161
title=e096

[CHAPTER]
TIMEBASE=1/1000
START=1479161
END=1490110
title=e097[G]

[CHAPTER]
TIMEBASE=1/1000
START=1489110
END=1495405
title=e098

[CHAPTER]
TIMEBASE=1/1000
START=1494405
END=1506120
title=e099[G]

[CHAPTER]
TIMEBASE=1/1000
START=1505120
END=1522635
title=e100[G]

[CHAPTER]
TIMEBASE=1/1000
START=1521635
END=1528286
title=e101

[CHAPTER]
TIMEBASE=1/1000
START=1527286
END=1541350
title=e102[G]

[CHAPTER]
TIMEBASE=1/1000
START=1540350
END=1558445
title=e103[G]

[CHAPTER]
TIMEBASE=1/1000
START=1557445
END=1563520
title=e104

[CHAPTER]
TIMEBASE=1/1000
START=1562520
END=1573592
title=e105[G]

[CHAPTER]
TIMEBASE=1/1000
START=1572592
END=1579620
title=e106

[CHAPTER]
TIMEBASE=1/1000
START=1578620
END=1584585
title=e107

[CHAPTER]
TIMEBASE=1/1000
START=1583585
END=1595096
title=e108[G]

[CHAPTER]
TIMEBASE=1/1000
START=1594096
END=1600338
title=e109

[CHAPTER]
TIMEBASE=1/1000
START=1599338
END=1605483
title=e110

[CHAPTER]
TIMEBASE=1/1000
START=1604483
END=1612328
title=e111

[CHAPTER]
TIMEBASE=1/1000
START=1611328
END=1617274
title=e112

[CHAPTER]
TIMEBASE=1/1000
START=1616274
END=1626393
title=e113[G]

[CHAPTER]
TIMEBASE=1/1000
START=1625393
END=1631643
title=e114

[CHAPTER]
TIMEBASE=1/1000
START=1630643
END=1650538
title=e115[G]

[CHAPTER]
TIMEBASE=1/1000
START=1649538
END=1666242
title=e116[G]

[CHAPTER]
TIMEBASE=1/1000
START=1665242
END=1671896
title=e117

[CHAPTER]
TIMEBASE=1/1000
START=1670896
END=1677122
title=e118

[CHAPTER]
TIMEBASE=1/1000
START=1676122
END=1682650
title=e119

[CHAPTER]
TIMEBASE=1/1000
START=1681650
END=1687864
title=e120

[CHAPTER]
TIMEBASE=1/1000
START=1686864
END=1695616
title=e121

[CHAPTER]
TIMEBASE=1/1000
START=1694616
END=1704640
title=e122[G]

[CHAPTER]
TIMEBASE=1/1000
START=1703640
END=1727158
title=e123[G]

[CHAPTER]
TIMEBASE=1/1000
START=1726158
END=1736566
title=e124[G]

[CHAPTER]
TIMEBASE=1/1000
START=1735566
END=1741572
title=e125

[CHAPTER]
TIMEBASE=1/1000
START=1740572
END=1747860
title=e126

[CHAPTER]
TIMEBASE=1/1000
START=1746860
END=1753215
title=e127

[CHAPTER]
TIMEBASE=1/1000
START=1752215
END=1762975
title=e128[G]

[CHAPTER]
TIMEBASE=1/1000
START=1761975
END=1772717
title=e129[G]

[CHAPTER]
TIMEBASE=1/1000
START=1771717
END=1777986
title=e130

[CHAPTER]
TIMEBASE=1/1000
START=1776986
END=1783684
title=e131

[CHAPTER]
TIMEBASE=1/1000
START=1782684
END=1808131
title=e132[G]

[CHAPTER]
TIMEBASE=1/1000
START=1807131
END=1821795
title=e133[G]

[CHAPTER]
TIMEBASE=1/1000
START=1820795
END=1828008
title=e134

[CHAPTER]
TIMEBASE=1/1000
START=1827008
END=1833501
title=e135

[CHAPTER]
TIMEBASE=1/1000
START=1832501
END=1844941
title=e136

[CHAPTER]
TIMEBASE=1/1000
START=1843941
END=1850753
title=e137

[CHAPTER]
TIMEBASE=1/1000
START=1849753
END=1861232
title=e138[G]

[CHAPTER]
TIMEBASE=1/1000
START=1860232
END=1867495
title=e139

[CHAPTER]
TIMEBASE=1/1000
START=1866495
END=1872474
title=e140

[CHAPTER]
TIMEBASE=1/1000
START=1871474
END=1877792
title=e141

[CHAPTER]
TIMEBASE=1/1000
START=1876792
END=1883060
title=e142

[CHAPTER]
TIMEBASE=1/1000
START=1882060
END=1888594
title=e143

[CHAPTER]
TIMEBASE=1/1000
START=1887594
END=1893715
title=e144

[CHAPTER]
TIMEBASE=1/1000
START=1892715
END=1898937
title=e145

[CHAPTER]
TIMEBASE=1/1000
START=1897937
END=1904058
title=e146

[CHAPTER]
TIMEBASE=1/1000
START=1903058
END=1915908
title=e147[G]

[CHAPTER]
TIMEBASE=1/1000
START=1914908
END=1929053
title=e148[G]

[CHAPTER]
TIMEBASE=1/1000
START=1928053
END=1934194
title=e149

[CHAPTER]
TIMEBASE=1/1000
START=1933194
END=1947518
title=e150[G]

[CHAPTER]
TIMEBASE=1/1000
START=1946518
END=1952646
title=e151

[CHAPTER]
TIMEBASE=1/1000
START=1951646
END=1958657
title=e152

[CHAPTER]
TIMEBASE=1/1000
START=1957657
END=1964244
title=e153

[CHAPTER]
TIMEBASE=1/1000
START=1963244
END=1969408
title=e154

[CHAPTER]
TIMEBASE=1/1000
START=1968408
END=1974460
title=e155

[CHAPTER]
TIMEBASE=1/1000
START=1973460
END=1979844
title=e156

[CHAPTER]
TIMEBASE=1/1000
START=1978844
END=1989176
title=e157[G]

[CHAPTER]
TIMEBASE=1/1000
START=1988176
END=1994564
title=e158

[CHAPTER]
TIMEBASE=1/1000
START=1993564
END=2006625
title=e159[G]

[CHAPTER]
TIMEBASE=1/1000
START=2005625
END=2012352
title=e160

[CHAPTER]
TIMEBASE=1/1000
START=2011352
END=2031158
title=e161[G]

[CHAPTER]
TIMEBASE=1/1000
START=2030158
END=2047339
title=e162[G]

[CHAPTER]
TIMEBASE=1/1000
START=2046339
END=2054162
title=e163

[CHAPTER]
TIMEBASE=1/1000
START=2053162
END=2059178
title=e164

[CHAPTER]
TIMEBASE=1/1000
START=2058178
END=2073367
title=e165[G]

[CHAPTER]
TIMEBASE=1/1000
START=2072367
END=2094518
title=e166[G]

[CHAPTER]
TIMEBASE=1/1000
START=2093518
END=2100899
title=e167

[CHAPTER]
TIMEBASE=1/1000
START=2099899
END=2111466
title=e168[G]

[CHAPTER]
TIMEBASE=1/1000
START=2110466
END=2122041
title=e169[G]

[CHAPTER]
TIMEBASE=1/1000
START=2121041
END=2130539
title=e170

[CHAPTER]
TIMEBASE=1/1000
START=2129539
END=2144077
title=e171[G]

[CHAPTER]
TIMEBASE=1/1000
START=2143077
END=2152561
title=e172

[CHAPTER]
TIMEBASE=1/1000
START=2151561
END=2158380
title=e173

[CHAPTER]
TIMEBASE=1/1000
START=2157380
END=2169183
title=e174[G]

[CHAPTER]
TIMEBASE=1/1000
START=2168183
END=2177791
title=e175

[CHAPTER]
TIMEBASE=1/1000
START=2176791
END=2190829
title=e176[G]

[CHAPTER]
TIMEBASE=1/1000
START=2189829
END=2201209
title=e177[G]

[CHAPTER]
TIMEBASE=1/1000
START=2200209
END=2207096
title=e178

[CHAPTER]
TIMEBASE=1/1000
START=2206096
END=2212309
title=e179

[CHAPTER]
TIMEBASE=1/1000
START=2211309
END=2223777
title=e180[G]

[CHAPTER]
TIMEBASE=1/1000
START=2222777
END=2229115
title=e181

[CHAPTER]
TIMEBASE=1/1000
START=2228115
END=2234068
title=e182

[CHAPTER]
TIMEBASE=1/1000
START=2233068
END=2239231
title=e183

[CHAPTER]
TIMEBASE=1/1000
START=2238231
END=2244363
title=e184

[CHAPTER]
TIMEBASE=1/1000
START=2243363
END=2249792
title=e185

[CHAPTER]
TIMEBASE=1/1000
START=2248792
END=2254944
title=e186

[CHAPTER]
TIMEBASE=1/1000
START=2253944
END=2267200
title=e187[G]

[CHAPTER]
TIMEBASE=1/1000
START=2266200
END=2272337
title=e188

[CHAPTER]
TIMEBASE=1/1000
START=2271337
END=2277781
title=e189

[CHAPTER]
TIMEBASE=1/1000
START=2276781
END=2287932
title=e190[G]

[CHAPTER]
TIMEBASE=1/1000
START=2286932
END=2296924
title=e191[G]

[CHAPTER]
TIMEBASE=1/1000
START=2295924
END=2302397
title=e192

[CHAPTER]
TIMEBASE=1/1000
START=2301397
END=2313774
title=e193[G]

[CHAPTER]
TIMEBASE=1/1000
START=2312774
END=2319394
title=e194

[CHAPTER]
TIMEBASE=1/1000
START=2318394
END=2324720
title=e195

[CHAPTER]
TIMEBASE=1/1000
START=2323720
END=2335826
title=e196[G]

[CHAPTER]
TIMEBASE=1/1000
START=2334826
END=2341290
title=e197

[CHAPTER]
TIMEBASE=1/1000
START=2340290
END=2351622
title=e198[G]

[CHAPTER]
TIMEBASE=1/1000
START=2350622
END=2369468
title=e199[G]

[CHAPTER]
TIMEBASE=1/1000
START=2368468
END=2374727
title=e200

[CHAPTER]
TIMEBASE=1/1000
START=2373727
END=2385605
title=e201[G]

[CHAPTER]
TIMEBASE=1/1000
START=2384605
END=2391128
title=e202

[CHAPTER]
TIMEBASE=1/1000
START=2390128
END=2403166
title=e203[G]

[CHAPTER]
TIMEBASE=1/1000
START=2402166
END=2412957
title=e204[G]

[CHAPTER]
TIMEBASE=1/1000
START=2411957
END=2435462
title=e205[G]

[CHAPTER]
TIMEBASE=1/1000
START=2434462
END=2441460
title=e206

[CHAPTER]
TIMEBASE=1/1000
START=2440460
END=2452627
title=e207[G]

[CHAPTER]
TIMEBASE=1/1000
START=2451627
END=2480905
title=e208[G]

[CHAPTER]
TIMEBASE=1/1000
START=2479905
END=2486377
title=e209

[CHAPTER]
TIMEBASE=1/1000
START=2485377
END=2492691
title=e210

[CHAPTER]
TIMEBASE=1/1000
START=2491691
END=2498051
title=e211

[CHAPTER]
TIMEBASE=1/1000
START=2497051
END=2507441
title=e212[G]

[CHAPTER]
TIMEBASE=1/1000
START=2506441
END=2514111
title=e213

[CHAPTER]
TIMEBASE=1/1000
START=2513111
END=2524790
title=e214[G]

[CHAPTER]
TIMEBASE=1/1000
START=2523790
END=2530705
title=e215

[CHAPTER]
TIMEBASE=1/1000
START=2529705
END=2542305
title=e216[G]

[CHAPTER]
TIMEBASE=1/1000
START=2541305
END=2547977
title=e217

[CHAPTER]
TIMEBASE=1/1000
START=2546977
END=2555747
title=e218

[CHAPTER]
TIMEBASE=1/1000
START=2554747
END=2561002
title=e219

[CHAPTER]
TIMEBASE=1/1000
START=2560002
END=2566431
title=e220

[CHAPTER]
TIMEBASE=1/1000
START=2565431
END=2572171
title=e221

[CHAPTER]
TIMEBASE=1/1000
START=2571171
END=2582026
title=e222[G]

[CHAPTER]
TIMEBASE=1/1000
START=2581026
END=2590483
title=e223[G]

[CHAPTER]
TIMEBASE=1/1000
START=2589483
END=2602209
title=e224[G]

[CHAPTER]
TIMEBASE=1/1000
START=2601209
END=2614335
title=e225[G]

[CHAPTER]
TIMEBASE=1/1000
START=2613335
END=2625128
title=e226[G]

[CHAPTER]
TIMEBASE=1/1000
START=2624128
END=2633684
title=e227[G]

[CHAPTER]
TIMEBASE=1/1000
START=2632684
END=2639244
title=e228

[CHAPTER]
TIMEBASE=1/1000
START=2638244
END=2649833
title=e229[G]

[CHAPTER]
TIMEBASE=1/1000
START=2648833
END=2655762
title=e230

[CHAPTER]
TIMEBASE=1/1000
START=2654762
END=2660911
title=e231

[CHAPTER]
TIMEBASE=1/1000
START=2659911
END=2666144
title=e232

[CHAPTER]
TIMEBASE=1/1000
START=2665144
END=2671218
title=e233

[CHAPTER]
TIMEBASE=1/1000
START=2670218
END=2676451
title=e234

[CHAPTER]
TIMEBASE=1/1000
START=2675451
END=2685530
title=e235[G]

[CHAPTER]
TIMEBASE=1/1000
START=2684530
END=2691584
title=e236

[CHAPTER]
TIMEBASE=1/1000
START=2690584
END=2709354
title=e237[G]

[CHAPTER]
TIMEBASE=1/1000
START=2708354
END=2733641
title=e238[G]

[CHAPTER]
TIMEBASE=1/1000
START=2732641
END=2742983
title=e239[G]

[CHAPTER]
TIMEBASE=1/1000
START=2741983
END=2748070
title=e240

[CHAPTER]
TIMEBASE=1/1000
START=2747070
END=2759213
title=e241[G]

[CHAPTER]
TIMEBASE=1/1000
START=2758213
END=2767429
title=e242

[CHAPTER]
TIMEBASE=1/1000
START=2766429
END=2784749
title=e243[G]

[CHAPTER]
TIMEBASE=1/1000
START=2783749
END=2790350
title=e244

[CHAPTER]
TIMEBASE=1/1000
START=2789350
END=2795742
title=e245

[CHAPTER]
TIMEBASE=1/1000
START=2794742
END=2804197
title=e246[G]

[CHAPTER]
TIMEBASE=1/1000
START=2803197
END=2809340
title=e247

[CHAPTER]
TIMEBASE=1/1000
START=2808340
END=2814746
title=e248

[CHAPTER]
TIMEBASE=1/1000
START=2813746
END=2824639
title=e249[G]

[CHAPTER]
TIMEBASE=1/1000
START=2823639
END=2830056
title=e250

[CHAPTER]
TIMEBASE=1/1000
START=2829056
END=2839500
title=e251[G]

[CHAPTER]
TIMEBASE=1/1000
START=2838500
END=2850114
title=e252[G]

[CHAPTER]
TIMEBASE=1/1000
START=2849114
END=2855324
title=e253

[CHAPTER]
TIMEBASE=1/1000
START=2854324
END=2866219
title=e254[G]

[CHAPTER]
TIMEBASE=1/1000
START=2865219
END=2871880
title=e255

[CHAPTER]
TIMEBASE=1/1000
START=2870880
END=2877074
title=e256

[CHAPTER]
TIMEBASE=1/1000
START=2876074
END=2888259
title=e257[G]

[CHAPTER]
TIMEBASE=1/1000
START=2887259
END=2893679
title=e258

[CHAPTER]
TIMEBASE=1/1000
START=2892679
END=2900717
title=e259

[CHAPTER]
TIMEBASE=1/1000
START=2899717
END=2906089
title=e260

[CHAPTER]
TIMEBASE=1/1000
START=2905089
END=2911205
title=e261

[CHAPTER]
TIMEBASE=1/1000
START=2910205
END=2916369
title=e262

[CHAPTER]
TIMEBASE=1/1000
START=2915369
END=2922013
title=e263

[CHAPTER]
TIMEBASE=1/1000
START=2921013
END=2931833
title=e264[G]

[CHAPTER]
TIMEBASE=1/1000
START=2930833
END=2939490
title=e265

[CHAPTER]
TIMEBASE=1/1000
START=2938490
END=2952867
title=e266[G]

[CHAPTER]
TIMEBASE=1/1000
START=2951867
END=2963707
title=e267[G]

[CHAPTER]
TIMEBASE=1/1000
START=2962707
END=2969072
title=e268

[CHAPTER]
TIMEBASE=1/1000
START=2968072
END=2975412
title=e269

[CHAPTER]
TIMEBASE=1/1000
START=2974412
END=2980697
title=e270

[CHAPTER]
TIMEBASE=1/1000
START=2979697
END=2985656
title=e271

[CHAPTER]
TIMEBASE=1/1000
START=2984656
END=2990983
title=e272

[CHAPTER]
TIMEBASE=1/1000
START=2989983
END=2996435
title=e273

[CHAPTER]
TIMEBASE=1/1000
START=2995435
END=3001645
title=e274

[CHAPTER]
TIMEBASE=1/1000
START=3000645
END=3010662
title=e275[G]

[CHAPTER]
TIMEBASE=1/1000
START=3009662
END=3033232
title=e276[G]

[CHAPTER]
TIMEBASE=1/1000
START=3032232
END=3044410
title=e277[G]

[CHAPTER]
TIMEBASE=1/1000
START=3043410
END=3056438
title=e278[G]

[CHAPTER]
TIMEBASE=1/1000
START=3055438
END=3061946
title=e279

[CHAPTER]
TIMEBASE=1/1000
START=3060946
END=3078676
title=e280[G]
