;FFMETADATA1
major_brand=isom
minor_version=512
compatible_brands=isomiso2avc1mp41
encoder=Lavf56.15.101

[CHAPTER]
TIMEBASE=1/1000
START=11303
END=53010
title=p001[G]

[CHAPTER]
TIMEBASE=1/1000
START=52010
END=80170
title=p002[G]

[CHAPTER]
TIMEBASE=1/1000
START=79170
END=94855
title=p003[G]

[CHAPTER]
TIMEBASE=1/1000
START=93855
END=109531
title=p004[G]

[CHAPTER]
TIMEBASE=1/1000
START=108531
END=128824
title=e001[G]

[CHAPTER]
TIMEBASE=1/1000
START=127824
END=140763
title=e002[G]

[CHAPTER]
TIMEBASE=1/1000
START=139763
END=158924
title=e003[G]

[CHAPTER]
TIMEBASE=1/1000
START=157924
END=170654
title=e004[G]

[CHAPTER]
TIMEBASE=1/1000
START=169654
END=176745
title=e005

[CHAPTER]
TIMEBASE=1/1000
START=175745
END=188613
title=e006[G]

[CHAPTER]
TIMEBASE=1/1000
START=187613
END=199279
title=e007[G]

[CHAPTER]
TIMEBASE=1/1000
START=198279
END=209648
title=e008[G]

[CHAPTER]
TIMEBASE=1/1000
START=208648
END=219955
title=e009[G]

[CHAPTER]
TIMEBASE=1/1000
START=218955
END=225393
title=e010

[CHAPTER]
TIMEBASE=1/1000
START=224393
END=245097
title=e011[G]

[CHAPTER]
TIMEBASE=1/1000
START=244097
END=256057
title=e012[G]

[CHAPTER]
TIMEBASE=1/1000
START=255057
END=262054
title=e013

[CHAPTER]
TIMEBASE=1/1000
START=261054
END=273045
title=e014[G]

[CHAPTER]
TIMEBASE=1/1000
START=272045
END=283721
title=e015[G]

[CHAPTER]
TIMEBASE=1/1000
START=282721
END=297930
title=e016[G]

[CHAPTER]
TIMEBASE=1/1000
START=296930
END=303849
title=e017

[CHAPTER]
TIMEBASE=1/1000
START=302849
END=313637
title=e018[G]

[CHAPTER]
TIMEBASE=1/1000
START=312637
END=323122
title=e019[G]

[CHAPTER]
TIMEBASE=1/1000
START=322122
END=328264
title=e020

[CHAPTER]
TIMEBASE=1/1000
START=327264
END=337465
title=e021[G]

[CHAPTER]
TIMEBASE=1/1000
START=336465
END=346465
title=e022[G]

[CHAPTER]
TIMEBASE=1/1000
START=345465
END=359930
title=e023[G]

[CHAPTER]
TIMEBASE=1/1000
START=358930
END=369777
title=e024[G]

[CHAPTER]
TIMEBASE=1/1000
START=368777
END=380568
title=e025[G]

[CHAPTER]
TIMEBASE=1/1000
START=379568
END=389337
title=e026[G]

[CHAPTER]
TIMEBASE=1/1000
START=388337
END=400386
title=e027[G]

[CHAPTER]
TIMEBASE=1/1000
START=399386
END=410223
title=e028[G]

[CHAPTER]
TIMEBASE=1/1000
START=409223
END=419520
title=e029[G]

[CHAPTER]
TIMEBASE=1/1000
START=418520
END=426086
title=e030

[CHAPTER]
TIMEBASE=1/1000
START=425086
END=434532
title=e031[G]

[CHAPTER]
TIMEBASE=1/1000
START=433532
END=444958
title=e032[G]

[CHAPTER]
TIMEBASE=1/1000
START=443958
END=454718
title=e033[G]

[CHAPTER]
TIMEBASE=1/1000
START=453718
END=466412
title=e034[G]

[CHAPTER]
TIMEBASE=1/1000
START=465412
END=471965
title=e035

[CHAPTER]
TIMEBASE=1/1000
START=470965
END=482674
title=e036[G]

[CHAPTER]
TIMEBASE=1/1000
START=481674
END=498055
title=e037[G]

[CHAPTER]
TIMEBASE=1/1000
START=497055
END=511498
title=e038[G]

[CHAPTER]
TIMEBASE=1/1000
START=510498
END=522428
title=e039[G]

[CHAPTER]
TIMEBASE=1/1000
START=521428
END=528068
title=e040

[CHAPTER]
TIMEBASE=1/1000
START=527068
END=538073
title=e041[G]

[CHAPTER]
TIMEBASE=1/1000
START=537073
END=548345
title=e042[G]

[CHAPTER]
TIMEBASE=1/1000
START=547345
END=558019
title=e043[G]

[CHAPTER]
TIMEBASE=1/1000
START=557019
END=568629
title=e044[G]

[CHAPTER]
TIMEBASE=1/1000
START=567629
END=573974
title=e045

[CHAPTER]
TIMEBASE=1/1000
START=572974
END=582410
title=e046[G]

[CHAPTER]
TIMEBASE=1/1000
START=581410
END=591922
title=e047[G]

[CHAPTER]
TIMEBASE=1/1000
START=590922
END=600652
title=e048[G]

[CHAPTER]
TIMEBASE=1/1000
START=599652
END=612870
title=e049[G]

[CHAPTER]
TIMEBASE=1/1000
START=611870
END=622366
title=e050[G]

[CHAPTER]
TIMEBASE=1/1000
START=621366
END=631668
title=e051[G]

[CHAPTER]
TIMEBASE=1/1000
START=630668
END=642095
title=e052[G]

[CHAPTER]
TIMEBASE=1/1000
START=641095
END=652068
title=e053[G]

[CHAPTER]
TIMEBASE=1/1000
START=651068
END=657564
title=e054

[CHAPTER]
TIMEBASE=1/1000
START=656564
END=662698
title=e055

[CHAPTER]
TIMEBASE=1/1000
START=661698
END=669517
title=e056

[CHAPTER]
TIMEBASE=1/1000
START=668517
END=678466
title=e057[G]

[CHAPTER]
TIMEBASE=1/1000
START=677466
END=683917
title=e058

[CHAPTER]
TIMEBASE=1/1000
START=682917
END=694720
title=e059[G]

[CHAPTER]
TIMEBASE=1/1000
START=693720
END=711037
title=e060[G]

[CHAPTER]
TIMEBASE=1/1000
START=710037
END=720079
title=e061[G]

[CHAPTER]
TIMEBASE=1/1000
START=719079
END=729437
title=e062[G]

[CHAPTER]
TIMEBASE=1/1000
START=728437
END=738027
title=e063[G]

[CHAPTER]
TIMEBASE=1/1000
START=737027
END=753101
title=e064[G]

[CHAPTER]
TIMEBASE=1/1000
START=752101
END=763229
title=e065[G]

[CHAPTER]
TIMEBASE=1/1000
START=762229
END=768423
title=e066

[CHAPTER]
TIMEBASE=1/1000
START=767423
END=777225
title=e067[G]

[CHAPTER]
TIMEBASE=1/1000
START=776225
END=785848
title=e068[G]

[CHAPTER]
TIMEBASE=1/1000
START=784848
END=791163
title=e069

[CHAPTER]
TIMEBASE=1/1000
START=790163
END=801583
title=e070[G]

[CHAPTER]
TIMEBASE=1/1000
START=800583
END=807120
title=e071

[CHAPTER]
TIMEBASE=1/1000
START=806120
END=816343
title=e072[G]

[CHAPTER]
TIMEBASE=1/1000
START=815343
END=825996
title=e073[G]

[CHAPTER]
TIMEBASE=1/1000
START=824996
END=831599
title=e074

[CHAPTER]
TIMEBASE=1/1000
START=830599
END=840082
title=e075[G]

[CHAPTER]
TIMEBASE=1/1000
START=839082
END=856112
title=e076[G]

[CHAPTER]
TIMEBASE=1/1000
START=855112
END=869242
title=e077[G]

[CHAPTER]
TIMEBASE=1/1000
START=868242
END=879133
title=e078[G]

[CHAPTER]
TIMEBASE=1/1000
START=878133
END=884443
title=e079

[CHAPTER]
TIMEBASE=1/1000
START=883443
END=893130
title=e080[G]

[CHAPTER]
TIMEBASE=1/1000
START=892130
END=903535
title=e081[G]

[CHAPTER]
TIMEBASE=1/1000
START=902535
END=918671
title=e082[G]

[CHAPTER]
TIMEBASE=1/1000
START=917671
END=928925
title=e083[G]

[CHAPTER]
TIMEBASE=1/1000
START=927925
END=934346
title=e084

[CHAPTER]
TIMEBASE=1/1000
START=933346
END=943472
title=e085[G]

[CHAPTER]
TIMEBASE=1/1000
START=942472
END=953198
title=e086[G]

[CHAPTER]
TIMEBASE=1/1000
START=952198
END=959075
title=e087

[CHAPTER]
TIMEBASE=1/1000
START=958075
END=969043
title=e088[G]

[CHAPTER]
TIMEBASE=1/1000
START=968043
END=978601
title=e089[G]

[CHAPTER]
TIMEBASE=1/1000
START=977601
END=983730
title=e090

[CHAPTER]
TIMEBASE=1/1000
START=982730
END=988970
title=e091

[CHAPTER]
TIMEBASE=1/1000
START=987970
END=994023
title=e092

[CHAPTER]
TIMEBASE=1/1000
START=993023
END=1004292
title=e093[G]

[CHAPTER]
TIMEBASE=1/1000
START=1003292
END=1013082
title=e094[G]

[CHAPTER]
TIMEBASE=1/1000
START=1012082
END=1018275
title=e095

[CHAPTER]
TIMEBASE=1/1000
START=1017275
END=1023309
title=e096

[CHAPTER]
TIMEBASE=1/1000
START=1022309
END=1032042
title=e097[G]

[CHAPTER]
TIMEBASE=1/1000
START=1031042
END=1037404
title=e098

[CHAPTER]
TIMEBASE=1/1000
START=1036404
END=1042365
title=e099

[CHAPTER]
TIMEBASE=1/1000
START=1041365
END=1050677
title=e100[G]

[CHAPTER]
TIMEBASE=1/1000
START=1049677
END=1059049
title=e101[G]

[CHAPTER]
TIMEBASE=1/1000
START=1058049
END=1063995
title=e102

[CHAPTER]
TIMEBASE=1/1000
START=1062995
END=1072443
title=e103[G]

[CHAPTER]
TIMEBASE=1/1000
START=1071443
END=1082060
title=e104[G]

[CHAPTER]
TIMEBASE=1/1000
START=1081060
END=1090716
title=e105[G]

[CHAPTER]
TIMEBASE=1/1000
START=1089716
END=1099174
title=e106[G]

[CHAPTER]
TIMEBASE=1/1000
START=1098174
END=1104360
title=e107

[CHAPTER]
TIMEBASE=1/1000
START=1103360
END=1113336
title=e108[G]

[CHAPTER]
TIMEBASE=1/1000
START=1112336
END=1122255
title=e109[G]

[CHAPTER]
TIMEBASE=1/1000
START=1121255
END=1131798
title=e110[G]

[CHAPTER]
TIMEBASE=1/1000
START=1130798
END=1141794
title=e111[G]

[CHAPTER]
TIMEBASE=1/1000
START=1140794
END=1150431
title=e112[G]

[CHAPTER]
TIMEBASE=1/1000
START=1149431
END=1164541
title=e113[G]

[CHAPTER]
TIMEBASE=1/1000
START=1163541
END=1172983
title=e114[G]

[CHAPTER]
TIMEBASE=1/1000
START=1171983
END=1183193
title=e115[G]

[CHAPTER]
TIMEBASE=1/1000
START=1182193
END=1192319
title=e116[G]

[CHAPTER]
TIMEBASE=1/1000
START=1191319
END=1197800
title=e117

[CHAPTER]
TIMEBASE=1/1000
START=1196800
END=1206366
title=e118[G]

[CHAPTER]
TIMEBASE=1/1000
START=1205366
END=1215475
title=e119[G]

[CHAPTER]
TIMEBASE=1/1000
START=1214475
END=1225617
title=e120[G]

[CHAPTER]
TIMEBASE=1/1000
START=1224617
END=1239896
title=e121[G]

[CHAPTER]
TIMEBASE=1/1000
START=1238896
END=1249236
title=e122[G]

[CHAPTER]
TIMEBASE=1/1000
START=1248236
END=1258212
title=e123[G]

[CHAPTER]
TIMEBASE=1/1000
START=1257212
END=1263471
title=e124

[CHAPTER]
TIMEBASE=1/1000
START=1262471
END=1272223
title=e125[G]

[CHAPTER]
TIMEBASE=1/1000
START=1271223
END=1282433
title=e126[G]

[CHAPTER]
TIMEBASE=1/1000
START=1281433
END=1288177
title=e127

[CHAPTER]
TIMEBASE=1/1000
START=1287177
END=1293617
title=e128

[CHAPTER]
TIMEBASE=1/1000
START=1292617
END=1304301
title=e129[G]

[CHAPTER]
TIMEBASE=1/1000
START=1303301
END=1314027
title=e130[G]

[CHAPTER]
TIMEBASE=1/1000
START=1313027
END=1320423
title=e131

[CHAPTER]
TIMEBASE=1/1000
START=1319423
END=1325858
title=e132

[CHAPTER]
TIMEBASE=1/1000
START=1324858
END=1334323
title=e133[G]

[CHAPTER]
TIMEBASE=1/1000
START=1333323
END=1343464
title=e134[G]

[CHAPTER]
TIMEBASE=1/1000
START=1342464
END=1348701
title=e135

[CHAPTER]
TIMEBASE=1/1000
START=1347701
END=1353847
title=e136

[CHAPTER]
TIMEBASE=1/1000
START=1352847
END=1362714
title=e137[G]

[CHAPTER]
TIMEBASE=1/1000
START=1361714
END=1371156
title=e138[G]

[CHAPTER]
TIMEBASE=1/1000
START=1370156
END=1376499
title=e139

[CHAPTER]
TIMEBASE=1/1000
START=1375499
END=1381709
title=e140

[CHAPTER]
TIMEBASE=1/1000
START=1380709
END=1390356
title=e141[G]

[CHAPTER]
TIMEBASE=1/1000
START=1389356
END=1401800
title=e142[G]

[CHAPTER]
TIMEBASE=1/1000
START=1400800
END=1407175
title=e143

[CHAPTER]
TIMEBASE=1/1000
START=1406175
END=1415891
title=e144[G]

[CHAPTER]
TIMEBASE=1/1000
START=1414891
END=1424737
title=e145[G]

[CHAPTER]
TIMEBASE=1/1000
START=1423737
END=1430553
title=e146

[CHAPTER]
TIMEBASE=1/1000
START=1429553
END=1440152
title=e147[G]

[CHAPTER]
TIMEBASE=1/1000
START=1439152
END=1455234
title=e148[G]

[CHAPTER]
TIMEBASE=1/1000
START=1454234
END=1465375
title=e149[G]

[CHAPTER]
TIMEBASE=1/1000
START=1464375
END=1474032
title=e150[G]

[CHAPTER]
TIMEBASE=1/1000
START=1473032
END=1482639
title=e151[G]

[CHAPTER]
TIMEBASE=1/1000
START=1481639
END=1492859
title=e152[G]

[CHAPTER]
TIMEBASE=1/1000
START=1491859
END=1512681
title=e153[G]

[CHAPTER]
TIMEBASE=1/1000
START=1511681
END=1522257
title=e154[G]

[CHAPTER]
TIMEBASE=1/1000
START=1521257
END=1531682
title=e155[G]

[CHAPTER]
TIMEBASE=1/1000
START=1530682
END=1542074
title=e156[G]

[CHAPTER]
TIMEBASE=1/1000
START=1541074
END=1551583
title=e157[G]

[CHAPTER]
TIMEBASE=1/1000
START=1550583
END=1560407
title=e158[G]

[CHAPTER]
TIMEBASE=1/1000
START=1559407
END=1570761
title=e159[G]

[CHAPTER]
TIMEBASE=1/1000
START=1569761
END=1579436
title=e160[G]

[CHAPTER]
TIMEBASE=1/1000
START=1578436
END=1585708
title=e161

[CHAPTER]
TIMEBASE=1/1000
START=1584708
END=1595418
title=e162[G]

[CHAPTER]
TIMEBASE=1/1000
START=1594418
END=1604007
title=e163[G]

[CHAPTER]
TIMEBASE=1/1000
START=1603007
END=1612599
title=e164[G]

[CHAPTER]
TIMEBASE=1/1000
START=1611599
END=1618001
title=e165

[CHAPTER]
TIMEBASE=1/1000
START=1617001
END=1623163
title=e166

[CHAPTER]
TIMEBASE=1/1000
START=1622163
END=1628224
title=e167

[CHAPTER]
TIMEBASE=1/1000
START=1627224
END=1633226
title=e168

[CHAPTER]
TIMEBASE=1/1000
START=1632226
END=1638289
title=e169

[CHAPTER]
TIMEBASE=1/1000
START=1637289
END=1643158
title=e170

[CHAPTER]
TIMEBASE=1/1000
START=1642158
END=1648396
title=e171

[CHAPTER]
TIMEBASE=1/1000
START=1647396
END=1653409
title=e172

[CHAPTER]
TIMEBASE=1/1000
START=1652409
END=1663109
title=e173[G]

[CHAPTER]
TIMEBASE=1/1000
START=1662109
END=1668091
title=e174

[CHAPTER]
TIMEBASE=1/1000
START=1667091
END=1673073
title=e175

[CHAPTER]
TIMEBASE=1/1000
START=1672073
END=1683229
title=e176[G]

[CHAPTER]
TIMEBASE=1/1000
START=1682229
END=1691705
title=e177[G]

[CHAPTER]
TIMEBASE=1/1000
START=1690705
END=1699828
title=e178[G]

[CHAPTER]
TIMEBASE=1/1000
START=1698828
END=1704961
title=e179

[CHAPTER]
TIMEBASE=1/1000
START=1703961
END=1715091
title=e180[G]

[CHAPTER]
TIMEBASE=1/1000
START=1714091
END=1724215
title=e181[G]

[CHAPTER]
TIMEBASE=1/1000
START=1723215
END=1729479
title=e182

[CHAPTER]
TIMEBASE=1/1000
START=1728479
END=1734564
title=e183

[CHAPTER]
TIMEBASE=1/1000
START=1733564
END=1742949
title=e184[G]

[CHAPTER]
TIMEBASE=1/1000
START=1741949
END=1748820
title=e185

[CHAPTER]
TIMEBASE=1/1000
START=1747820
END=1754126
title=e186

[CHAPTER]
TIMEBASE=1/1000
START=1753126
END=1762416
title=e187[G]

[CHAPTER]
TIMEBASE=1/1000
START=1761416
END=1772240
title=e188[G]

[CHAPTER]
TIMEBASE=1/1000
START=1771240
END=1781999
title=e189[G]

[CHAPTER]
TIMEBASE=1/1000
START=1780999
END=1791169
title=e190[G]

[CHAPTER]
TIMEBASE=1/1000
START=1790169
END=1802181
title=e191[G]

[CHAPTER]
TIMEBASE=1/1000
START=1801181
END=1814978
title=e192[G]

[CHAPTER]
TIMEBASE=1/1000
START=1813978
END=1819961
title=e193

[CHAPTER]
TIMEBASE=1/1000
START=1818961
END=1824952
title=e194

[CHAPTER]
TIMEBASE=1/1000
START=1823952
END=1830136
title=e195

[CHAPTER]
TIMEBASE=1/1000
START=1829136
END=1835206
title=e196

[CHAPTER]
TIMEBASE=1/1000
START=1834206
END=1840395
title=e197

[CHAPTER]
TIMEBASE=1/1000
START=1839395
END=1845421
title=e198

[CHAPTER]
TIMEBASE=1/1000
START=1844421
END=1854062
title=e199[G]

[CHAPTER]
TIMEBASE=1/1000
START=1853062
END=1859425
title=e200

[CHAPTER]
TIMEBASE=1/1000
START=1858425
END=1869426
title=e201[G]

[CHAPTER]
TIMEBASE=1/1000
START=1868426
END=1874446
title=e202

[CHAPTER]
TIMEBASE=1/1000
START=1873446
END=1884489
title=e203[G]

[CHAPTER]
TIMEBASE=1/1000
START=1883489
END=1894163
title=e204[G]

[CHAPTER]
TIMEBASE=1/1000
START=1893163
END=1904456
title=e205[G]

[CHAPTER]
TIMEBASE=1/1000
START=1903456
END=1909523
title=e206

[CHAPTER]
TIMEBASE=1/1000
START=1908523
END=1918733
title=e207[G]

[CHAPTER]
TIMEBASE=1/1000
START=1917733
END=1934129
title=e208[G]

[CHAPTER]
TIMEBASE=1/1000
START=1933129
END=1947538
title=e209[G]

[CHAPTER]
TIMEBASE=1/1000
START=1946538
END=1960801
title=e210[G]

[CHAPTER]
TIMEBASE=1/1000
START=1959801
END=1965705
title=e211

[CHAPTER]
TIMEBASE=1/1000
START=1964705
END=1973895
title=e212[G]

[CHAPTER]
TIMEBASE=1/1000
START=1972895
END=1982185
title=e213[G]

[CHAPTER]
TIMEBASE=1/1000
START=1981185
END=1991928
title=e214[G]

[CHAPTER]
TIMEBASE=1/1000
START=1990928
END=2000854
title=e215[G]

[CHAPTER]
TIMEBASE=1/1000
START=1999854
END=2005865
title=e216

[CHAPTER]
TIMEBASE=1/1000
START=2004865
END=2014347
title=e217[G]

[CHAPTER]
TIMEBASE=1/1000
START=2013347
END=2019694
title=e218

[CHAPTER]
TIMEBASE=1/1000
START=2018694
END=2028842
title=e219[G]

[CHAPTER]
TIMEBASE=1/1000
START=2027842
END=2037650
title=e220[G]

[CHAPTER]
TIMEBASE=1/1000
START=2036650
END=2049914
title=e221[G]

[CHAPTER]
TIMEBASE=1/1000
START=2048914
END=2058272
title=e222[G]

[CHAPTER]
TIMEBASE=1/1000
START=2057272
END=2067126
title=e223[G]

[CHAPTER]
TIMEBASE=1/1000
START=2066126
END=2072547
title=e224

[CHAPTER]
TIMEBASE=1/1000
START=2071547
END=2081422
title=e225[G]

[CHAPTER]
TIMEBASE=1/1000
START=2080422
END=2087236
title=e226

[CHAPTER]
TIMEBASE=1/1000
START=2086236
END=2092276
title=e227

[CHAPTER]
TIMEBASE=1/1000
START=2091276
END=2097181
title=e228

[CHAPTER]
TIMEBASE=1/1000
START=2096181
END=2106648
title=e229[G]

[CHAPTER]
TIMEBASE=1/1000
START=2105648
END=2115268
title=e230[G]

[CHAPTER]
TIMEBASE=1/1000
START=2114268
END=2120494
title=e231

[CHAPTER]
TIMEBASE=1/1000
START=2119494
END=2129046
title=e232[G]

[CHAPTER]
TIMEBASE=1/1000
START=2128046
END=2134294
title=e233

[CHAPTER]
TIMEBASE=1/1000
START=2133294
END=2143625
title=e234[G]

[CHAPTER]
TIMEBASE=1/1000
START=2142625
END=2148596
title=e235

[CHAPTER]
TIMEBASE=1/1000
START=2147596
END=2153797
title=e236

[CHAPTER]
TIMEBASE=1/1000
START=2152797
END=2164609
title=e237[G]

[CHAPTER]
TIMEBASE=1/1000
START=2163609
END=2173006
title=e238[G]

[CHAPTER]
TIMEBASE=1/1000
START=2172006
END=2181646
title=e239[G]

[CHAPTER]
TIMEBASE=1/1000
START=2180646
END=2186884
title=e240

[CHAPTER]
TIMEBASE=1/1000
START=2185884
END=2193522
title=e241

[CHAPTER]
TIMEBASE=1/1000
START=2192522
END=2198695
title=e242

[CHAPTER]
TIMEBASE=1/1000
START=2197695
END=2204298
title=e243

[CHAPTER]
TIMEBASE=1/1000
START=2203298
END=2213123
title=e244[G]

[CHAPTER]
TIMEBASE=1/1000
START=2212123
END=2218111
title=e245

[CHAPTER]
TIMEBASE=1/1000
START=2217111
END=2223347
title=e246

[CHAPTER]
TIMEBASE=1/1000
START=2222347
END=2228532
title=e247

[CHAPTER]
TIMEBASE=1/1000
START=2227532
END=2237259
title=e248[G]

[CHAPTER]
TIMEBASE=1/1000
START=2236259
END=2245634
title=e249[G]

[CHAPTER]
TIMEBASE=1/1000
START=2244634
END=2250721
title=e250

[CHAPTER]
TIMEBASE=1/1000
START=2249721
END=2259479
title=e251[G]

[CHAPTER]
TIMEBASE=1/1000
START=2258479
END=2264563
title=e252

[CHAPTER]
TIMEBASE=1/1000
START=2263563
END=2272873
title=e253[G]

[CHAPTER]
TIMEBASE=1/1000
START=2271873
END=2281599
title=e254[G]

[CHAPTER]
TIMEBASE=1/1000
START=2280599
END=2290390
title=e255[G]

[CHAPTER]
TIMEBASE=1/1000
START=2289390
END=2299881
title=e256[G]

[CHAPTER]
TIMEBASE=1/1000
START=2298881
END=2308422
title=e257[G]

[CHAPTER]
TIMEBASE=1/1000
START=2307422
END=2313492
title=e258

[CHAPTER]
TIMEBASE=1/1000
START=2312492
END=2323435
title=e259[G]

[CHAPTER]
TIMEBASE=1/1000
START=2322435
END=2331975
title=e260[G]

[CHAPTER]
TIMEBASE=1/1000
START=2330975
END=2336975
title=e261

[CHAPTER]
TIMEBASE=1/1000
START=2335975
END=2342016
title=e262

[CHAPTER]
TIMEBASE=1/1000
START=2341016
END=2347336
title=e263

[CHAPTER]
TIMEBASE=1/1000
START=2346336
END=2357609
title=e264[G]

[CHAPTER]
TIMEBASE=1/1000
START=2356609
END=2366500
title=e265[G]

[CHAPTER]
TIMEBASE=1/1000
START=2365500
END=2376928
title=e266[G]

[CHAPTER]
TIMEBASE=1/1000
START=2375928
END=2382031
title=e267

[CHAPTER]
TIMEBASE=1/1000
START=2381031
END=2387053
title=e268

[CHAPTER]
TIMEBASE=1/1000
START=2386053
END=2392337
title=e269

[CHAPTER]
TIMEBASE=1/1000
START=2391337
END=2401103
title=e270[G]

[CHAPTER]
TIMEBASE=1/1000
START=2400103
END=2406580
title=e271

[CHAPTER]
TIMEBASE=1/1000
START=2405580
END=2411672
title=e272

[CHAPTER]
TIMEBASE=1/1000
START=2410672
END=2416849
title=e273

[CHAPTER]
TIMEBASE=1/1000
START=2415849
END=2422100
title=e274

[CHAPTER]
TIMEBASE=1/1000
START=2421100
END=2427540
title=e275

[CHAPTER]
TIMEBASE=1/1000
START=2426540
END=2432625
title=e276

[CHAPTER]
TIMEBASE=1/1000
START=2431625
END=2437564
title=e277

[CHAPTER]
TIMEBASE=1/1000
START=2436564
END=2442554
title=e278

[CHAPTER]
TIMEBASE=1/1000
START=2441554
END=2447477
title=e279

[CHAPTER]
TIMEBASE=1/1000
START=2446477
END=2458401
title=e280[G]
