;FFMETADATA1
major_brand=isom
minor_version=512
compatible_brands=isomiso2avc1mp41
encoder=Lavf56.15.101

[CHAPTER]
TIMEBASE=1/1000
START=23054
END=62206
title=p001[G]

[CHAPTER]
TIMEBASE=1/1000
START=61206
END=96150
title=p002[G]

[CHAPTER]
TIMEBASE=1/1000
START=95150
END=103234
title=p003

[CHAPTER]
TIMEBASE=1/1000
START=102234
END=113794
title=p004

[CHAPTER]
TIMEBASE=1/1000
START=112794
END=152166
title=e001[G]

[CHAPTER]
TIMEBASE=1/1000
START=151166
END=169146
title=e002[G]

[CHAPTER]
TIMEBASE=1/1000
START=168146
END=184076
title=e003[G]

[CHAPTER]
TIMEBASE=1/1000
START=183076
END=199060
title=e004[G]

[CHAPTER]
TIMEBASE=1/1000
START=198060
END=204755
title=e005

[CHAPTER]
TIMEBASE=1/1000
START=203755
END=210327
title=e006

[CHAPTER]
TIMEBASE=1/1000
START=209327
END=225665
title=e007[G]

[CHAPTER]
TIMEBASE=1/1000
START=224665
END=239826
title=e008[G]

[CHAPTER]
TIMEBASE=1/1000
START=238826
END=257346
title=e009[G]

[CHAPTER]
TIMEBASE=1/1000
START=256346
END=270586
title=e010[G]

[CHAPTER]
TIMEBASE=1/1000
START=269586
END=276223
title=e011

[CHAPTER]
TIMEBASE=1/1000
START=275223
END=294126
title=e012[G]

[CHAPTER]
TIMEBASE=1/1000
START=293126
END=304203
title=e013[G]

[CHAPTER]
TIMEBASE=1/1000
START=303203
END=310113
title=e014

[CHAPTER]
TIMEBASE=1/1000
START=309113
END=338845
title=e015[G]

[CHAPTER]
TIMEBASE=1/1000
START=337845
END=348747
title=e016[G]

[CHAPTER]
TIMEBASE=1/1000
START=347747
END=354372
title=e017

[CHAPTER]
TIMEBASE=1/1000
START=353372
END=366653
title=e018[G]

[CHAPTER]
TIMEBASE=1/1000
START=365653
END=372324
title=e019

[CHAPTER]
TIMEBASE=1/1000
START=371324
END=395043
title=e020[G]

[CHAPTER]
TIMEBASE=1/1000
START=394043
END=402360
title=e021

[CHAPTER]
TIMEBASE=1/1000
START=401360
END=407870
title=e022

[CHAPTER]
TIMEBASE=1/1000
START=406870
END=413688
title=e023

[CHAPTER]
TIMEBASE=1/1000
START=412688
END=425088
title=e024[G]

[CHAPTER]
TIMEBASE=1/1000
START=424088
END=437491
title=e025[G]

[CHAPTER]
TIMEBASE=1/1000
START=436491
END=450178
title=e026[G]

[CHAPTER]
TIMEBASE=1/1000
START=449178
END=460367
title=e027[G]

[CHAPTER]
TIMEBASE=1/1000
START=459367
END=477423
title=e028[G]

[CHAPTER]
TIMEBASE=1/1000
START=476423
END=493222
title=e029[G]

[CHAPTER]
TIMEBASE=1/1000
START=492222
END=498464
title=e030

[CHAPTER]
TIMEBASE=1/1000
START=497464
END=504706
title=e031

[CHAPTER]
TIMEBASE=1/1000
START=503706
END=516853
title=e032[G]

[CHAPTER]
TIMEBASE=1/1000
START=515853
END=526757
title=e033[G]

[CHAPTER]
TIMEBASE=1/1000
START=525757
END=531897
title=e034

[CHAPTER]
TIMEBASE=1/1000
START=530897
END=541431
title=e035[G]

[CHAPTER]
TIMEBASE=1/1000
START=540431
END=559383
title=e036[G]

[CHAPTER]
TIMEBASE=1/1000
START=558383
END=564770
title=e037

[CHAPTER]
TIMEBASE=1/1000
START=563770
END=575587
title=e038[G]

[CHAPTER]
TIMEBASE=1/1000
START=574587
END=589444
title=e039[G]

[CHAPTER]
TIMEBASE=1/1000
START=588444
END=603904
title=e040[G]

[CHAPTER]
TIMEBASE=1/1000
START=602904
END=612553
title=e041

[CHAPTER]
TIMEBASE=1/1000
START=611553
END=622373
title=e042[G]

[CHAPTER]
TIMEBASE=1/1000
START=621373
END=632926
title=e043[G]

[CHAPTER]
TIMEBASE=1/1000
START=631926
END=645262
title=e044[G]

[CHAPTER]
TIMEBASE=1/1000
START=644262
END=650688
title=e045

[CHAPTER]
TIMEBASE=1/1000
START=649688
END=657935
title=e046

[CHAPTER]
TIMEBASE=1/1000
START=656935
END=668056
title=e047[G]

[CHAPTER]
TIMEBASE=1/1000
START=667056
END=674581
title=e048

[CHAPTER]
TIMEBASE=1/1000
START=673581
END=684427
title=e049[G]

[CHAPTER]
TIMEBASE=1/1000
START=683427
END=695218
title=e050

[CHAPTER]
TIMEBASE=1/1000
START=694218
END=714992
title=e051[G]

[CHAPTER]
TIMEBASE=1/1000
START=713992
END=726318
title=e052[G]

[CHAPTER]
TIMEBASE=1/1000
START=725318
END=741894
title=e053[G]

[CHAPTER]
TIMEBASE=1/1000
START=740894
END=751351
title=e054[G]

[CHAPTER]
TIMEBASE=1/1000
START=750351
END=771556
title=e055[G]

[CHAPTER]
TIMEBASE=1/1000
START=770556
END=783449
title=e056[G]

[CHAPTER]
TIMEBASE=1/1000
START=782449
END=801844
title=e057[G]

[CHAPTER]
TIMEBASE=1/1000
START=800844
END=820478
title=e058[G]

[CHAPTER]
TIMEBASE=1/1000
START=819478
END=826153
title=e059

[CHAPTER]
TIMEBASE=1/1000
START=825153
END=832822
title=e060

[CHAPTER]
TIMEBASE=1/1000
START=831822
END=843721
title=e061[G]

[CHAPTER]
TIMEBASE=1/1000
START=842721
END=851730
title=e062

[CHAPTER]
TIMEBASE=1/1000
START=850730
END=865021
title=e063[G]

[CHAPTER]
TIMEBASE=1/1000
START=864021
END=877492
title=e064[G]

[CHAPTER]
TIMEBASE=1/1000
START=876492
END=888856
title=e065[G]

[CHAPTER]
TIMEBASE=1/1000
START=887856
END=901520
title=e066[G]

[CHAPTER]
TIMEBASE=1/1000
START=900520
END=911652
title=e067[G]

[CHAPTER]
TIMEBASE=1/1000
START=910652
END=932094
title=e068[G]

[CHAPTER]
TIMEBASE=1/1000
START=931094
END=954127
title=e069[G]

[CHAPTER]
TIMEBASE=1/1000
START=953127
END=977856
title=e070[G]

[CHAPTER]
TIMEBASE=1/1000
START=976856
END=987858
title=e071[G]

[CHAPTER]
TIMEBASE=1/1000
START=986858
END=993342
title=e072

[CHAPTER]
TIMEBASE=1/1000
START=992342
END=998802
title=e073

[CHAPTER]
TIMEBASE=1/1000
START=997802
END=1009779
title=e074[G]

[CHAPTER]
TIMEBASE=1/1000
START=1008779
END=1019671
title=e075[G]

[CHAPTER]
TIMEBASE=1/1000
START=1018671
END=1036454
title=e076[G]

[CHAPTER]
TIMEBASE=1/1000
START=1035454
END=1054472
title=e077[G]

[CHAPTER]
TIMEBASE=1/1000
START=1053472
END=1068300
title=e078[G]

[CHAPTER]
TIMEBASE=1/1000
START=1067300
END=1078200
title=e079[G]

[CHAPTER]
TIMEBASE=1/1000
START=1077200
END=1084011
title=e080

[CHAPTER]
TIMEBASE=1/1000
START=1083011
END=1090834
title=e081

[CHAPTER]
TIMEBASE=1/1000
START=1089834
END=1101094
title=e082[G]

[CHAPTER]
TIMEBASE=1/1000
START=1100094
END=1106477
title=e083

[CHAPTER]
TIMEBASE=1/1000
START=1105477
END=1116257
title=e084[G]

[CHAPTER]
TIMEBASE=1/1000
START=1115257
END=1134001
title=e085[G]

[CHAPTER]
TIMEBASE=1/1000
START=1133001
END=1139876
title=e086

[CHAPTER]
TIMEBASE=1/1000
START=1138876
END=1145681
title=e087

[CHAPTER]
TIMEBASE=1/1000
START=1144681
END=1175117
title=e088[G]

[CHAPTER]
TIMEBASE=1/1000
START=1174117
END=1184302
title=e089[G]

[CHAPTER]
TIMEBASE=1/1000
START=1183302
END=1195661
title=e090[G]

[CHAPTER]
TIMEBASE=1/1000
START=1194661
END=1206664
title=e091[G]

[CHAPTER]
TIMEBASE=1/1000
START=1205664
END=1213570
title=e092

[CHAPTER]
TIMEBASE=1/1000
START=1212570
END=1219362
title=e093

[CHAPTER]
TIMEBASE=1/1000
START=1218362
END=1235609
title=e094[G]

[CHAPTER]
TIMEBASE=1/1000
START=1234609
END=1247557
title=e095[G]

[CHAPTER]
TIMEBASE=1/1000
START=1246557
END=1253409
title=e096

[CHAPTER]
TIMEBASE=1/1000
START=1252409
END=1258399
title=e097

[CHAPTER]
TIMEBASE=1/1000
START=1257399
END=1272315
title=e098[G]

[CHAPTER]
TIMEBASE=1/1000
START=1271315
END=1282063
title=e099[G]

[CHAPTER]
TIMEBASE=1/1000
START=1281063
END=1288229
title=e100

[CHAPTER]
TIMEBASE=1/1000
START=1287229
END=1300909
title=e101[G]

[CHAPTER]
TIMEBASE=1/1000
START=1299909
END=1313512
title=e102[G]

[CHAPTER]
TIMEBASE=1/1000
START=1312512
END=1326799
title=e103[G]

[CHAPTER]
TIMEBASE=1/1000
START=1325799
END=1332165
title=e104

[CHAPTER]
TIMEBASE=1/1000
START=1331165
END=1348368
title=e105[G]

[CHAPTER]
TIMEBASE=1/1000
START=1347368
END=1358483
title=e106[G]

[CHAPTER]
TIMEBASE=1/1000
START=1357483
END=1367884
title=e107[G]

[CHAPTER]
TIMEBASE=1/1000
START=1366884
END=1373814
title=e108

[CHAPTER]
TIMEBASE=1/1000
START=1372814
END=1386440
title=e109[G]

[CHAPTER]
TIMEBASE=1/1000
START=1385440
END=1400581
title=e110[G]

[CHAPTER]
TIMEBASE=1/1000
START=1399581
END=1405748
title=e111

[CHAPTER]
TIMEBASE=1/1000
START=1404748
END=1421932
title=e112[G]

[CHAPTER]
TIMEBASE=1/1000
START=1420932
END=1428762
title=e113

[CHAPTER]
TIMEBASE=1/1000
START=1427762
END=1437767
title=e114[G]

[CHAPTER]
TIMEBASE=1/1000
START=1436767
END=1448038
title=e115[G]

[CHAPTER]
TIMEBASE=1/1000
START=1447038
END=1453957
title=e116

[CHAPTER]
TIMEBASE=1/1000
START=1452957
END=1458989
title=e117

[CHAPTER]
TIMEBASE=1/1000
START=1457989
END=1474062
title=e118[G]

[CHAPTER]
TIMEBASE=1/1000
START=1473062
END=1486601
title=e119[G]

[CHAPTER]
TIMEBASE=1/1000
START=1485601
END=1497283
title=e120[G]

[CHAPTER]
TIMEBASE=1/1000
START=1496283
END=1507997
title=e121[G]

[CHAPTER]
TIMEBASE=1/1000
START=1506997
END=1531611
title=e122[G]

[CHAPTER]
TIMEBASE=1/1000
START=1530611
END=1544556
title=e123[G]

[CHAPTER]
TIMEBASE=1/1000
START=1543556
END=1560289
title=e124[G]

[CHAPTER]
TIMEBASE=1/1000
START=1559289
END=1572715
title=e125[G]

[CHAPTER]
TIMEBASE=1/1000
START=1571715
END=1578177
title=e126

[CHAPTER]
TIMEBASE=1/1000
START=1577177
END=1599371
title=e127[G]

[CHAPTER]
TIMEBASE=1/1000
START=1598371
END=1614869
title=e128[G]

[CHAPTER]
TIMEBASE=1/1000
START=1613869
END=1641810
title=e129[G]

[CHAPTER]
TIMEBASE=1/1000
START=1640810
END=1656121
title=e130[G]

[CHAPTER]
TIMEBASE=1/1000
START=1655121
END=1668014
title=e131[G]

[CHAPTER]
TIMEBASE=1/1000
START=1667014
END=1682359
title=e132[G]

[CHAPTER]
TIMEBASE=1/1000
START=1681359
END=1690570
title=e133

[CHAPTER]
TIMEBASE=1/1000
START=1689570
END=1703111
title=e134[G]

[CHAPTER]
TIMEBASE=1/1000
START=1702111
END=1714540
title=e135[G]

[CHAPTER]
TIMEBASE=1/1000
START=1713540
END=1740060
title=e136[G]

[CHAPTER]
TIMEBASE=1/1000
START=1739060
END=1752570
title=e137[G]

[CHAPTER]
TIMEBASE=1/1000
START=1751570
END=1758086
title=e138

[CHAPTER]
TIMEBASE=1/1000
START=1757086
END=1763525
title=e139

[CHAPTER]
TIMEBASE=1/1000
START=1762525
END=1779182
title=e140[G]

[CHAPTER]
TIMEBASE=1/1000
START=1778182
END=1785381
title=e141

[CHAPTER]
TIMEBASE=1/1000
START=1784381
END=1800197
title=e142[G]

[CHAPTER]
TIMEBASE=1/1000
START=1799197
END=1805845
title=e143

[CHAPTER]
TIMEBASE=1/1000
START=1804845
END=1825153
title=e144[G]

[CHAPTER]
TIMEBASE=1/1000
START=1824153
END=1843471
title=e145[G]

[CHAPTER]
TIMEBASE=1/1000
START=1842471
END=1849095
title=e146

[CHAPTER]
TIMEBASE=1/1000
START=1848095
END=1874267
title=e147[G]

[CHAPTER]
TIMEBASE=1/1000
START=1873267
END=1885401
title=e148[G]

[CHAPTER]
TIMEBASE=1/1000
START=1884401
END=1891707
title=e149

[CHAPTER]
TIMEBASE=1/1000
START=1890707
END=1902839
title=e150[G]

[CHAPTER]
TIMEBASE=1/1000
START=1901839
END=1908000
title=e151

[CHAPTER]
TIMEBASE=1/1000
START=1907000
END=1913353
title=e152

[CHAPTER]
TIMEBASE=1/1000
START=1912353
END=1925274
title=e153[G]

[CHAPTER]
TIMEBASE=1/1000
START=1924274
END=1940389
title=e154[G]

[CHAPTER]
TIMEBASE=1/1000
START=1939389
END=1945810
title=e155

[CHAPTER]
TIMEBASE=1/1000
START=1944810
END=1950937
title=e156

[CHAPTER]
TIMEBASE=1/1000
START=1949937
END=1974113
title=e157[G]

[CHAPTER]
TIMEBASE=1/1000
START=1973113
END=2000875
title=e158[G]

[CHAPTER]
TIMEBASE=1/1000
START=1999875
END=2023980
title=e159[G]

[CHAPTER]
TIMEBASE=1/1000
START=2022980
END=2036123
title=e160[G]

[CHAPTER]
TIMEBASE=1/1000
START=2035123
END=2046951
title=e161[G]

[CHAPTER]
TIMEBASE=1/1000
START=2045951
END=2052572
title=e162

[CHAPTER]
TIMEBASE=1/1000
START=2051572
END=2063562
title=e163[G]

[CHAPTER]
TIMEBASE=1/1000
START=2062562
END=2076307
title=e164[G]

[CHAPTER]
TIMEBASE=1/1000
START=2075307
END=2081286
title=e165

[CHAPTER]
TIMEBASE=1/1000
START=2080286
END=2093676
title=e166[G]

[CHAPTER]
TIMEBASE=1/1000
START=2092676
END=2106436
title=e167[G]

[CHAPTER]
TIMEBASE=1/1000
START=2105436
END=2120098
title=e168[G]

[CHAPTER]
TIMEBASE=1/1000
START=2119098
END=2125875
title=e169

[CHAPTER]
TIMEBASE=1/1000
START=2124875
END=2140081
title=e170[G]

[CHAPTER]
TIMEBASE=1/1000
START=2139081
END=2185313
title=e171[G]

[CHAPTER]
TIMEBASE=1/1000
START=2184313
END=2197465
title=e172[G]

[CHAPTER]
TIMEBASE=1/1000
START=2196465
END=2209692
title=e173[G]

[CHAPTER]
TIMEBASE=1/1000
START=2208692
END=2219566
title=e174[G]

[CHAPTER]
TIMEBASE=1/1000
START=2218566
END=2225286
title=e175

[CHAPTER]
TIMEBASE=1/1000
START=2224286
END=2242658
title=e176[G]

[CHAPTER]
TIMEBASE=1/1000
START=2241658
END=2252412
title=e177[G]

[CHAPTER]
TIMEBASE=1/1000
START=2251412
END=2257645
title=e178

[CHAPTER]
TIMEBASE=1/1000
START=2256645
END=2271146
title=e179[G]

[CHAPTER]
TIMEBASE=1/1000
START=2270146
END=2282277
title=e180

[CHAPTER]
TIMEBASE=1/1000
START=2281277
END=2292499
title=e181[G]

[CHAPTER]
TIMEBASE=1/1000
START=2291499
END=2299105
title=e182

[CHAPTER]
TIMEBASE=1/1000
START=2298105
END=2311416
title=e183[G]

[CHAPTER]
TIMEBASE=1/1000
START=2310416
END=2317793
title=e184

[CHAPTER]
TIMEBASE=1/1000
START=2316793
END=2327646
title=e185[G]

[CHAPTER]
TIMEBASE=1/1000
START=2326646
END=2334525
title=e186

[CHAPTER]
TIMEBASE=1/1000
START=2333525
END=2346158
title=e187[G]

[CHAPTER]
TIMEBASE=1/1000
START=2345158
END=2360722
title=e188[G]

[CHAPTER]
TIMEBASE=1/1000
START=2359722
END=2366268
title=e189

[CHAPTER]
TIMEBASE=1/1000
START=2365268
END=2377407
title=e190[G]

[CHAPTER]
TIMEBASE=1/1000
START=2376407
END=2383150
title=e191

[CHAPTER]
TIMEBASE=1/1000
START=2382150
END=2393165
title=e192[G]

[CHAPTER]
TIMEBASE=1/1000
START=2392165
END=2403212
title=e193[G]

[CHAPTER]
TIMEBASE=1/1000
START=2402212
END=2409853
title=e194

[CHAPTER]
TIMEBASE=1/1000
START=2408853
END=2425531
title=e195[G]

[CHAPTER]
TIMEBASE=1/1000
START=2424531
END=2444301
title=e196[G]

[CHAPTER]
TIMEBASE=1/1000
START=2443301
END=2451727
title=e197

[CHAPTER]
TIMEBASE=1/1000
START=2450727
END=2466818
title=e198[G]

[CHAPTER]
TIMEBASE=1/1000
START=2465818
END=2473409
title=e199

[CHAPTER]
TIMEBASE=1/1000
START=2472409
END=2478901
title=e200

[CHAPTER]
TIMEBASE=1/1000
START=2477901
END=2485442
title=e201

[CHAPTER]
TIMEBASE=1/1000
START=2484442
END=2501516
title=e202[G]

[CHAPTER]
TIMEBASE=1/1000
START=2500516
END=2516182
title=e203[G]

[CHAPTER]
TIMEBASE=1/1000
START=2515182
END=2523775
title=e204

[CHAPTER]
TIMEBASE=1/1000
START=2522775
END=2533077
title=e205[G]

[CHAPTER]
TIMEBASE=1/1000
START=2532077
END=2543721
title=e206[G]

[CHAPTER]
TIMEBASE=1/1000
START=2542721
END=2549333
title=e207

[CHAPTER]
TIMEBASE=1/1000
START=2548333
END=2554797
title=e208

[CHAPTER]
TIMEBASE=1/1000
START=2553797
END=2565335
title=e209[G]

[CHAPTER]
TIMEBASE=1/1000
START=2564335
END=2582120
title=e210[G]

[CHAPTER]
TIMEBASE=1/1000
START=2581120
END=2594597
title=e211[G]

[CHAPTER]
TIMEBASE=1/1000
START=2593597
END=2607960
title=e212[G]

[CHAPTER]
TIMEBASE=1/1000
START=2606960
END=2621580
title=e213[G]

[CHAPTER]
TIMEBASE=1/1000
START=2620580
END=2626666
title=e214

[CHAPTER]
TIMEBASE=1/1000
START=2625666
END=2632006
title=e215

[CHAPTER]
TIMEBASE=1/1000
START=2631006
END=2637653
title=e216

[CHAPTER]
TIMEBASE=1/1000
START=2636653
END=2647261
title=e217[G]

[CHAPTER]
TIMEBASE=1/1000
START=2646261
END=2659038
title=e218[G]

[CHAPTER]
TIMEBASE=1/1000
START=2658038
END=2671984
title=e219[G]

[CHAPTER]
TIMEBASE=1/1000
START=2670984
END=2677662
title=e220

[CHAPTER]
TIMEBASE=1/1000
START=2676662
END=2692766
title=e221[G]

[CHAPTER]
TIMEBASE=1/1000
START=2691766
END=2698656
title=e222

[CHAPTER]
TIMEBASE=1/1000
START=2697656
END=2719906
title=e223[G]

[CHAPTER]
TIMEBASE=1/1000
START=2718906
END=2733017
title=e224[G]

[CHAPTER]
TIMEBASE=1/1000
START=2732017
END=2751220
title=e225[G]

[CHAPTER]
TIMEBASE=1/1000
START=2750220
END=2768452
title=e226[G]

[CHAPTER]
TIMEBASE=1/1000
START=2767452
END=2773909
title=e227

[CHAPTER]
TIMEBASE=1/1000
START=2772909
END=2784934
title=e228[G]

[CHAPTER]
TIMEBASE=1/1000
START=2783934
END=2801331
title=e229[G]

[CHAPTER]
TIMEBASE=1/1000
START=2800331
END=2811238
title=e230[G]

[CHAPTER]
TIMEBASE=1/1000
START=2810238
END=2816601
title=e231

[CHAPTER]
TIMEBASE=1/1000
START=2815601
END=2822591
title=e232

[CHAPTER]
TIMEBASE=1/1000
START=2821591
END=2833689
title=e233[G]

[CHAPTER]
TIMEBASE=1/1000
START=2832689
END=2838718
title=e234

[CHAPTER]
TIMEBASE=1/1000
START=2837718
END=2850188
title=e235[G]

[CHAPTER]
TIMEBASE=1/1000
START=2849188
END=2855318
title=e236

[CHAPTER]
TIMEBASE=1/1000
START=2854318
END=2864604
title=e237[G]

[CHAPTER]
TIMEBASE=1/1000
START=2863604
END=2870965
title=e238

[CHAPTER]
TIMEBASE=1/1000
START=2869965
END=2876386
title=e239

[CHAPTER]
TIMEBASE=1/1000
START=2875386
END=2885872
title=e240[G]

[CHAPTER]
TIMEBASE=1/1000
START=2884872
END=2896655
title=e241[G]

[CHAPTER]
TIMEBASE=1/1000
START=2895655
END=2909208
title=e242[G]

[CHAPTER]
TIMEBASE=1/1000
START=2908208
END=2922953
title=e243[G]

[CHAPTER]
TIMEBASE=1/1000
START=2921953
END=2928359
title=e244

[CHAPTER]
TIMEBASE=1/1000
START=2927359
END=2933844
title=e245

[CHAPTER]
TIMEBASE=1/1000
START=2932844
END=2943734
title=e246[G]

[CHAPTER]
TIMEBASE=1/1000
START=2942734
END=2960637
title=e247[G]

[CHAPTER]
TIMEBASE=1/1000
START=2959637
END=2973626
title=e248[G]

[CHAPTER]
TIMEBASE=1/1000
START=2972626
END=2984705
title=e249[G]

[CHAPTER]
TIMEBASE=1/1000
START=2983705
END=3006644
title=e250[G]

[CHAPTER]
TIMEBASE=1/1000
START=3005644
END=3015844
title=e251

[CHAPTER]
TIMEBASE=1/1000
START=3014844
END=3034229
title=e252[G]

[CHAPTER]
TIMEBASE=1/1000
START=3033229
END=3044442
title=e253[G]

[CHAPTER]
TIMEBASE=1/1000
START=3043442
END=3054867
title=e254[G]

[CHAPTER]
TIMEBASE=1/1000
START=3053867
END=3060083
title=e255

[CHAPTER]
TIMEBASE=1/1000
START=3059083
END=3070395
title=e256[G]

[CHAPTER]
TIMEBASE=1/1000
START=3069395
END=3086245
title=e257[G]

[CHAPTER]
TIMEBASE=1/1000
START=3085245
END=3094170
title=e258

[CHAPTER]
TIMEBASE=1/1000
START=3093170
END=3099620
title=e259

[CHAPTER]
TIMEBASE=1/1000
START=3098620
END=3110082
title=e260[G]

[CHAPTER]
TIMEBASE=1/1000
START=3109082
END=3115417
title=e261

[CHAPTER]
TIMEBASE=1/1000
START=3114417
END=3120763
title=e262

[CHAPTER]
TIMEBASE=1/1000
START=3119763
END=3130352
title=e263[G]

[CHAPTER]
TIMEBASE=1/1000
START=3129352
END=3136662
title=e264

[CHAPTER]
TIMEBASE=1/1000
START=3135662
END=3142453
title=e265

[CHAPTER]
TIMEBASE=1/1000
START=3141453
END=3147833
title=e266

[CHAPTER]
TIMEBASE=1/1000
START=3146833
END=3158770
title=e267[G]

[CHAPTER]
TIMEBASE=1/1000
START=3157770
END=3176991
title=e268[G]

[CHAPTER]
TIMEBASE=1/1000
START=3175991
END=3186301
title=e269[G]

[CHAPTER]
TIMEBASE=1/1000
START=3185301
END=3192262
title=e270

[CHAPTER]
TIMEBASE=1/1000
START=3191262
END=3205116
title=e271[G]

[CHAPTER]
TIMEBASE=1/1000
START=3204116
END=3210860
title=e272

[CHAPTER]
TIMEBASE=1/1000
START=3209860
END=3216787
title=e273

[CHAPTER]
TIMEBASE=1/1000
START=3215787
END=3231105
title=e274[G]

[CHAPTER]
TIMEBASE=1/1000
START=3230105
END=3236537
title=e275

[CHAPTER]
TIMEBASE=1/1000
START=3235537
END=3241908
title=e276

[CHAPTER]
TIMEBASE=1/1000
START=3240908
END=3257925
title=e277[G]

[CHAPTER]
TIMEBASE=1/1000
START=3256925
END=3272976
title=e278[G]

[CHAPTER]
TIMEBASE=1/1000
START=3271976
END=3278404
title=e279

[CHAPTER]
TIMEBASE=1/1000
START=3277404
END=3284899
title=e280
