;FFMETADATA1
major_brand=isom
minor_version=512
compatible_brands=isomiso2avc1mp41
encoder=Lavf56.15.101

[CHAPTER]
TIMEBASE=1/1000
START=9545
END=53809
title=p001[G]

[CHAPTER]
TIMEBASE=1/1000
START=52809
END=97544
title=p002

[CHAPTER]
TIMEBASE=1/1000
START=96544
END=130294
title=p003[G]

[CHAPTER]
TIMEBASE=1/1000
START=129294
END=154604
title=p004[G]

[CHAPTER]
TIMEBASE=1/1000
START=153604
END=184679
title=e001[G]

[CHAPTER]
TIMEBASE=1/1000
START=183679
END=194085
title=e002

[CHAPTER]
TIMEBASE=1/1000
START=193085
END=200292
title=e003

[CHAPTER]
TIMEBASE=1/1000
START=199292
END=213690
title=e004[G]

[CHAPTER]
TIMEBASE=1/1000
START=212690
END=236384
title=e005[G]

[CHAPTER]
TIMEBASE=1/1000
START=235384
END=253804
title=e006[G]

[CHAPTER]
TIMEBASE=1/1000
START=252804
END=268060
title=e007[G]

[CHAPTER]
TIMEBASE=1/1000
START=267060
END=276278
title=e008

[CHAPTER]
TIMEBASE=1/1000
START=275278
END=291066
title=e009[G]

[CHAPTER]
TIMEBASE=1/1000
START=290066
END=296934
title=e010

[CHAPTER]
TIMEBASE=1/1000
START=295934
END=311133
title=e011[G]

[CHAPTER]
TIMEBASE=1/1000
START=310133
END=321781
title=e012[G]

[CHAPTER]
TIMEBASE=1/1000
START=320781
END=342884
title=e013[G]

[CHAPTER]
TIMEBASE=1/1000
START=341884
END=358043
title=e014[G]

[CHAPTER]
TIMEBASE=1/1000
START=357043
END=365032
title=e015

[CHAPTER]
TIMEBASE=1/1000
START=364032
END=377777
title=e016[G]

[CHAPTER]
TIMEBASE=1/1000
START=376777
END=387956
title=e017[G]

[CHAPTER]
TIMEBASE=1/1000
START=386956
END=408690
title=e018[G]

[CHAPTER]
TIMEBASE=1/1000
START=407690
END=414637
title=e019

[CHAPTER]
TIMEBASE=1/1000
START=413637
END=420178
title=e020

[CHAPTER]
TIMEBASE=1/1000
START=419178
END=430606
title=e021[G]

[CHAPTER]
TIMEBASE=1/1000
START=429606
END=436336
title=e022

[CHAPTER]
TIMEBASE=1/1000
START=435336
END=455864
title=e023[G]

[CHAPTER]
TIMEBASE=1/1000
START=454864
END=461322
title=e024

[CHAPTER]
TIMEBASE=1/1000
START=460322
END=466962
title=e025

[CHAPTER]
TIMEBASE=1/1000
START=465962
END=476381
title=e026[G]

[CHAPTER]
TIMEBASE=1/1000
START=475381
END=487525
title=e027[G]

[CHAPTER]
TIMEBASE=1/1000
START=486525
END=499501
title=e028[G]

[CHAPTER]
TIMEBASE=1/1000
START=498501
END=520917
title=e029[G]

[CHAPTER]
TIMEBASE=1/1000
START=519917
END=526596
title=e030

[CHAPTER]
TIMEBASE=1/1000
START=525596
END=538412
title=e031[G]

[CHAPTER]
TIMEBASE=1/1000
START=537412
END=548663
title=e032[G]

[CHAPTER]
TIMEBASE=1/1000
START=547663
END=559122
title=e033[G]

[CHAPTER]
TIMEBASE=1/1000
START=558122
END=569495
title=e034[G]

[CHAPTER]
TIMEBASE=1/1000
START=568495
END=583461
title=e035[G]

[CHAPTER]
TIMEBASE=1/1000
START=582461
END=589200
title=e036

[CHAPTER]
TIMEBASE=1/1000
START=588200
END=595105
title=e037

[CHAPTER]
TIMEBASE=1/1000
START=594105
END=604390
title=e038[G]

[CHAPTER]
TIMEBASE=1/1000
START=603390
END=609719
title=e039

[CHAPTER]
TIMEBASE=1/1000
START=608719
END=614994
title=e040

[CHAPTER]
TIMEBASE=1/1000
START=613994
END=628996
title=e041[G]

[CHAPTER]
TIMEBASE=1/1000
START=627996
END=643555
title=e042[G]

[CHAPTER]
TIMEBASE=1/1000
START=642555
END=649286
title=e043

[CHAPTER]
TIMEBASE=1/1000
START=648286
END=658223
title=e044[G]

[CHAPTER]
TIMEBASE=1/1000
START=657223
END=668468
title=e045[G]

[CHAPTER]
TIMEBASE=1/1000
START=667468
END=674927
title=e046

[CHAPTER]
TIMEBASE=1/1000
START=673927
END=680265
title=e047

[CHAPTER]
TIMEBASE=1/1000
START=679265
END=696070
title=e048[G]

[CHAPTER]
TIMEBASE=1/1000
START=695070
END=701398
title=e049

[CHAPTER]
TIMEBASE=1/1000
START=700398
END=710417
title=e050[G]

[CHAPTER]
TIMEBASE=1/1000
START=709417
END=715797
title=e051

[CHAPTER]
TIMEBASE=1/1000
START=714797
END=721229
title=e052

[CHAPTER]
TIMEBASE=1/1000
START=720229
END=730032
title=e053[G]

[CHAPTER]
TIMEBASE=1/1000
START=729032
END=735724
title=e054

[CHAPTER]
TIMEBASE=1/1000
START=734724
END=741251
title=e055

[CHAPTER]
TIMEBASE=1/1000
START=740251
END=746809
title=e056

[CHAPTER]
TIMEBASE=1/1000
START=745809
END=753127
title=e057

[CHAPTER]
TIMEBASE=1/1000
START=752127
END=759413
title=e058

[CHAPTER]
TIMEBASE=1/1000
START=758413
END=770101
title=e059[G]

[CHAPTER]
TIMEBASE=1/1000
START=769101
END=786101
title=e060[G]

[CHAPTER]
TIMEBASE=1/1000
START=785101
END=791308
title=e061

[CHAPTER]
TIMEBASE=1/1000
START=790308
END=796799
title=e062

[CHAPTER]
TIMEBASE=1/1000
START=795799
END=802187
title=e063

[CHAPTER]
TIMEBASE=1/1000
START=801187
END=814124
title=e064[G]

[CHAPTER]
TIMEBASE=1/1000
START=813124
END=826563
title=e065[G]

[CHAPTER]
TIMEBASE=1/1000
START=825563
END=835997
title=e066[G]

[CHAPTER]
TIMEBASE=1/1000
START=834997
END=844797
title=e067[G]

[CHAPTER]
TIMEBASE=1/1000
START=843797
END=850255
title=e068

[CHAPTER]
TIMEBASE=1/1000
START=849255
END=855876
title=e069

[CHAPTER]
TIMEBASE=1/1000
START=854876
END=867268
title=e070[G]

[CHAPTER]
TIMEBASE=1/1000
START=866268
END=872584
title=e071

[CHAPTER]
TIMEBASE=1/1000
START=871584
END=878580
title=e072

[CHAPTER]
TIMEBASE=1/1000
START=877580
END=883962
title=e073

[CHAPTER]
TIMEBASE=1/1000
START=882962
END=894227
title=e074[G]

[CHAPTER]
TIMEBASE=1/1000
START=893227
END=899712
title=e075

[CHAPTER]
TIMEBASE=1/1000
START=898712
END=909373
title=e076[G]

[CHAPTER]
TIMEBASE=1/1000
START=908373
END=914687
title=e077

[CHAPTER]
TIMEBASE=1/1000
START=913687
END=923909
title=e078[G]

[CHAPTER]
TIMEBASE=1/1000
START=922909
END=929146
title=e079

[CHAPTER]
TIMEBASE=1/1000
START=928146
END=938014
title=e080[G]

[CHAPTER]
TIMEBASE=1/1000
START=937014
END=948140
title=e081[G]

[CHAPTER]
TIMEBASE=1/1000
START=947140
END=956997
title=e082[G]

[CHAPTER]
TIMEBASE=1/1000
START=955997
END=966171
title=e083[G]

[CHAPTER]
TIMEBASE=1/1000
START=965171
END=986546
title=e084[G]

[CHAPTER]
TIMEBASE=1/1000
START=985546
END=995426
title=e085[G]

[CHAPTER]
TIMEBASE=1/1000
START=994426
END=1006074
title=e086[G]

[CHAPTER]
TIMEBASE=1/1000
START=1005074
END=1013260
title=e087

[CHAPTER]
TIMEBASE=1/1000
START=1012260
END=1018568
title=e088

[CHAPTER]
TIMEBASE=1/1000
START=1017568
END=1024095
title=e089

[CHAPTER]
TIMEBASE=1/1000
START=1023095
END=1033779
title=e090[G]

[CHAPTER]
TIMEBASE=1/1000
START=1032779
END=1039099
title=e091

[CHAPTER]
TIMEBASE=1/1000
START=1038099
END=1044996
title=e092

[CHAPTER]
TIMEBASE=1/1000
START=1043996
END=1050440
title=e093

[CHAPTER]
TIMEBASE=1/1000
START=1049440
END=1056817
title=e094

[CHAPTER]
TIMEBASE=1/1000
START=1055817
END=1062181
title=e095

[CHAPTER]
TIMEBASE=1/1000
START=1061181
END=1067410
title=e096

[CHAPTER]
TIMEBASE=1/1000
START=1066410
END=1073082
title=e097

[CHAPTER]
TIMEBASE=1/1000
START=1072082
END=1078562
title=e098

[CHAPTER]
TIMEBASE=1/1000
START=1077562
END=1087427
title=e099[G]

[CHAPTER]
TIMEBASE=1/1000
START=1086427
END=1092529
title=e100

[CHAPTER]
TIMEBASE=1/1000
START=1091529
END=1098155
title=e101

[CHAPTER]
TIMEBASE=1/1000
START=1097155
END=1103460
title=e102

[CHAPTER]
TIMEBASE=1/1000
START=1102460
END=1108597
title=e103

[CHAPTER]
TIMEBASE=1/1000
START=1107597
END=1122724
title=e104[G]

[CHAPTER]
TIMEBASE=1/1000
START=1121724
END=1143494
title=e105[G]

[CHAPTER]
TIMEBASE=1/1000
START=1142494
END=1154535
title=e106[G]

[CHAPTER]
TIMEBASE=1/1000
START=1153535
END=1160065
title=e107

[CHAPTER]
TIMEBASE=1/1000
START=1159065
END=1171634
title=e108[G]

[CHAPTER]
TIMEBASE=1/1000
START=1170634
END=1180914
title=e109[G]

[CHAPTER]
TIMEBASE=1/1000
START=1179914
END=1186288
title=e110

[CHAPTER]
TIMEBASE=1/1000
START=1185288
END=1191691
title=e111

[CHAPTER]
TIMEBASE=1/1000
START=1190691
END=1200911
title=e112[G]

[CHAPTER]
TIMEBASE=1/1000
START=1199911
END=1206161
title=e113

[CHAPTER]
TIMEBASE=1/1000
START=1205161
END=1211676
title=e114

[CHAPTER]
TIMEBASE=1/1000
START=1210676
END=1222812
title=e115[G]

[CHAPTER]
TIMEBASE=1/1000
START=1221812
END=1231251
title=e116[G]

[CHAPTER]
TIMEBASE=1/1000
START=1230251
END=1236439
title=e117

[CHAPTER]
TIMEBASE=1/1000
START=1235439
END=1247298
title=e118[G]

[CHAPTER]
TIMEBASE=1/1000
START=1246298
END=1253023
title=e119

[CHAPTER]
TIMEBASE=1/1000
START=1252023
END=1262619
title=e120[G]

[CHAPTER]
TIMEBASE=1/1000
START=1261619
END=1272655
title=e121[G]

[CHAPTER]
TIMEBASE=1/1000
START=1271655
END=1277998
title=e122

[CHAPTER]
TIMEBASE=1/1000
START=1276998
END=1287368
title=e123[G]

[CHAPTER]
TIMEBASE=1/1000
START=1286368
END=1293213
title=e124

[CHAPTER]
TIMEBASE=1/1000
START=1292213
END=1298532
title=e125

[CHAPTER]
TIMEBASE=1/1000
START=1297532
END=1303882
title=e126

[CHAPTER]
TIMEBASE=1/1000
START=1302882
END=1309035
title=e127

[CHAPTER]
TIMEBASE=1/1000
START=1308035
END=1319429
title=e128[G]

[CHAPTER]
TIMEBASE=1/1000
START=1318429
END=1325266
title=e129

[CHAPTER]
TIMEBASE=1/1000
START=1324266
END=1330709
title=e130

[CHAPTER]
TIMEBASE=1/1000
START=1329709
END=1335970
title=e131

[CHAPTER]
TIMEBASE=1/1000
START=1334970
END=1341432
title=e132

[CHAPTER]
TIMEBASE=1/1000
START=1340432
END=1351758
title=e133[G]

[CHAPTER]
TIMEBASE=1/1000
START=1350758
END=1361297
title=e134[G]

[CHAPTER]
TIMEBASE=1/1000
START=1360297
END=1366980
title=e135

[CHAPTER]
TIMEBASE=1/1000
START=1365980
END=1377962
title=e136[G]

[CHAPTER]
TIMEBASE=1/1000
START=1376962
END=1383310
title=e137

[CHAPTER]
TIMEBASE=1/1000
START=1382310
END=1395743
title=e138[G]

[CHAPTER]
TIMEBASE=1/1000
START=1394743
END=1408171
title=e139[G]

[CHAPTER]
TIMEBASE=1/1000
START=1407171
END=1417163
title=e140[G]

[CHAPTER]
TIMEBASE=1/1000
START=1416163
END=1422609
title=e141

[CHAPTER]
TIMEBASE=1/1000
START=1421609
END=1432881
title=e142[G]

[CHAPTER]
TIMEBASE=1/1000
START=1431881
END=1438370
title=e143

[CHAPTER]
TIMEBASE=1/1000
START=1437370
END=1443570
title=e144

[CHAPTER]
TIMEBASE=1/1000
START=1442570
END=1449172
title=e145

[CHAPTER]
TIMEBASE=1/1000
START=1448172
END=1459050
title=e146[G]

[CHAPTER]
TIMEBASE=1/1000
START=1458050
END=1464327
title=e147

[CHAPTER]
TIMEBASE=1/1000
START=1463327
END=1469659
title=e148

[CHAPTER]
TIMEBASE=1/1000
START=1468659
END=1480219
title=e149[G]

[CHAPTER]
TIMEBASE=1/1000
START=1479219
END=1488753
title=e150[G]

[CHAPTER]
TIMEBASE=1/1000
START=1487753
END=1497850
title=e151[G]

[CHAPTER]
TIMEBASE=1/1000
START=1496850
END=1507891
title=e152[G]

[CHAPTER]
TIMEBASE=1/1000
START=1506891
END=1513418
title=e153

[CHAPTER]
TIMEBASE=1/1000
START=1512418
END=1518485
title=e154

[CHAPTER]
TIMEBASE=1/1000
START=1517485
END=1523924
title=e155

[CHAPTER]
TIMEBASE=1/1000
START=1522924
END=1533146
title=e156[G]

[CHAPTER]
TIMEBASE=1/1000
START=1532146
END=1538422
title=e157

[CHAPTER]
TIMEBASE=1/1000
START=1537422
END=1543824
title=e158

[CHAPTER]
TIMEBASE=1/1000
START=1542824
END=1549106
title=e159

[CHAPTER]
TIMEBASE=1/1000
START=1548106
END=1554339
title=e160

[CHAPTER]
TIMEBASE=1/1000
START=1553339
END=1565024
title=e161[G]

[CHAPTER]
TIMEBASE=1/1000
START=1564024
END=1570625
title=e162

[CHAPTER]
TIMEBASE=1/1000
START=1569625
END=1581856
title=e163[G]

[CHAPTER]
TIMEBASE=1/1000
START=1580856
END=1590730
title=e164[G]

[CHAPTER]
TIMEBASE=1/1000
START=1589730
END=1595923
title=e165

[CHAPTER]
TIMEBASE=1/1000
START=1594923
END=1605575
title=e166[G]

[CHAPTER]
TIMEBASE=1/1000
START=1604575
END=1610921
title=e167

[CHAPTER]
TIMEBASE=1/1000
START=1609921
END=1616758
title=e168

[CHAPTER]
TIMEBASE=1/1000
START=1615758
END=1628937
title=e169[G]

[CHAPTER]
TIMEBASE=1/1000
START=1627937
END=1633876
title=e170

[CHAPTER]
TIMEBASE=1/1000
START=1632876
END=1639209
title=e171

[CHAPTER]
TIMEBASE=1/1000
START=1638209
END=1644356
title=e172

[CHAPTER]
TIMEBASE=1/1000
START=1643356
END=1649919
title=e173

[CHAPTER]
TIMEBASE=1/1000
START=1648919
END=1656879
title=e174

[CHAPTER]
TIMEBASE=1/1000
START=1655879
END=1662299
title=e175

[CHAPTER]
TIMEBASE=1/1000
START=1661299
END=1671900
title=e176[G]

[CHAPTER]
TIMEBASE=1/1000
START=1670900
END=1677222
title=e177

[CHAPTER]
TIMEBASE=1/1000
START=1676222
END=1682567
title=e178

[CHAPTER]
TIMEBASE=1/1000
START=1681567
END=1692002
title=e179[G]

[CHAPTER]
TIMEBASE=1/1000
START=1691002
END=1697295
title=e180

[CHAPTER]
TIMEBASE=1/1000
START=1696295
END=1707802
title=e181[G]

[CHAPTER]
TIMEBASE=1/1000
START=1706802
END=1712762
title=e182

[CHAPTER]
TIMEBASE=1/1000
START=1711762
END=1721676
title=e183[G]

[CHAPTER]
TIMEBASE=1/1000
START=1720676
END=1730751
title=e184[G]

[CHAPTER]
TIMEBASE=1/1000
START=1729751
END=1736552
title=e185

[CHAPTER]
TIMEBASE=1/1000
START=1735552
END=1741693
title=e186

[CHAPTER]
TIMEBASE=1/1000
START=1740693
END=1748118
title=e187

[CHAPTER]
TIMEBASE=1/1000
START=1747118
END=1753610
title=e188

[CHAPTER]
TIMEBASE=1/1000
START=1752610
END=1758888
title=e189

[CHAPTER]
TIMEBASE=1/1000
START=1757888
END=1763898
title=e190

[CHAPTER]
TIMEBASE=1/1000
START=1762898
END=1769062
title=e191

[CHAPTER]
TIMEBASE=1/1000
START=1768062
END=1778044
title=e192[G]

[CHAPTER]
TIMEBASE=1/1000
START=1777044
END=1788902
title=e193[G]

[CHAPTER]
TIMEBASE=1/1000
START=1787902
END=1799644
title=e194[G]

[CHAPTER]
TIMEBASE=1/1000
START=1798644
END=1810254
title=e195[G]

[CHAPTER]
TIMEBASE=1/1000
START=1809254
END=1819996
title=e196[G]

[CHAPTER]
TIMEBASE=1/1000
START=1818996
END=1831490
title=e197[G]

[CHAPTER]
TIMEBASE=1/1000
START=1830490
END=1841248
title=e198[G]

[CHAPTER]
TIMEBASE=1/1000
START=1840248
END=1846737
title=e199

[CHAPTER]
TIMEBASE=1/1000
START=1845737
END=1856545
title=e200[G]

[CHAPTER]
TIMEBASE=1/1000
START=1855545
END=1866602
title=e201[G]

[CHAPTER]
TIMEBASE=1/1000
START=1865602
END=1875796
title=e202[G]

[CHAPTER]
TIMEBASE=1/1000
START=1874796
END=1881022
title=e203

[CHAPTER]
TIMEBASE=1/1000
START=1880022
END=1890047
title=e204[G]

[CHAPTER]
TIMEBASE=1/1000
START=1889047
END=1899934
title=e205[G]

[CHAPTER]
TIMEBASE=1/1000
START=1898934
END=1909323
title=e206[G]

[CHAPTER]
TIMEBASE=1/1000
START=1908323
END=1918397
title=e207[G]

[CHAPTER]
TIMEBASE=1/1000
START=1917397
END=1928954
title=e208[G]

[CHAPTER]
TIMEBASE=1/1000
START=1927954
END=1940936
title=e209[G]

[CHAPTER]
TIMEBASE=1/1000
START=1939936
END=1950775
title=e210[G]

[CHAPTER]
TIMEBASE=1/1000
START=1949775
END=1961745
title=e211[G]

[CHAPTER]
TIMEBASE=1/1000
START=1960745
END=1970962
title=e212[G]

[CHAPTER]
TIMEBASE=1/1000
START=1969962
END=1976081
title=e213

[CHAPTER]
TIMEBASE=1/1000
START=1975081
END=1981285
title=e214

[CHAPTER]
TIMEBASE=1/1000
START=1980285
END=1986907
title=e215

[CHAPTER]
TIMEBASE=1/1000
START=1985907
END=1996020
title=e216[G]

[CHAPTER]
TIMEBASE=1/1000
START=1995020
END=2005040
title=e217[G]

[CHAPTER]
TIMEBASE=1/1000
START=2004040
END=2010377
title=e218

[CHAPTER]
TIMEBASE=1/1000
START=2009377
END=2019303
title=e219[G]

[CHAPTER]
TIMEBASE=1/1000
START=2018303
END=2027909
title=e220[G]

[CHAPTER]
TIMEBASE=1/1000
START=2026909
END=2037450
title=e221[G]

[CHAPTER]
TIMEBASE=1/1000
START=2036450
END=2047458
title=e222[G]

[CHAPTER]
TIMEBASE=1/1000
START=2046458
END=2053209
title=e223

[CHAPTER]
TIMEBASE=1/1000
START=2052209
END=2063038
title=e224[G]

[CHAPTER]
TIMEBASE=1/1000
START=2062038
END=2068447
title=e225

[CHAPTER]
TIMEBASE=1/1000
START=2067447
END=2073603
title=e226

[CHAPTER]
TIMEBASE=1/1000
START=2072603
END=2079760
title=e227

[CHAPTER]
TIMEBASE=1/1000
START=2078760
END=2084958
title=e228

[CHAPTER]
TIMEBASE=1/1000
START=2083958
END=2100396
title=e229[G]

[CHAPTER]
TIMEBASE=1/1000
START=2099396
END=2105676
title=e230

[CHAPTER]
TIMEBASE=1/1000
START=2104676
END=2111110
title=e231

[CHAPTER]
TIMEBASE=1/1000
START=2110110
END=2120439
title=e232[G]

[CHAPTER]
TIMEBASE=1/1000
START=2119439
END=2125761
title=e233

[CHAPTER]
TIMEBASE=1/1000
START=2124761
END=2139304
title=e234[G]

[CHAPTER]
TIMEBASE=1/1000
START=2138304
END=2149829
title=e235[G]

[CHAPTER]
TIMEBASE=1/1000
START=2148829
END=2160489
title=e236[G]

[CHAPTER]
TIMEBASE=1/1000
START=2159489
END=2166382
title=e237

[CHAPTER]
TIMEBASE=1/1000
START=2165382
END=2171216
title=e238

[CHAPTER]
TIMEBASE=1/1000
START=2170216
END=2176821
title=e239

[CHAPTER]
TIMEBASE=1/1000
START=2175821
END=2182005
title=e240

[CHAPTER]
TIMEBASE=1/1000
START=2181005
END=2188445
title=e241

[CHAPTER]
TIMEBASE=1/1000
START=2187445
END=2197105
title=e242[G]

[CHAPTER]
TIMEBASE=1/1000
START=2196105
END=2202249
title=e243

[CHAPTER]
TIMEBASE=1/1000
START=2201249
END=2208286
title=e244

[CHAPTER]
TIMEBASE=1/1000
START=2207286
END=2214421
title=e245

[CHAPTER]
TIMEBASE=1/1000
START=2213421
END=2227435
title=e246[G]

[CHAPTER]
TIMEBASE=1/1000
START=2226435
END=2236273
title=e247[G]

[CHAPTER]
TIMEBASE=1/1000
START=2235273
END=2241527
title=e248

[CHAPTER]
TIMEBASE=1/1000
START=2240527
END=2246715
title=e249

[CHAPTER]
TIMEBASE=1/1000
START=2245715
END=2251687
title=e250

[CHAPTER]
TIMEBASE=1/1000
START=2250687
END=2256827
title=e251

[CHAPTER]
TIMEBASE=1/1000
START=2255827
END=2262039
title=e252

[CHAPTER]
TIMEBASE=1/1000
START=2261039
END=2267243
title=e253

[CHAPTER]
TIMEBASE=1/1000
START=2266243
END=2272338
title=e254

[CHAPTER]
TIMEBASE=1/1000
START=2271338
END=2278000
title=e255

[CHAPTER]
TIMEBASE=1/1000
START=2277000
END=2283659
title=e256

[CHAPTER]
TIMEBASE=1/1000
START=2282659
END=2289246
title=e257

[CHAPTER]
TIMEBASE=1/1000
START=2288246
END=2304164
title=e258[G]

[CHAPTER]
TIMEBASE=1/1000
START=2303164
END=2309486
title=e259

[CHAPTER]
TIMEBASE=1/1000
START=2308486
END=2314365
title=e260

[CHAPTER]
TIMEBASE=1/1000
START=2313365
END=2324014
title=e261[G]

[CHAPTER]
TIMEBASE=1/1000
START=2323014
END=2329389
title=e262

[CHAPTER]
TIMEBASE=1/1000
START=2328389
END=2334517
title=e263

[CHAPTER]
TIMEBASE=1/1000
START=2333517
END=2345632
title=e264[G]

[CHAPTER]
TIMEBASE=1/1000
START=2344632
END=2351198
title=e265

[CHAPTER]
TIMEBASE=1/1000
START=2350198
END=2363048
title=e266[G]

[CHAPTER]
TIMEBASE=1/1000
START=2362048
END=2373943
title=e267[G]

[CHAPTER]
TIMEBASE=1/1000
START=2372943
END=2379107
title=e268

[CHAPTER]
TIMEBASE=1/1000
START=2378107
END=2384272
title=e269

[CHAPTER]
TIMEBASE=1/1000
START=2383272
END=2392934
title=e270[G]

[CHAPTER]
TIMEBASE=1/1000
START=2391934
END=2398263
title=e271

[CHAPTER]
TIMEBASE=1/1000
START=2397263
END=2403445
title=e272

[CHAPTER]
TIMEBASE=1/1000
START=2402445
END=2408540
title=e273

[CHAPTER]
TIMEBASE=1/1000
START=2407540
END=2418455
title=e274[G]

[CHAPTER]
TIMEBASE=1/1000
START=2417455
END=2427505
title=e275[G]

[CHAPTER]
TIMEBASE=1/1000
START=2426505
END=2436327
title=e276[G]

[CHAPTER]
TIMEBASE=1/1000
START=2435327
END=2441774
title=e277

[CHAPTER]
TIMEBASE=1/1000
START=2440774
END=2451167
title=e278[G]

[CHAPTER]
TIMEBASE=1/1000
START=2450167
END=2456471
title=e279

[CHAPTER]
TIMEBASE=1/1000
START=2455471
END=2462119
title=e280
