;FFMETADATA1
major_brand=isom
minor_version=512
compatible_brands=isomiso2avc1mp41
encoder=Lavf56.15.101

[CHAPTER]
TIMEBASE=1/1000
START=16046
END=36922
title=e027[G]

[CHAPTER]
TIMEBASE=1/1000
START=35922
END=48792
title=e028[G]

[CHAPTER]
TIMEBASE=1/1000
START=47792
END=59526
title=e029[G]

[CHAPTER]
TIMEBASE=1/1000
START=58526
END=70271
title=e030[G]

[CHAPTER]
TIMEBASE=1/1000
START=69271
END=83808
title=e031[G]

[CHAPTER]
TIMEBASE=1/1000
START=82808
END=96345
title=e032[G]

[CHAPTER]
TIMEBASE=1/1000
START=95345
END=112858
title=e033[G]

[CHAPTER]
TIMEBASE=1/1000
START=111858
END=125001
title=e034[G]

[CHAPTER]
TIMEBASE=1/1000
START=124001
END=136334
title=e035[G]

[CHAPTER]
TIMEBASE=1/1000
START=135334
END=152468
title=e036[G]

[CHAPTER]
TIMEBASE=1/1000
START=151468
END=179143
title=e037[G]

[CHAPTER]
TIMEBASE=1/1000
START=178143
END=191288
title=e038[G]

[CHAPTER]
TIMEBASE=1/1000
START=190288
END=207445
title=e039[G]

[CHAPTER]
TIMEBASE=1/1000
START=206445
END=212974
title=e040

[CHAPTER]
TIMEBASE=1/1000
START=211974
END=226799
title=e041[G]

[CHAPTER]
TIMEBASE=1/1000
START=225799
END=237067
title=e042[G]

[CHAPTER]
TIMEBASE=1/1000
START=236067
END=247951
title=e043[G]

[CHAPTER]
TIMEBASE=1/1000
START=246951
END=253723
title=e044

[CHAPTER]
TIMEBASE=1/1000
START=252723
END=259233
title=e045

[CHAPTER]
TIMEBASE=1/1000
START=258233
END=273574
title=e046[G]

[CHAPTER]
TIMEBASE=1/1000
START=272574
END=283878
title=e047[G]

[CHAPTER]
TIMEBASE=1/1000
START=282878
END=294348
title=e048[G]

[CHAPTER]
TIMEBASE=1/1000
START=293348
END=313112
title=e049[G]

[CHAPTER]
TIMEBASE=1/1000
START=312112
END=334658
title=e050[G]

[CHAPTER]
TIMEBASE=1/1000
START=333658
END=346885
title=e051[G]

[CHAPTER]
TIMEBASE=1/1000
START=345885
END=356216
title=e052

[CHAPTER]
TIMEBASE=1/1000
START=355216
END=368194
title=e053[G]

[CHAPTER]
TIMEBASE=1/1000
START=367194
END=395355
title=e054[G]

[CHAPTER]
TIMEBASE=1/1000
START=394355
END=404526
title=e055

[CHAPTER]
TIMEBASE=1/1000
START=403526
END=429057
title=e056[G]

[CHAPTER]
TIMEBASE=1/1000
START=428057
END=439732
title=e057[G]

[CHAPTER]
TIMEBASE=1/1000
START=438732
END=453455
title=e058[G]

[CHAPTER]
TIMEBASE=1/1000
START=452455
END=465743
title=e059[G]

[CHAPTER]
TIMEBASE=1/1000
START=464743
END=479415
title=e060[G]

[CHAPTER]
TIMEBASE=1/1000
START=478415
END=491194
title=e061[G]

[CHAPTER]
TIMEBASE=1/1000
START=490194
END=520144
title=e062[G]

[CHAPTER]
TIMEBASE=1/1000
START=519144
END=525962
title=e063

[CHAPTER]
TIMEBASE=1/1000
START=524962
END=536239
title=e064[G]

[CHAPTER]
TIMEBASE=1/1000
START=535239
END=548712
title=e065[G]

[CHAPTER]
TIMEBASE=1/1000
START=547712
END=555059
title=e066

[CHAPTER]
TIMEBASE=1/1000
START=554059
END=560736
title=e067

[CHAPTER]
TIMEBASE=1/1000
START=559736
END=566618
title=e068

[CHAPTER]
TIMEBASE=1/1000
START=565618
END=572428
title=e069

[CHAPTER]
TIMEBASE=1/1000
START=571428
END=578483
title=e070

[CHAPTER]
TIMEBASE=1/1000
START=577483
END=591281
title=e071[G]

[CHAPTER]
TIMEBASE=1/1000
START=590281
END=621313
title=e072[G]

[CHAPTER]
TIMEBASE=1/1000
START=620313
END=626904
title=e073

[CHAPTER]
TIMEBASE=1/1000
START=625904
END=632361
title=e074

[CHAPTER]
TIMEBASE=1/1000
START=631361
END=645587
title=e075[G]

[CHAPTER]
TIMEBASE=1/1000
START=644587
END=655474
title=e076[G]

[CHAPTER]
TIMEBASE=1/1000
START=654474
END=665662
title=e077[G]

[CHAPTER]
TIMEBASE=1/1000
START=664662
END=675839
title=e078[G]

[CHAPTER]
TIMEBASE=1/1000
START=674839
END=687340
title=e079[G]

[CHAPTER]
TIMEBASE=1/1000
START=686340
END=692858
title=e080

[CHAPTER]
TIMEBASE=1/1000
START=691858
END=708665
title=e081[G]

[CHAPTER]
TIMEBASE=1/1000
START=707665
END=714259
title=e082

[CHAPTER]
TIMEBASE=1/1000
START=713259
END=719785
title=e083

[CHAPTER]
TIMEBASE=1/1000
START=718785
END=735094
title=e084[G]

[CHAPTER]
TIMEBASE=1/1000
START=734094
END=744067
title=e085[G]

[CHAPTER]
TIMEBASE=1/1000
START=743067
END=749790
title=e086

[CHAPTER]
TIMEBASE=1/1000
START=748790
END=758909
title=e087[G]

[CHAPTER]
TIMEBASE=1/1000
START=757909
END=769334
title=e088[G]

[CHAPTER]
TIMEBASE=1/1000
START=768334
END=775832
title=e089

[CHAPTER]
TIMEBASE=1/1000
START=774832
END=786305
title=e090[G]

[CHAPTER]
TIMEBASE=1/1000
START=785305
END=801870
title=e091[G]

[CHAPTER]
TIMEBASE=1/1000
START=800870
END=810963
title=e092[G]

[CHAPTER]
TIMEBASE=1/1000
START=809963
END=816632
title=e093

[CHAPTER]
TIMEBASE=1/1000
START=815632
END=827235
title=e094[G]

[CHAPTER]
TIMEBASE=1/1000
START=826235
END=837000
title=e095[G]

[CHAPTER]
TIMEBASE=1/1000
START=836000
END=842438
title=e096

[CHAPTER]
TIMEBASE=1/1000
START=841438
END=848468
title=e097

[CHAPTER]
TIMEBASE=1/1000
START=847468
END=857702
title=e098[G]

[CHAPTER]
TIMEBASE=1/1000
START=856702
END=862890
title=e099

[CHAPTER]
TIMEBASE=1/1000
START=861890
END=880692
title=e100[G]

[CHAPTER]
TIMEBASE=1/1000
START=879692
END=886109
title=e101

[CHAPTER]
TIMEBASE=1/1000
START=885109
END=895462
title=e102[G]

[CHAPTER]
TIMEBASE=1/1000
START=894462
END=905673
title=e103[G]

[CHAPTER]
TIMEBASE=1/1000
START=904673
END=942659
title=e104[G]

[CHAPTER]
TIMEBASE=1/1000
START=941659
END=952409
title=e105[G]

[CHAPTER]
TIMEBASE=1/1000
START=951409
END=958915
title=e106

[CHAPTER]
TIMEBASE=1/1000
START=957915
END=964066
title=e107

[CHAPTER]
TIMEBASE=1/1000
START=963066
END=969708
title=e108

[CHAPTER]
TIMEBASE=1/1000
START=968708
END=975623
title=e109

[CHAPTER]
TIMEBASE=1/1000
START=974623
END=980720
title=e110

[CHAPTER]
TIMEBASE=1/1000
START=979720
END=998340
title=e111[G]

[CHAPTER]
TIMEBASE=1/1000
START=997340
END=1007833
title=e112[G]

[CHAPTER]
TIMEBASE=1/1000
START=1006833
END=1017014
title=e113

[CHAPTER]
TIMEBASE=1/1000
START=1016014
END=1026963
title=e114[G]

[CHAPTER]
TIMEBASE=1/1000
START=1025963
END=1043855
title=e115[G]

[CHAPTER]
TIMEBASE=1/1000
START=1042855
END=1050269
title=e116

[CHAPTER]
TIMEBASE=1/1000
START=1049269
END=1055575
title=e117

[CHAPTER]
TIMEBASE=1/1000
START=1054575
END=1061348
title=e118

[CHAPTER]
TIMEBASE=1/1000
START=1060348
END=1072185
title=e119[G]

[CHAPTER]
TIMEBASE=1/1000
START=1071185
END=1079490
title=e120

[CHAPTER]
TIMEBASE=1/1000
START=1078490
END=1086057
title=e121

[CHAPTER]
TIMEBASE=1/1000
START=1085057
END=1092163
title=e122

[CHAPTER]
TIMEBASE=1/1000
START=1091163
END=1103044
title=e123[G]

[CHAPTER]
TIMEBASE=1/1000
START=1102044
END=1128821
title=e124[G]

[CHAPTER]
TIMEBASE=1/1000
START=1127821
END=1134416
title=e125

[CHAPTER]
TIMEBASE=1/1000
START=1133416
END=1145861
title=e126[G]

[CHAPTER]
TIMEBASE=1/1000
START=1144861
END=1151245
title=e127

[CHAPTER]
TIMEBASE=1/1000
START=1150245
END=1157006
title=e128

[CHAPTER]
TIMEBASE=1/1000
START=1156006
END=1167639
title=e129[G]

[CHAPTER]
TIMEBASE=1/1000
START=1166639
END=1187474
title=e130[G]

[CHAPTER]
TIMEBASE=1/1000
START=1186474
END=1193302
title=e131

[CHAPTER]
TIMEBASE=1/1000
START=1192302
END=1198764
title=e132

[CHAPTER]
TIMEBASE=1/1000
START=1197764
END=1208678
title=e133[G]

[CHAPTER]
TIMEBASE=1/1000
START=1207678
END=1218780
title=e134[G]

[CHAPTER]
TIMEBASE=1/1000
START=1217780
END=1228288
title=e135[G]

[CHAPTER]
TIMEBASE=1/1000
START=1227288
END=1239848
title=e136[G]

[CHAPTER]
TIMEBASE=1/1000
START=1238848
END=1248863
title=e137[G]

[CHAPTER]
TIMEBASE=1/1000
START=1247863
END=1258251
title=e138[G]

[CHAPTER]
TIMEBASE=1/1000
START=1257251
END=1264302
title=e139

[CHAPTER]
TIMEBASE=1/1000
START=1263302
END=1276618
title=e140[G]

[CHAPTER]
TIMEBASE=1/1000
START=1275618
END=1284733
title=e141

[CHAPTER]
TIMEBASE=1/1000
START=1283733
END=1295735
title=e142[G]

[CHAPTER]
TIMEBASE=1/1000
START=1294735
END=1305191
title=e143[G]

[CHAPTER]
TIMEBASE=1/1000
START=1304191
END=1310684
title=e144

[CHAPTER]
TIMEBASE=1/1000
START=1309684
END=1319823
title=e145[G]

[CHAPTER]
TIMEBASE=1/1000
START=1318823
END=1326398
title=e146

[CHAPTER]
TIMEBASE=1/1000
START=1325398
END=1359723
title=e147[G]

[CHAPTER]
TIMEBASE=1/1000
START=1358723
END=1367521
title=e148

[CHAPTER]
TIMEBASE=1/1000
START=1366521
END=1379675
title=e149[G]

[CHAPTER]
TIMEBASE=1/1000
START=1378675
END=1395090
title=e150[G]

[CHAPTER]
TIMEBASE=1/1000
START=1394090
END=1403263
title=e151

[CHAPTER]
TIMEBASE=1/1000
START=1402263
END=1416152
title=e152[G]

[CHAPTER]
TIMEBASE=1/1000
START=1415152
END=1426266
title=e153[G]

[CHAPTER]
TIMEBASE=1/1000
START=1425266
END=1437493
title=e154[G]

[CHAPTER]
TIMEBASE=1/1000
START=1436493
END=1443076
title=e155

[CHAPTER]
TIMEBASE=1/1000
START=1442076
END=1455326
title=e156[G]

[CHAPTER]
TIMEBASE=1/1000
START=1454326
END=1464799
title=e157[G]

[CHAPTER]
TIMEBASE=1/1000
START=1463799
END=1474624
title=e158[G]

[CHAPTER]
TIMEBASE=1/1000
START=1473624
END=1480130
title=e159

[CHAPTER]
TIMEBASE=1/1000
START=1479130
END=1495944
title=e160[G]

[CHAPTER]
TIMEBASE=1/1000
START=1494944
END=1506822
title=e161[G]

[CHAPTER]
TIMEBASE=1/1000
START=1505822
END=1517224
title=e162[G]

[CHAPTER]
TIMEBASE=1/1000
START=1516224
END=1531287
title=e163[G]

[CHAPTER]
TIMEBASE=1/1000
START=1530287
END=1540426
title=e164[G]

[CHAPTER]
TIMEBASE=1/1000
START=1539426
END=1550075
title=e165[G]

[CHAPTER]
TIMEBASE=1/1000
START=1549075
END=1559156
title=e166

[CHAPTER]
TIMEBASE=1/1000
START=1558156
END=1569342
title=e167[G]

[CHAPTER]
TIMEBASE=1/1000
START=1568342
END=1578686
title=e168[G]

[CHAPTER]
TIMEBASE=1/1000
START=1577686
END=1591742
title=e169[G]

[CHAPTER]
TIMEBASE=1/1000
START=1590742
END=1601621
title=e170[G]

[CHAPTER]
TIMEBASE=1/1000
START=1600621
END=1611580
title=e171[G]

[CHAPTER]
TIMEBASE=1/1000
START=1610580
END=1616874
title=e172

[CHAPTER]
TIMEBASE=1/1000
START=1615874
END=1622470
title=e173

[CHAPTER]
TIMEBASE=1/1000
START=1621470
END=1627738
title=e174

[CHAPTER]
TIMEBASE=1/1000
START=1626738
END=1643273
title=e175[G]

[CHAPTER]
TIMEBASE=1/1000
START=1642273
END=1648777
title=e176

[CHAPTER]
TIMEBASE=1/1000
START=1647777
END=1654910
title=e177

[CHAPTER]
TIMEBASE=1/1000
START=1653910
END=1672899
title=e178[G]

[CHAPTER]
TIMEBASE=1/1000
START=1671899
END=1678320
title=e179

[CHAPTER]
TIMEBASE=1/1000
START=1677320
END=1696155
title=e180[G]

[CHAPTER]
TIMEBASE=1/1000
START=1695155
END=1705510
title=e181[G]

[CHAPTER]
TIMEBASE=1/1000
START=1704510
END=1710689
title=e182

[CHAPTER]
TIMEBASE=1/1000
START=1709689
END=1723811
title=e183[G]

[CHAPTER]
TIMEBASE=1/1000
START=1722811
END=1734919
title=e184[G]

[CHAPTER]
TIMEBASE=1/1000
START=1733919
END=1757224
title=e185[G]

[CHAPTER]
TIMEBASE=1/1000
START=1756224
END=1766349
title=e186[G]

[CHAPTER]
TIMEBASE=1/1000
START=1765349
END=1777605
title=e187[G]

[CHAPTER]
TIMEBASE=1/1000
START=1776605
END=1788928
title=e188[G]

[CHAPTER]
TIMEBASE=1/1000
START=1787928
END=1794291
title=e189

[CHAPTER]
TIMEBASE=1/1000
START=1793291
END=1799861
title=e190

[CHAPTER]
TIMEBASE=1/1000
START=1798861
END=1809274
title=e191[G]

[CHAPTER]
TIMEBASE=1/1000
START=1808274
END=1821213
title=e192

[CHAPTER]
TIMEBASE=1/1000
START=1820213
END=1832622
title=e193[G]

[CHAPTER]
TIMEBASE=1/1000
START=1831622
END=1855891
title=e194[G]

[CHAPTER]
TIMEBASE=1/1000
START=1854891
END=1865249
title=e195[G]

[CHAPTER]
TIMEBASE=1/1000
START=1864249
END=1870627
title=e196

[CHAPTER]
TIMEBASE=1/1000
START=1869627
END=1876334
title=e197

[CHAPTER]
TIMEBASE=1/1000
START=1875334
END=1890085
title=e198[G]

[CHAPTER]
TIMEBASE=1/1000
START=1889085
END=1907822
title=e199[G]

[CHAPTER]
TIMEBASE=1/1000
START=1906822
END=1914101
title=e200

[CHAPTER]
TIMEBASE=1/1000
START=1913101
END=1934290
title=e201[G]

[CHAPTER]
TIMEBASE=1/1000
START=1933290
END=1942259
title=e202

[CHAPTER]
TIMEBASE=1/1000
START=1941259
END=1951274
title=e203[G]

[CHAPTER]
TIMEBASE=1/1000
START=1950274
END=1961283
title=e204[G]

[CHAPTER]
TIMEBASE=1/1000
START=1960283
END=1972107
title=e205[G]

[CHAPTER]
TIMEBASE=1/1000
START=1971107
END=1986940
title=e206[G]

[CHAPTER]
TIMEBASE=1/1000
START=1985940
END=1996615
title=e207[G]

[CHAPTER]
TIMEBASE=1/1000
START=1995615
END=2009977
title=e208[G]

[CHAPTER]
TIMEBASE=1/1000
START=2008977
END=2015548
title=e209

[CHAPTER]
TIMEBASE=1/1000
START=2014548
END=2026359
title=e210[G]

[CHAPTER]
TIMEBASE=1/1000
START=2025359
END=2036084
title=e211[G]

[CHAPTER]
TIMEBASE=1/1000
START=2035084
END=2047527
title=e212[G]

[CHAPTER]
TIMEBASE=1/1000
START=2046527
END=2059119
title=e213[G]

[CHAPTER]
TIMEBASE=1/1000
START=2058119
END=2072568
title=e214[G]

[CHAPTER]
TIMEBASE=1/1000
START=2071568
END=2089593
title=e215[G]

[CHAPTER]
TIMEBASE=1/1000
START=2088593
END=2097328
title=e216

[CHAPTER]
TIMEBASE=1/1000
START=2096328
END=2107195
title=e217[G]

[CHAPTER]
TIMEBASE=1/1000
START=2106195
END=2117008
title=e218[G]

[CHAPTER]
TIMEBASE=1/1000
START=2116008
END=2128944
title=e219[G]

[CHAPTER]
TIMEBASE=1/1000
START=2127944
END=2134707
title=e220

[CHAPTER]
TIMEBASE=1/1000
START=2133707
END=2139915
title=e221

[CHAPTER]
TIMEBASE=1/1000
START=2138915
END=2148849
title=e222[G]

[CHAPTER]
TIMEBASE=1/1000
START=2147849
END=2153992
title=e223

[CHAPTER]
TIMEBASE=1/1000
START=2152992
END=2163778
title=e224[G]

[CHAPTER]
TIMEBASE=1/1000
START=2162778
END=2177488
title=e225[G]

[CHAPTER]
TIMEBASE=1/1000
START=2176488
END=2185998
title=e226

[CHAPTER]
TIMEBASE=1/1000
START=2184998
END=2199711
title=e227[G]

[CHAPTER]
TIMEBASE=1/1000
START=2198711
END=2209868
title=e228[G]

[CHAPTER]
TIMEBASE=1/1000
START=2208868
END=2214963
title=e229

[CHAPTER]
TIMEBASE=1/1000
START=2213963
END=2225564
title=e230

[CHAPTER]
TIMEBASE=1/1000
START=2224564
END=2233119
title=e231

[CHAPTER]
TIMEBASE=1/1000
START=2232119
END=2238719
title=e232

[CHAPTER]
TIMEBASE=1/1000
START=2237719
END=2244191
title=e233

[CHAPTER]
TIMEBASE=1/1000
START=2243191
END=2255611
title=e234[G]

[CHAPTER]
TIMEBASE=1/1000
START=2254611
END=2275775
title=e235[G]

[CHAPTER]
TIMEBASE=1/1000
START=2274775
END=2281183
title=e236

[CHAPTER]
TIMEBASE=1/1000
START=2280183
END=2290887
title=e237[G]

[CHAPTER]
TIMEBASE=1/1000
START=2289887
END=2296428
title=e238

[CHAPTER]
TIMEBASE=1/1000
START=2295428
END=2308773
title=e239[G]

[CHAPTER]
TIMEBASE=1/1000
START=2307773
END=2318312
title=e240[G]

[CHAPTER]
TIMEBASE=1/1000
START=2317312
END=2332105
title=e241[G]

[CHAPTER]
TIMEBASE=1/1000
START=2331105
END=2343222
title=e242[G]

[CHAPTER]
TIMEBASE=1/1000
START=2342222
END=2348752
title=e243

[CHAPTER]
TIMEBASE=1/1000
START=2347752
END=2357714
title=e244[G]

[CHAPTER]
TIMEBASE=1/1000
START=2356714
END=2369633
title=e245

[CHAPTER]
TIMEBASE=1/1000
START=2368633
END=2381503
title=e246[G]

[CHAPTER]
TIMEBASE=1/1000
START=2380503
END=2393047
title=e247[G]

[CHAPTER]
TIMEBASE=1/1000
START=2392047
END=2412029
title=e248[G]

[CHAPTER]
TIMEBASE=1/1000
START=2411029
END=2417736
title=e249

[CHAPTER]
TIMEBASE=1/1000
START=2416736
END=2427892
title=e250[G]

[CHAPTER]
TIMEBASE=1/1000
START=2426892
END=2441623
title=e251[G]

[CHAPTER]
TIMEBASE=1/1000
START=2440623
END=2447073
title=e252

[CHAPTER]
TIMEBASE=1/1000
START=2446073
END=2452087
title=e253

[CHAPTER]
TIMEBASE=1/1000
START=2451087
END=2459377
title=e254

[CHAPTER]
TIMEBASE=1/1000
START=2458377
END=2464552
title=e255

[CHAPTER]
TIMEBASE=1/1000
START=2463552
END=2475931
title=e256[G]

[CHAPTER]
TIMEBASE=1/1000
START=2474931
END=2489363
title=e257[G]

[CHAPTER]
TIMEBASE=1/1000
START=2488363
END=2502553
title=e258[G]

[CHAPTER]
TIMEBASE=1/1000
START=2501553
END=2512247
title=e259[G]

[CHAPTER]
TIMEBASE=1/1000
START=2511247
END=2517550
title=e260

[CHAPTER]
TIMEBASE=1/1000
START=2516550
END=2529371
title=e261

[CHAPTER]
TIMEBASE=1/1000
START=2528371
END=2535002
title=e262

[CHAPTER]
TIMEBASE=1/1000
START=2534002
END=2546060
title=e263[G]

[CHAPTER]
TIMEBASE=1/1000
START=2545060
END=2558255
title=e264[G]

[CHAPTER]
TIMEBASE=1/1000
START=2557255
END=2563777
title=e265

[CHAPTER]
TIMEBASE=1/1000
START=2562777
END=2574799
title=e266[G]

[CHAPTER]
TIMEBASE=1/1000
START=2573799
END=2585165
title=e267[G]

[CHAPTER]
TIMEBASE=1/1000
START=2584165
END=2590593
title=e268

[CHAPTER]
TIMEBASE=1/1000
START=2589593
END=2599989
title=e269[G]

[CHAPTER]
TIMEBASE=1/1000
START=2598989
END=2609784
title=e270[G]

[CHAPTER]
TIMEBASE=1/1000
START=2608784
END=2615039
title=e271

[CHAPTER]
TIMEBASE=1/1000
START=2614039
END=2620656
title=e272

[CHAPTER]
TIMEBASE=1/1000
START=2619656
END=2626115
title=e273

[CHAPTER]
TIMEBASE=1/1000
START=2625115
END=2638307
title=e274[G]

[CHAPTER]
TIMEBASE=1/1000
START=2637307
END=2643428
title=e275

[CHAPTER]
TIMEBASE=1/1000
START=2642428
END=2653737
title=e276[G]

[CHAPTER]
TIMEBASE=1/1000
START=2652737
END=2688335
title=e277[G]

[CHAPTER]
TIMEBASE=1/1000
START=2687335
END=2697957
title=e278[G]

[CHAPTER]
TIMEBASE=1/1000
START=2696957
END=2711630
title=e279[G]

[CHAPTER]
TIMEBASE=1/1000
START=2710630
END=2724932
title=e280[G]
