;FFMETADATA1
major_brand=isom
minor_version=512
compatible_brands=isomiso2avc1mp41
encoder=Lavf56.15.101

[CHAPTER]
TIMEBASE=1/1000
START=26121
END=91789
title=p001[G]

[CHAPTER]
TIMEBASE=1/1000
START=90789
END=131831
title=p002[G]

[CHAPTER]
TIMEBASE=1/1000
START=130831
END=161422
title=p003[G]

[CHAPTER]
TIMEBASE=1/1000
START=160422
END=183850
title=p004[G]

[CHAPTER]
TIMEBASE=1/1000
START=182850
END=199537
title=e001

[CHAPTER]
TIMEBASE=1/1000
START=198537
END=220700
title=e002[G]

[CHAPTER]
TIMEBASE=1/1000
START=219700
END=239258
title=e003[G]

[CHAPTER]
TIMEBASE=1/1000
START=238258
END=271121
title=e004[G]

[CHAPTER]
TIMEBASE=1/1000
START=270121
END=286708
title=e005[G]

[CHAPTER]
TIMEBASE=1/1000
START=285708
END=300069
title=e006[G]

[CHAPTER]
TIMEBASE=1/1000
START=299069
END=323015
title=e007[G]

[CHAPTER]
TIMEBASE=1/1000
START=322015
END=344500
title=e008[G]

[CHAPTER]
TIMEBASE=1/1000
START=343500
END=364381
title=e009[G]

[CHAPTER]
TIMEBASE=1/1000
START=363381
END=379425
title=e010[G]

[CHAPTER]
TIMEBASE=1/1000
START=378425
END=400130
title=e011[G]

[CHAPTER]
TIMEBASE=1/1000
START=399130
END=415530
title=e012[G]

[CHAPTER]
TIMEBASE=1/1000
START=414530
END=434200
title=e013[G]

[CHAPTER]
TIMEBASE=1/1000
START=433200
END=464414
title=e014[G]

[CHAPTER]
TIMEBASE=1/1000
START=463414
END=490478
title=e015[G]

[CHAPTER]
TIMEBASE=1/1000
START=489478
END=513814
title=e016[G]

[CHAPTER]
TIMEBASE=1/1000
START=512814
END=525027
title=e017[G]

[CHAPTER]
TIMEBASE=1/1000
START=524027
END=555036
title=e018[G]

[CHAPTER]
TIMEBASE=1/1000
START=554036
END=562471
title=e019

[CHAPTER]
TIMEBASE=1/1000
START=561471
END=582540
title=e020[G]

[CHAPTER]
TIMEBASE=1/1000
START=581540
END=595421
title=e021[G]

[CHAPTER]
TIMEBASE=1/1000
START=594421
END=619452
title=e022[G]

[CHAPTER]
TIMEBASE=1/1000
START=618452
END=651217
title=e023[G]

[CHAPTER]
TIMEBASE=1/1000
START=650217
END=669068
title=e024[G]

[CHAPTER]
TIMEBASE=1/1000
START=668068
END=686551
title=e025[G]

[CHAPTER]
TIMEBASE=1/1000
START=685551
END=692377
title=e026

[CHAPTER]
TIMEBASE=1/1000
START=691377
END=702981
title=e027[G]

[CHAPTER]
TIMEBASE=1/1000
START=701981
END=716939
title=e028[G]

[CHAPTER]
TIMEBASE=1/1000
START=715939
END=722904
title=e029

[CHAPTER]
TIMEBASE=1/1000
START=721904
END=746520
title=e030[G]

[CHAPTER]
TIMEBASE=1/1000
START=745520
END=769874
title=e031[G]

[CHAPTER]
TIMEBASE=1/1000
START=768874
END=776866
title=e032

[CHAPTER]
TIMEBASE=1/1000
START=775866
END=792776
title=e033[G]

[CHAPTER]
TIMEBASE=1/1000
START=791776
END=800705
title=e034

[CHAPTER]
TIMEBASE=1/1000
START=799705
END=806810
title=e035

[CHAPTER]
TIMEBASE=1/1000
START=805810
END=821548
title=e036[G]

[CHAPTER]
TIMEBASE=1/1000
START=820548
END=845940
title=e037[G]

[CHAPTER]
TIMEBASE=1/1000
START=844940
END=851574
title=e038

[CHAPTER]
TIMEBASE=1/1000
START=850574
END=868142
title=e039[G]

[CHAPTER]
TIMEBASE=1/1000
START=867142
END=873580
title=e040

[CHAPTER]
TIMEBASE=1/1000
START=872580
END=888412
title=e041[G]

[CHAPTER]
TIMEBASE=1/1000
START=887412
END=904090
title=e042[G]

[CHAPTER]
TIMEBASE=1/1000
START=903090
END=909666
title=e043

[CHAPTER]
TIMEBASE=1/1000
START=908666
END=915311
title=e044

[CHAPTER]
TIMEBASE=1/1000
START=914311
END=926109
title=e045[G]

[CHAPTER]
TIMEBASE=1/1000
START=925109
END=938821
title=e046[G]

[CHAPTER]
TIMEBASE=1/1000
START=937821
END=950747
title=e047[G]

[CHAPTER]
TIMEBASE=1/1000
START=949747
END=961292
title=e048[G]

[CHAPTER]
TIMEBASE=1/1000
START=960292
END=978956
title=e049[G]

[CHAPTER]
TIMEBASE=1/1000
START=977956
END=997873
title=e050[G]

[CHAPTER]
TIMEBASE=1/1000
START=996873
END=1003616
title=e051

[CHAPTER]
TIMEBASE=1/1000
START=1002616
END=1010148
title=e052

[CHAPTER]
TIMEBASE=1/1000
START=1009148
END=1016002
title=e053

[CHAPTER]
TIMEBASE=1/1000
START=1015002
END=1024756
title=e054

[CHAPTER]
TIMEBASE=1/1000
START=1023756
END=1047633
title=e055[G]

[CHAPTER]
TIMEBASE=1/1000
START=1046633
END=1057624
title=e056[G]

[CHAPTER]
TIMEBASE=1/1000
START=1056624
END=1082179
title=e057[G]

[CHAPTER]
TIMEBASE=1/1000
START=1081179
END=1099595
title=e058[G]

[CHAPTER]
TIMEBASE=1/1000
START=1098595
END=1111403
title=e059[G]

[CHAPTER]
TIMEBASE=1/1000
START=1110403
END=1129805
title=e060[G]

[CHAPTER]
TIMEBASE=1/1000
START=1128805
END=1135332
title=e061

[CHAPTER]
TIMEBASE=1/1000
START=1134332
END=1141136
title=e062

[CHAPTER]
TIMEBASE=1/1000
START=1140136
END=1153490
title=e063[G]

[CHAPTER]
TIMEBASE=1/1000
START=1152490
END=1167020
title=e064[G]

[CHAPTER]
TIMEBASE=1/1000
START=1166020
END=1172409
title=e065

[CHAPTER]
TIMEBASE=1/1000
START=1171409
END=1177861
title=e066

[CHAPTER]
TIMEBASE=1/1000
START=1176861
END=1183310
title=e067

[CHAPTER]
TIMEBASE=1/1000
START=1182310
END=1192810
title=e068[G]

[CHAPTER]
TIMEBASE=1/1000
START=1191810
END=1203288
title=e069[G]

[CHAPTER]
TIMEBASE=1/1000
START=1202288
END=1208394
title=e070

[CHAPTER]
TIMEBASE=1/1000
START=1207394
END=1214518
title=e071

[CHAPTER]
TIMEBASE=1/1000
START=1213518
END=1220105
title=e072

[CHAPTER]
TIMEBASE=1/1000
START=1219105
END=1256249
title=e073[G]

[CHAPTER]
TIMEBASE=1/1000
START=1255249
END=1272629
title=e074[G]

[CHAPTER]
TIMEBASE=1/1000
START=1271629
END=1282735
title=e075[G]

[CHAPTER]
TIMEBASE=1/1000
START=1281735
END=1297719
title=e076[G]

[CHAPTER]
TIMEBASE=1/1000
START=1296719
END=1324225
title=e077[G]

[CHAPTER]
TIMEBASE=1/1000
START=1323225
END=1344074
title=e078[G]

[CHAPTER]
TIMEBASE=1/1000
START=1343074
END=1375387
title=e079[G]

[CHAPTER]
TIMEBASE=1/1000
START=1374387
END=1389733
title=e080[G]

[CHAPTER]
TIMEBASE=1/1000
START=1388733
END=1401574
title=e081[G]

[CHAPTER]
TIMEBASE=1/1000
START=1400574
END=1407588
title=e082

[CHAPTER]
TIMEBASE=1/1000
START=1406588
END=1432603
title=e083[G]

[CHAPTER]
TIMEBASE=1/1000
START=1431603
END=1444765
title=e084[G]

[CHAPTER]
TIMEBASE=1/1000
START=1443765
END=1457860
title=e085[G]

[CHAPTER]
TIMEBASE=1/1000
START=1456860
END=1467953
title=e086[G]

[CHAPTER]
TIMEBASE=1/1000
START=1466953
END=1496425
title=e087[G]

[CHAPTER]
TIMEBASE=1/1000
START=1495425
END=1508585
title=e088[G]

[CHAPTER]
TIMEBASE=1/1000
START=1507585
END=1538479
title=e089[G]

[CHAPTER]
TIMEBASE=1/1000
START=1537479
END=1548244
title=e090

[CHAPTER]
TIMEBASE=1/1000
START=1547244
END=1561386
title=e091[G]

[CHAPTER]
TIMEBASE=1/1000
START=1560386
END=1571591
title=e092[G]

[CHAPTER]
TIMEBASE=1/1000
START=1570591
END=1576997
title=e093

[CHAPTER]
TIMEBASE=1/1000
START=1575997
END=1588606
title=e094[G]

[CHAPTER]
TIMEBASE=1/1000
START=1587606
END=1606471
title=e095[G]

[CHAPTER]
TIMEBASE=1/1000
START=1605471
END=1615645
title=e096[G]

[CHAPTER]
TIMEBASE=1/1000
START=1614645
END=1628189
title=e097[G]

[CHAPTER]
TIMEBASE=1/1000
START=1627189
END=1638864
title=e098[G]

[CHAPTER]
TIMEBASE=1/1000
START=1637864
END=1644016
title=e099

[CHAPTER]
TIMEBASE=1/1000
START=1643016
END=1654214
title=e100[G]

[CHAPTER]
TIMEBASE=1/1000
START=1653214
END=1667977
title=e101[G]

[CHAPTER]
TIMEBASE=1/1000
START=1666977
END=1673598
title=e102

[CHAPTER]
TIMEBASE=1/1000
START=1672598
END=1684941
title=e103[G]

[CHAPTER]
TIMEBASE=1/1000
START=1683941
END=1691624
title=e104

[CHAPTER]
TIMEBASE=1/1000
START=1690624
END=1704992
title=e105[G]

[CHAPTER]
TIMEBASE=1/1000
START=1703992
END=1716254
title=e106[G]

[CHAPTER]
TIMEBASE=1/1000
START=1715254
END=1732197
title=e107[G]

[CHAPTER]
TIMEBASE=1/1000
START=1731197
END=1742490
title=e108[G]

[CHAPTER]
TIMEBASE=1/1000
START=1741490
END=1748024
title=e109

[CHAPTER]
TIMEBASE=1/1000
START=1747024
END=1754379
title=e110

[CHAPTER]
TIMEBASE=1/1000
START=1753379
END=1765058
title=e111[G]

[CHAPTER]
TIMEBASE=1/1000
START=1764058
END=1770905
title=e112

[CHAPTER]
TIMEBASE=1/1000
START=1769905
END=1786396
title=e113[G]

[CHAPTER]
TIMEBASE=1/1000
START=1785396
END=1796271
title=e114[G]

[CHAPTER]
TIMEBASE=1/1000
START=1795271
END=1812431
title=e115[G]

[CHAPTER]
TIMEBASE=1/1000
START=1811431
END=1822222
title=e116[G]

[CHAPTER]
TIMEBASE=1/1000
START=1821222
END=1838025
title=e117[G]

[CHAPTER]
TIMEBASE=1/1000
START=1837025
END=1847728
title=e118[G]

[CHAPTER]
TIMEBASE=1/1000
START=1846728
END=1857925
title=e119[G]

[CHAPTER]
TIMEBASE=1/1000
START=1856925
END=1863518
title=e120

[CHAPTER]
TIMEBASE=1/1000
START=1862518
END=1875137
title=e121[G]

[CHAPTER]
TIMEBASE=1/1000
START=1874137
END=1890768
title=e122[G]

[CHAPTER]
TIMEBASE=1/1000
START=1889768
END=1913250
title=e123[G]

[CHAPTER]
TIMEBASE=1/1000
START=1912250
END=1934242
title=e124[G]

[CHAPTER]
TIMEBASE=1/1000
START=1933242
END=1955076
title=e125[G]

[CHAPTER]
TIMEBASE=1/1000
START=1954076
END=1969523
title=e126[G]

[CHAPTER]
TIMEBASE=1/1000
START=1968523
END=1981077
title=e127[G]

[CHAPTER]
TIMEBASE=1/1000
START=1980077
END=1994456
title=e128[G]

[CHAPTER]
TIMEBASE=1/1000
START=1993456
END=1999870
title=e129

[CHAPTER]
TIMEBASE=1/1000
START=1998870
END=2005491
title=e130

[CHAPTER]
TIMEBASE=1/1000
START=2004491
END=2016781
title=e131[G]

[CHAPTER]
TIMEBASE=1/1000
START=2015781
END=2038848
title=e132[G]

[CHAPTER]
TIMEBASE=1/1000
START=2037848
END=2048620
title=e133[G]

[CHAPTER]
TIMEBASE=1/1000
START=2047620
END=2058379
title=e134[G]

[CHAPTER]
TIMEBASE=1/1000
START=2057379
END=2071324
title=e135[G]

[CHAPTER]
TIMEBASE=1/1000
START=2070324
END=2084071
title=e136[G]

[CHAPTER]
TIMEBASE=1/1000
START=2083071
END=2091322
title=e137

[CHAPTER]
TIMEBASE=1/1000
START=2090322
END=2100383
title=e138[G]

[CHAPTER]
TIMEBASE=1/1000
START=2099383
END=2112007
title=e139[G]

[CHAPTER]
TIMEBASE=1/1000
START=2111007
END=2123624
title=e140[G]

[CHAPTER]
TIMEBASE=1/1000
START=2122624
END=2128953
title=e141

[CHAPTER]
TIMEBASE=1/1000
START=2127953
END=2143743
title=e142[G]

[CHAPTER]
TIMEBASE=1/1000
START=2142743
END=2149407
title=e143

[CHAPTER]
TIMEBASE=1/1000
START=2148407
END=2155228
title=e144

[CHAPTER]
TIMEBASE=1/1000
START=2154228
END=2164809
title=e145[G]

[CHAPTER]
TIMEBASE=1/1000
START=2163809
END=2177766
title=e146[G]

[CHAPTER]
TIMEBASE=1/1000
START=2176766
END=2194418
title=e147[G]

[CHAPTER]
TIMEBASE=1/1000
START=2193418
END=2203911
title=e148[G]

[CHAPTER]
TIMEBASE=1/1000
START=2202911
END=2209137
title=e149

[CHAPTER]
TIMEBASE=1/1000
START=2208137
END=2229278
title=e150[G]

[CHAPTER]
TIMEBASE=1/1000
START=2228278
END=2243355
title=e151[G]

[CHAPTER]
TIMEBASE=1/1000
START=2242355
END=2253969
title=e152[G]

[CHAPTER]
TIMEBASE=1/1000
START=2252969
END=2263764
title=e153[G]

[CHAPTER]
TIMEBASE=1/1000
START=2262764
END=2277815
title=e154[G]

[CHAPTER]
TIMEBASE=1/1000
START=2276815
END=2295566
title=e155[G]

[CHAPTER]
TIMEBASE=1/1000
START=2294566
END=2301113
title=e156

[CHAPTER]
TIMEBASE=1/1000
START=2300113
END=2310712
title=e157[G]

[CHAPTER]
TIMEBASE=1/1000
START=2309712
END=2316175
title=e158

[CHAPTER]
TIMEBASE=1/1000
START=2315175
END=2345035
title=e159[G]

[CHAPTER]
TIMEBASE=1/1000
START=2344035
END=2350716
title=e160

[CHAPTER]
TIMEBASE=1/1000
START=2349716
END=2356979
title=e161

[CHAPTER]
TIMEBASE=1/1000
START=2355979
END=2366428
title=e162[G]

[CHAPTER]
TIMEBASE=1/1000
START=2365428
END=2390965
title=e163[G]

[CHAPTER]
TIMEBASE=1/1000
START=2389965
END=2406155
title=e164[G]

[CHAPTER]
TIMEBASE=1/1000
START=2405155
END=2416012
title=e165[G]

[CHAPTER]
TIMEBASE=1/1000
START=2415012
END=2429949
title=e166[G]

[CHAPTER]
TIMEBASE=1/1000
START=2428949
END=2443214
title=e167[G]

[CHAPTER]
TIMEBASE=1/1000
START=2442214
END=2453404
title=e168[G]

[CHAPTER]
TIMEBASE=1/1000
START=2452404
END=2465939
title=e169[G]

[CHAPTER]
TIMEBASE=1/1000
START=2464939
END=2480582
title=e170[G]

[CHAPTER]
TIMEBASE=1/1000
START=2479582
END=2491572
title=e171[G]

[CHAPTER]
TIMEBASE=1/1000
START=2490572
END=2502482
title=e172[G]

[CHAPTER]
TIMEBASE=1/1000
START=2501482
END=2512246
title=e173[G]

[CHAPTER]
TIMEBASE=1/1000
START=2511246
END=2534406
title=e174[G]

[CHAPTER]
TIMEBASE=1/1000
START=2533406
END=2544082
title=e175[G]

[CHAPTER]
TIMEBASE=1/1000
START=2543082
END=2551392
title=e176

[CHAPTER]
TIMEBASE=1/1000
START=2550392
END=2561161
title=e177[G]

[CHAPTER]
TIMEBASE=1/1000
START=2560161
END=2574369
title=e178[G]

[CHAPTER]
TIMEBASE=1/1000
START=2573369
END=2583966
title=e179[G]

[CHAPTER]
TIMEBASE=1/1000
START=2582966
END=2589894
title=e180

[CHAPTER]
TIMEBASE=1/1000
START=2588894
END=2608856
title=e181[G]

[CHAPTER]
TIMEBASE=1/1000
START=2607856
END=2618382
title=e182[G]

[CHAPTER]
TIMEBASE=1/1000
START=2617382
END=2628780
title=e183[G]

[CHAPTER]
TIMEBASE=1/1000
START=2627780
END=2637463
title=e184[G]

[CHAPTER]
TIMEBASE=1/1000
START=2636463
END=2647972
title=e185[G]

[CHAPTER]
TIMEBASE=1/1000
START=2646972
END=2660802
title=e186[G]

[CHAPTER]
TIMEBASE=1/1000
START=2659802
END=2670951
title=e187[G]

[CHAPTER]
TIMEBASE=1/1000
START=2669951
END=2676152
title=e188

[CHAPTER]
TIMEBASE=1/1000
START=2675152
END=2695514
title=e189[G]

[CHAPTER]
TIMEBASE=1/1000
START=2694514
END=2706858
title=e190[G]

[CHAPTER]
TIMEBASE=1/1000
START=2705858
END=2716891
title=e191[G]

[CHAPTER]
TIMEBASE=1/1000
START=2715891
END=2722300
title=e192

[CHAPTER]
TIMEBASE=1/1000
START=2721300
END=2727831
title=e193

[CHAPTER]
TIMEBASE=1/1000
START=2726831
END=2738553
title=e194[G]

[CHAPTER]
TIMEBASE=1/1000
START=2737553
END=2751748
title=e195[G]

[CHAPTER]
TIMEBASE=1/1000
START=2750748
END=2764174
title=e196[G]

[CHAPTER]
TIMEBASE=1/1000
START=2763174
END=2773705
title=e197[G]

[CHAPTER]
TIMEBASE=1/1000
START=2772705
END=2780545
title=e198

[CHAPTER]
TIMEBASE=1/1000
START=2779545
END=2786806
title=e199

[CHAPTER]
TIMEBASE=1/1000
START=2785806
END=2792148
title=e200

[CHAPTER]
TIMEBASE=1/1000
START=2791148
END=2802682
title=e201[G]

[CHAPTER]
TIMEBASE=1/1000
START=2801682
END=2808155
title=e202

[CHAPTER]
TIMEBASE=1/1000
START=2807155
END=2817352
title=e203[G]

[CHAPTER]
TIMEBASE=1/1000
START=2816352
END=2827980
title=e204[G]

[CHAPTER]
TIMEBASE=1/1000
START=2826980
END=2834026
title=e205

[CHAPTER]
TIMEBASE=1/1000
START=2833026
END=2840098
title=e206

[CHAPTER]
TIMEBASE=1/1000
START=2839098
END=2852226
title=e207[G]

[CHAPTER]
TIMEBASE=1/1000
START=2851226
END=2862740
title=e208[G]

[CHAPTER]
TIMEBASE=1/1000
START=2861740
END=2876761
title=e209[G]

[CHAPTER]
TIMEBASE=1/1000
START=2875761
END=2887699
title=e210[G]

[CHAPTER]
TIMEBASE=1/1000
START=2886699
END=2899078
title=e211[G]

[CHAPTER]
TIMEBASE=1/1000
START=2898078
END=2904436
title=e212

[CHAPTER]
TIMEBASE=1/1000
START=2903436
END=2913213
title=e213[G]

[CHAPTER]
TIMEBASE=1/1000
START=2912213
END=2925451
title=e214[G]

[CHAPTER]
TIMEBASE=1/1000
START=2924451
END=2934724
title=e215[G]

[CHAPTER]
TIMEBASE=1/1000
START=2933724
END=2944191
title=e216[G]

[CHAPTER]
TIMEBASE=1/1000
START=2943191
END=2954314
title=e217[G]

[CHAPTER]
TIMEBASE=1/1000
START=2953314
END=2963164
title=e218[G]

[CHAPTER]
TIMEBASE=1/1000
START=2962164
END=2974459
title=e219[G]

[CHAPTER]
TIMEBASE=1/1000
START=2973459
END=2985241
title=e220[G]

[CHAPTER]
TIMEBASE=1/1000
START=2984241
END=2996619
title=e221[G]

[CHAPTER]
TIMEBASE=1/1000
START=2995619
END=3009439
title=e222[G]

[CHAPTER]
TIMEBASE=1/1000
START=3008439
END=3015587
title=e223

[CHAPTER]
TIMEBASE=1/1000
START=3014587
END=3027822
title=e224[G]

[CHAPTER]
TIMEBASE=1/1000
START=3026822
END=3038621
title=e225[G]

[CHAPTER]
TIMEBASE=1/1000
START=3037621
END=3051477
title=e226[G]

[CHAPTER]
TIMEBASE=1/1000
START=3050477
END=3056834
title=e227

[CHAPTER]
TIMEBASE=1/1000
START=3055834
END=3062541
title=e228

[CHAPTER]
TIMEBASE=1/1000
START=3061541
END=3071609
title=e229[G]

[CHAPTER]
TIMEBASE=1/1000
START=3070609
END=3085923
title=e230[G]

[CHAPTER]
TIMEBASE=1/1000
START=3084923
END=3092235
title=e231

[CHAPTER]
TIMEBASE=1/1000
START=3091235
END=3102722
title=e232[G]

[CHAPTER]
TIMEBASE=1/1000
START=3101722
END=3110927
title=e233

[CHAPTER]
TIMEBASE=1/1000
START=3109927
END=3116089
title=e234

[CHAPTER]
TIMEBASE=1/1000
START=3115089
END=3121177
title=e235

[CHAPTER]
TIMEBASE=1/1000
START=3120177
END=3129834
title=e236[G]

[CHAPTER]
TIMEBASE=1/1000
START=3128834
END=3135003
title=e237

[CHAPTER]
TIMEBASE=1/1000
START=3134003
END=3141440
title=e238

[CHAPTER]
TIMEBASE=1/1000
START=3140440
END=3150663
title=e239[G]

[CHAPTER]
TIMEBASE=1/1000
START=3149663
END=3159988
title=e240[G]

[CHAPTER]
TIMEBASE=1/1000
START=3158988
END=3166395
title=e241

[CHAPTER]
TIMEBASE=1/1000
START=3165395
END=3175307
title=e242[G]

[CHAPTER]
TIMEBASE=1/1000
START=3174307
END=3184248
title=e243[G]

[CHAPTER]
TIMEBASE=1/1000
START=3183248
END=3189955
title=e244

[CHAPTER]
TIMEBASE=1/1000
START=3188955
END=3198804
title=e245[G]

[CHAPTER]
TIMEBASE=1/1000
START=3197804
END=3208180
title=e246[G]

[CHAPTER]
TIMEBASE=1/1000
START=3207180
END=3213390
title=e247

[CHAPTER]
TIMEBASE=1/1000
START=3212390
END=3219127
title=e248

[CHAPTER]
TIMEBASE=1/1000
START=3218127
END=3230503
title=e249[G]

[CHAPTER]
TIMEBASE=1/1000
START=3229503
END=3235707
title=e250

[CHAPTER]
TIMEBASE=1/1000
START=3234707
END=3246570
title=e251

[CHAPTER]
TIMEBASE=1/1000
START=3245570
END=3255911
title=e252[G]

[CHAPTER]
TIMEBASE=1/1000
START=3254911
END=3266396
title=e253[G]

[CHAPTER]
TIMEBASE=1/1000
START=3265396
END=3275322
title=e254[G]

[CHAPTER]
TIMEBASE=1/1000
START=3274322
END=3287522
title=e255[G]

[CHAPTER]
TIMEBASE=1/1000
START=3286522
END=3297299
title=e256[G]

[CHAPTER]
TIMEBASE=1/1000
START=3296299
END=3306399
title=e257[G]

[CHAPTER]
TIMEBASE=1/1000
START=3305399
END=3316139
title=e258[G]

[CHAPTER]
TIMEBASE=1/1000
START=3315139
END=3321282
title=e259

[CHAPTER]
TIMEBASE=1/1000
START=3320282
END=3331894
title=e260[G]

[CHAPTER]
TIMEBASE=1/1000
START=3330894
END=3340918
title=e261[G]

[CHAPTER]
TIMEBASE=1/1000
START=3339918
END=3349586
title=e262[G]

[CHAPTER]
TIMEBASE=1/1000
START=3348586
END=3354628
title=e263

[CHAPTER]
TIMEBASE=1/1000
START=3353628
END=3359899
title=e264

[CHAPTER]
TIMEBASE=1/1000
START=3358899
END=3368986
title=e265[G]

[CHAPTER]
TIMEBASE=1/1000
START=3367986
END=3378716
title=e266[G]

[CHAPTER]
TIMEBASE=1/1000
START=3377716
END=3393530
title=e267[G]

[CHAPTER]
TIMEBASE=1/1000
START=3392530
END=3404021
title=e268[G]

[CHAPTER]
TIMEBASE=1/1000
START=3403021
END=3410826
title=e269

[CHAPTER]
TIMEBASE=1/1000
START=3409826
END=3423100
title=e270[G]

[CHAPTER]
TIMEBASE=1/1000
START=3422100
END=3430128
title=e271

[CHAPTER]
TIMEBASE=1/1000
START=3429128
END=3435332
title=e272

[CHAPTER]
TIMEBASE=1/1000
START=3434332
END=3444426
title=e273[G]

[CHAPTER]
TIMEBASE=1/1000
START=3443426
END=3453639
title=e274[G]

[CHAPTER]
TIMEBASE=1/1000
START=3452639
END=3459007
title=e275

[CHAPTER]
TIMEBASE=1/1000
START=3458007
END=3464174
title=e276

[CHAPTER]
TIMEBASE=1/1000
START=3463174
END=3493176
title=e277[G]

[CHAPTER]
TIMEBASE=1/1000
START=3492176
END=3502367
title=e278[G]

[CHAPTER]
TIMEBASE=1/1000
START=3501367
END=3511384
title=e279[G]

[CHAPTER]
TIMEBASE=1/1000
START=3510384
END=3520059
title=e280[G]
