;FFMETADATA1
major_brand=isom
minor_version=512
compatible_brands=isomiso2avc1mp41
encoder=Lavf56.15.101

[CHAPTER]
TIMEBASE=1/1000
START=12557
END=94692
title=p001[G]

[CHAPTER]
TIMEBASE=1/1000
START=93692
END=144305
title=p002[G]

[CHAPTER]
TIMEBASE=1/1000
START=143305
END=183800
title=p003[G]

[CHAPTER]
TIMEBASE=1/1000
START=182800
END=201204
title=p004[G]

[CHAPTER]
TIMEBASE=1/1000
START=200204
END=219272
title=e001

[CHAPTER]
TIMEBASE=1/1000
START=218272
END=233613
title=e002[G]

[CHAPTER]
TIMEBASE=1/1000
START=232613
END=247137
title=e003[G]

[CHAPTER]
TIMEBASE=1/1000
START=246137
END=262653
title=e004[G]

[CHAPTER]
TIMEBASE=1/1000
START=261653
END=270638
title=e005

[CHAPTER]
TIMEBASE=1/1000
START=269638
END=278628
title=e006

[CHAPTER]
TIMEBASE=1/1000
START=277628
END=291859
title=e007[G]

[CHAPTER]
TIMEBASE=1/1000
START=290859
END=298045
title=e008

[CHAPTER]
TIMEBASE=1/1000
START=297045
END=308112
title=e009[G]

[CHAPTER]
TIMEBASE=1/1000
START=307112
END=319605
title=e010[G]

[CHAPTER]
TIMEBASE=1/1000
START=318605
END=330998
title=e011[G]

[CHAPTER]
TIMEBASE=1/1000
START=329998
END=341935
title=e012[G]

[CHAPTER]
TIMEBASE=1/1000
START=340935
END=349365
title=e013

[CHAPTER]
TIMEBASE=1/1000
START=348365
END=404188
title=e014[G]

[CHAPTER]
TIMEBASE=1/1000
START=403188
END=416604
title=e015[G]

[CHAPTER]
TIMEBASE=1/1000
START=415604
END=427952
title=e016[G]

[CHAPTER]
TIMEBASE=1/1000
START=426952
END=439388
title=e017[G]

[CHAPTER]
TIMEBASE=1/1000
START=438388
END=463308
title=e018[G]

[CHAPTER]
TIMEBASE=1/1000
START=462308
END=485269
title=e019[G]

[CHAPTER]
TIMEBASE=1/1000
START=484269
END=496878
title=e020[G]

[CHAPTER]
TIMEBASE=1/1000
START=495878
END=506451
title=e021[G]

[CHAPTER]
TIMEBASE=1/1000
START=505451
END=512213
title=e022

[CHAPTER]
TIMEBASE=1/1000
START=511213
END=529654
title=e023[G]

[CHAPTER]
TIMEBASE=1/1000
START=528654
END=539714
title=e024[G]

[CHAPTER]
TIMEBASE=1/1000
START=538714
END=551856
title=e025[G]

[CHAPTER]
TIMEBASE=1/1000
START=550856
END=562952
title=e026[G]

[CHAPTER]
TIMEBASE=1/1000
START=561952
END=580165
title=e027[G]

[CHAPTER]
TIMEBASE=1/1000
START=579165
END=598096
title=e028[G]

[CHAPTER]
TIMEBASE=1/1000
START=597096
END=615896
title=e029[G]

[CHAPTER]
TIMEBASE=1/1000
START=614896
END=626639
title=e030[G]

[CHAPTER]
TIMEBASE=1/1000
START=625639
END=631965
title=e031

[CHAPTER]
TIMEBASE=1/1000
START=630965
END=644641
title=e032[G]

[CHAPTER]
TIMEBASE=1/1000
START=643641
END=658319
title=e033[G]

[CHAPTER]
TIMEBASE=1/1000
START=657319
END=663976
title=e034

[CHAPTER]
TIMEBASE=1/1000
START=662976
END=670333
title=e035

[CHAPTER]
TIMEBASE=1/1000
START=669333
END=682670
title=e036[G]

[CHAPTER]
TIMEBASE=1/1000
START=681670
END=691841
title=e037[G]

[CHAPTER]
TIMEBASE=1/1000
START=690841
END=697669
title=e038

[CHAPTER]
TIMEBASE=1/1000
START=696669
END=706123
title=e039

[CHAPTER]
TIMEBASE=1/1000
START=705123
END=716092
title=e040[G]

[CHAPTER]
TIMEBASE=1/1000
START=715092
END=738632
title=e041[G]

[CHAPTER]
TIMEBASE=1/1000
START=737632
END=758900
title=e042[G]

[CHAPTER]
TIMEBASE=1/1000
START=757900
END=771879
title=e043[G]

[CHAPTER]
TIMEBASE=1/1000
START=770879
END=787064
title=e044[G]

[CHAPTER]
TIMEBASE=1/1000
START=786064
END=797287
title=e045[G]

[CHAPTER]
TIMEBASE=1/1000
START=796287
END=807566
title=e046[G]

[CHAPTER]
TIMEBASE=1/1000
START=806566
END=819809
title=e047[G]

[CHAPTER]
TIMEBASE=1/1000
START=818809
END=826114
title=e048

[CHAPTER]
TIMEBASE=1/1000
START=825114
END=832019
title=e049

[CHAPTER]
TIMEBASE=1/1000
START=831019
END=842464
title=e050[G]

[CHAPTER]
TIMEBASE=1/1000
START=841464
END=848755
title=e051

[CHAPTER]
TIMEBASE=1/1000
START=847755
END=860860
title=e052[G]

[CHAPTER]
TIMEBASE=1/1000
START=859860
END=867601
title=e053

[CHAPTER]
TIMEBASE=1/1000
START=866601
END=878454
title=e054[G]

[CHAPTER]
TIMEBASE=1/1000
START=877454
END=889448
title=e055[G]

[CHAPTER]
TIMEBASE=1/1000
START=888448
END=894719
title=e056

[CHAPTER]
TIMEBASE=1/1000
START=893719
END=910185
title=e057[G]

[CHAPTER]
TIMEBASE=1/1000
START=909185
END=919078
title=e058[G]

[CHAPTER]
TIMEBASE=1/1000
START=918078
END=929287
title=e059[G]

[CHAPTER]
TIMEBASE=1/1000
START=928287
END=937727
title=e060

[CHAPTER]
TIMEBASE=1/1000
START=936727
END=949884
title=e061[G]

[CHAPTER]
TIMEBASE=1/1000
START=948884
END=959614
title=e062[G]

[CHAPTER]
TIMEBASE=1/1000
START=958614
END=965442
title=e063

[CHAPTER]
TIMEBASE=1/1000
START=964442
END=970891
title=e064

[CHAPTER]
TIMEBASE=1/1000
START=969891
END=976197
title=e065

[CHAPTER]
TIMEBASE=1/1000
START=975197
END=992275
title=e066[G]

[CHAPTER]
TIMEBASE=1/1000
START=991275
END=998423
title=e067

[CHAPTER]
TIMEBASE=1/1000
START=997423
END=1008224
title=e068[G]

[CHAPTER]
TIMEBASE=1/1000
START=1007224
END=1022986
title=e069[G]

[CHAPTER]
TIMEBASE=1/1000
START=1021986
END=1034398
title=e070[G]

[CHAPTER]
TIMEBASE=1/1000
START=1033398
END=1048027
title=e071[G]

[CHAPTER]
TIMEBASE=1/1000
START=1047027
END=1054598
title=e072

[CHAPTER]
TIMEBASE=1/1000
START=1053598
END=1064139
title=e073[G]

[CHAPTER]
TIMEBASE=1/1000
START=1063139
END=1075299
title=e074[G]

[CHAPTER]
TIMEBASE=1/1000
START=1074299
END=1080498
title=e075

[CHAPTER]
TIMEBASE=1/1000
START=1079498
END=1090291
title=e076[G]

[CHAPTER]
TIMEBASE=1/1000
START=1089291
END=1099282
title=e077[G]

[CHAPTER]
TIMEBASE=1/1000
START=1098282
END=1109193
title=e078[G]

[CHAPTER]
TIMEBASE=1/1000
START=1108193
END=1126621
title=e079[G]

[CHAPTER]
TIMEBASE=1/1000
START=1125621
END=1136148
title=e080[G]

[CHAPTER]
TIMEBASE=1/1000
START=1135148
END=1142759
title=e081

[CHAPTER]
TIMEBASE=1/1000
START=1141759
END=1148034
title=e082

[CHAPTER]
TIMEBASE=1/1000
START=1147034
END=1158621
title=e083[G]

[CHAPTER]
TIMEBASE=1/1000
START=1157621
END=1163709
title=e084

[CHAPTER]
TIMEBASE=1/1000
START=1162709
END=1181236
title=e085[G]

[CHAPTER]
TIMEBASE=1/1000
START=1180236
END=1187436
title=e086

[CHAPTER]
TIMEBASE=1/1000
START=1186436
END=1198035
title=e087[G]

[CHAPTER]
TIMEBASE=1/1000
START=1197035
END=1204063
title=e088

[CHAPTER]
TIMEBASE=1/1000
START=1203063
END=1214039
title=e089[G]

[CHAPTER]
TIMEBASE=1/1000
START=1213039
END=1222831
title=e090[G]

[CHAPTER]
TIMEBASE=1/1000
START=1221831
END=1228229
title=e091

[CHAPTER]
TIMEBASE=1/1000
START=1227229
END=1238975
title=e092[G]

[CHAPTER]
TIMEBASE=1/1000
START=1237975
END=1244222
title=e093

[CHAPTER]
TIMEBASE=1/1000
START=1243222
END=1254121
title=e094[G]

[CHAPTER]
TIMEBASE=1/1000
START=1253121
END=1270622
title=e095[G]

[CHAPTER]
TIMEBASE=1/1000
START=1269622
END=1275893
title=e096

[CHAPTER]
TIMEBASE=1/1000
START=1274893
END=1281151
title=e097

[CHAPTER]
TIMEBASE=1/1000
START=1280151
END=1287030
title=e098

[CHAPTER]
TIMEBASE=1/1000
START=1286030
END=1295855
title=e099[G]

[CHAPTER]
TIMEBASE=1/1000
START=1294855
END=1301365
title=e100

[CHAPTER]
TIMEBASE=1/1000
START=1300365
END=1310884
title=e101[G]

[CHAPTER]
TIMEBASE=1/1000
START=1309884
END=1316038
title=e102

[CHAPTER]
TIMEBASE=1/1000
START=1315038
END=1325279
title=e103[G]

[CHAPTER]
TIMEBASE=1/1000
START=1324279
END=1330640
title=e104

[CHAPTER]
TIMEBASE=1/1000
START=1329640
END=1336028
title=e105

[CHAPTER]
TIMEBASE=1/1000
START=1335028
END=1341506
title=e106

[CHAPTER]
TIMEBASE=1/1000
START=1340506
END=1346807
title=e107

[CHAPTER]
TIMEBASE=1/1000
START=1345807
END=1352635
title=e108

[CHAPTER]
TIMEBASE=1/1000
START=1351635
END=1359054
title=e109

[CHAPTER]
TIMEBASE=1/1000
START=1358054
END=1364648
title=e110

[CHAPTER]
TIMEBASE=1/1000
START=1363648
END=1370035
title=e111

[CHAPTER]
TIMEBASE=1/1000
START=1369035
END=1380352
title=e112[G]

[CHAPTER]
TIMEBASE=1/1000
START=1379352
END=1385648
title=e113

[CHAPTER]
TIMEBASE=1/1000
START=1384648
END=1394610
title=e114[G]

[CHAPTER]
TIMEBASE=1/1000
START=1393610
END=1401192
title=e115

[CHAPTER]
TIMEBASE=1/1000
START=1400192
END=1410708
title=e116[G]

[CHAPTER]
TIMEBASE=1/1000
START=1409708
END=1416041
title=e117

[CHAPTER]
TIMEBASE=1/1000
START=1415041
END=1428923
title=e118[G]

[CHAPTER]
TIMEBASE=1/1000
START=1427923
END=1440748
title=e119[G]

[CHAPTER]
TIMEBASE=1/1000
START=1439748
END=1459165
title=e120[G]

[CHAPTER]
TIMEBASE=1/1000
START=1458165
END=1466265
title=e121

[CHAPTER]
TIMEBASE=1/1000
START=1465265
END=1477633
title=e122[G]

[CHAPTER]
TIMEBASE=1/1000
START=1476633
END=1483001
title=e123

[CHAPTER]
TIMEBASE=1/1000
START=1482001
END=1492275
title=e124[G]

[CHAPTER]
TIMEBASE=1/1000
START=1491275
END=1497601
title=e125

[CHAPTER]
TIMEBASE=1/1000
START=1496601
END=1502746
title=e126

[CHAPTER]
TIMEBASE=1/1000
START=1501746
END=1508126
title=e127

[CHAPTER]
TIMEBASE=1/1000
START=1507126
END=1513294
title=e128

[CHAPTER]
TIMEBASE=1/1000
START=1512294
END=1518421
title=e129

[CHAPTER]
TIMEBASE=1/1000
START=1517421
END=1529295
title=e130[G]

[CHAPTER]
TIMEBASE=1/1000
START=1528295
END=1534701
title=e131

[CHAPTER]
TIMEBASE=1/1000
START=1533701
END=1539689
title=e132

[CHAPTER]
TIMEBASE=1/1000
START=1538689
END=1545084
title=e133

[CHAPTER]
TIMEBASE=1/1000
START=1544084
END=1559453
title=e134[G]

[CHAPTER]
TIMEBASE=1/1000
START=1558453
END=1566131
title=e135

[CHAPTER]
TIMEBASE=1/1000
START=1565131
END=1571371
title=e136

[CHAPTER]
TIMEBASE=1/1000
START=1570371
END=1591078
title=e137[G]

[CHAPTER]
TIMEBASE=1/1000
START=1590078
END=1596458
title=e138

[CHAPTER]
TIMEBASE=1/1000
START=1595458
END=1601579
title=e139

[CHAPTER]
TIMEBASE=1/1000
START=1600579
END=1610230
title=e140[G]

[CHAPTER]
TIMEBASE=1/1000
START=1609230
END=1615223
title=e141

[CHAPTER]
TIMEBASE=1/1000
START=1614223
END=1620441
title=e142

[CHAPTER]
TIMEBASE=1/1000
START=1619441
END=1626034
title=e143

[CHAPTER]
TIMEBASE=1/1000
START=1625034
END=1635068
title=e144[G]

[CHAPTER]
TIMEBASE=1/1000
START=1634068
END=1640598
title=e145

[CHAPTER]
TIMEBASE=1/1000
START=1639598
END=1646018
title=e146

[CHAPTER]
TIMEBASE=1/1000
START=1645018
END=1655052
title=e147[G]

[CHAPTER]
TIMEBASE=1/1000
START=1654052
END=1660882
title=e148

[CHAPTER]
TIMEBASE=1/1000
START=1659882
END=1666424
title=e149

[CHAPTER]
TIMEBASE=1/1000
START=1665424
END=1675854
title=e150[G]

[CHAPTER]
TIMEBASE=1/1000
START=1674854
END=1681448
title=e151

[CHAPTER]
TIMEBASE=1/1000
START=1680448
END=1686741
title=e152

[CHAPTER]
TIMEBASE=1/1000
START=1685741
END=1692807
title=e153

[CHAPTER]
TIMEBASE=1/1000
START=1691807
END=1701514
title=e154[G]

[CHAPTER]
TIMEBASE=1/1000
START=1700514
END=1710337
title=e155[G]

[CHAPTER]
TIMEBASE=1/1000
START=1709337
END=1715417
title=e156

[CHAPTER]
TIMEBASE=1/1000
START=1714417
END=1721239
title=e157

[CHAPTER]
TIMEBASE=1/1000
START=1720239
END=1726771
title=e158

[CHAPTER]
TIMEBASE=1/1000
START=1725771
END=1731927
title=e159

[CHAPTER]
TIMEBASE=1/1000
START=1730927
END=1737273
title=e160

[CHAPTER]
TIMEBASE=1/1000
START=1736273
END=1752193
title=e161[G]

[CHAPTER]
TIMEBASE=1/1000
START=1751193
END=1761915
title=e162[G]

[CHAPTER]
TIMEBASE=1/1000
START=1760915
END=1771891
title=e163[G]

[CHAPTER]
TIMEBASE=1/1000
START=1770891
END=1777030
title=e164

[CHAPTER]
TIMEBASE=1/1000
START=1776030
END=1798618
title=e165[G]

[CHAPTER]
TIMEBASE=1/1000
START=1797618
END=1808471
title=e166[G]

[CHAPTER]
TIMEBASE=1/1000
START=1807471
END=1814283
title=e167

[CHAPTER]
TIMEBASE=1/1000
START=1813283
END=1825551
title=e168[G]

[CHAPTER]
TIMEBASE=1/1000
START=1824551
END=1831205
title=e169

[CHAPTER]
TIMEBASE=1/1000
START=1830205
END=1836518
title=e170

[CHAPTER]
TIMEBASE=1/1000
START=1835518
END=1841982
title=e171

[CHAPTER]
TIMEBASE=1/1000
START=1840982
END=1850623
title=e172[G]

[CHAPTER]
TIMEBASE=1/1000
START=1849623
END=1856365
title=e173

[CHAPTER]
TIMEBASE=1/1000
START=1855365
END=1867962
title=e174[G]

[CHAPTER]
TIMEBASE=1/1000
START=1866962
END=1874831
title=e175

[CHAPTER]
TIMEBASE=1/1000
START=1873831
END=1883841
title=e176[G]

[CHAPTER]
TIMEBASE=1/1000
START=1882841
END=1893282
title=e177

[CHAPTER]
TIMEBASE=1/1000
START=1892282
END=1898269
title=e178

[CHAPTER]
TIMEBASE=1/1000
START=1897269
END=1903734
title=e179

[CHAPTER]
TIMEBASE=1/1000
START=1902734
END=1909112
title=e180

[CHAPTER]
TIMEBASE=1/1000
START=1908112
END=1914373
title=e181

[CHAPTER]
TIMEBASE=1/1000
START=1913373
END=1919620
title=e182

[CHAPTER]
TIMEBASE=1/1000
START=1918620
END=1925022
title=e183

[CHAPTER]
TIMEBASE=1/1000
START=1924022
END=1929997
title=e184

[CHAPTER]
TIMEBASE=1/1000
START=1928997
END=1939479
title=e185[G]

[CHAPTER]
TIMEBASE=1/1000
START=1938479
END=1949030
title=e186[G]

[CHAPTER]
TIMEBASE=1/1000
START=1948030
END=1958223
title=e187[G]

[CHAPTER]
TIMEBASE=1/1000
START=1957223
END=1963600
title=e188

[CHAPTER]
TIMEBASE=1/1000
START=1962600
END=1969308
title=e189

[CHAPTER]
TIMEBASE=1/1000
START=1968308
END=1974576
title=e190

[CHAPTER]
TIMEBASE=1/1000
START=1973576
END=1983743
title=e191[G]

[CHAPTER]
TIMEBASE=1/1000
START=1982743
END=1993184
title=e192[G]

[CHAPTER]
TIMEBASE=1/1000
START=1992184
END=1998537
title=e193

[CHAPTER]
TIMEBASE=1/1000
START=1997537
END=2003758
title=e194

[CHAPTER]
TIMEBASE=1/1000
START=2002758
END=2009224
title=e195

[CHAPTER]
TIMEBASE=1/1000
START=2008224
END=2018317
title=e196[G]

[CHAPTER]
TIMEBASE=1/1000
START=2017317
END=2027763
title=e197[G]

[CHAPTER]
TIMEBASE=1/1000
START=2026763
END=2037187
title=e198[G]

[CHAPTER]
TIMEBASE=1/1000
START=2036187
END=2049252
title=e199[G]

[CHAPTER]
TIMEBASE=1/1000
START=2048252
END=2054054
title=e200

[CHAPTER]
TIMEBASE=1/1000
START=2053054
END=2063795
title=e201[G]

[CHAPTER]
TIMEBASE=1/1000
START=2062795
END=2069065
title=e202

[CHAPTER]
TIMEBASE=1/1000
START=2068065
END=2083762
title=e203[G]

[CHAPTER]
TIMEBASE=1/1000
START=2082762
END=2089226
title=e204

[CHAPTER]
TIMEBASE=1/1000
START=2088226
END=2097906
title=e205[G]

[CHAPTER]
TIMEBASE=1/1000
START=2096906
END=2108771
title=e206[G]

[CHAPTER]
TIMEBASE=1/1000
START=2107771
END=2114071
title=e207

[CHAPTER]
TIMEBASE=1/1000
START=2113071
END=2119153
title=e208

[CHAPTER]
TIMEBASE=1/1000
START=2118153
END=2128098
title=e209[G]

[CHAPTER]
TIMEBASE=1/1000
START=2127098
END=2133198
title=e210

[CHAPTER]
TIMEBASE=1/1000
START=2132198
END=2138285
title=e211

[CHAPTER]
TIMEBASE=1/1000
START=2137285
END=2147682
title=e212[G]

[CHAPTER]
TIMEBASE=1/1000
START=2146682
END=2160594
title=e213[G]

[CHAPTER]
TIMEBASE=1/1000
START=2159594
END=2166277
title=e214

[CHAPTER]
TIMEBASE=1/1000
START=2165277
END=2171489
title=e215

[CHAPTER]
TIMEBASE=1/1000
START=2170489
END=2180578
title=e216[G]

[CHAPTER]
TIMEBASE=1/1000
START=2179578
END=2185584
title=e217

[CHAPTER]
TIMEBASE=1/1000
START=2184584
END=2194040
title=e218[G]

[CHAPTER]
TIMEBASE=1/1000
START=2193040
END=2203266
title=e219[G]

[CHAPTER]
TIMEBASE=1/1000
START=2202266
END=2208515
title=e220

[CHAPTER]
TIMEBASE=1/1000
START=2207515
END=2218680
title=e221[G]

[CHAPTER]
TIMEBASE=1/1000
START=2217680
END=2223803
title=e222

[CHAPTER]
TIMEBASE=1/1000
START=2222803
END=2229288
title=e223

[CHAPTER]
TIMEBASE=1/1000
START=2228288
END=2234612
title=e224

[CHAPTER]
TIMEBASE=1/1000
START=2233612
END=2244266
title=e225[G]

[CHAPTER]
TIMEBASE=1/1000
START=2243266
END=2253975
title=e226[G]

[CHAPTER]
TIMEBASE=1/1000
START=2252975
END=2258812
title=e227

[CHAPTER]
TIMEBASE=1/1000
START=2257812
END=2264044
title=e228

[CHAPTER]
TIMEBASE=1/1000
START=2263044
END=2268936
title=e229

[CHAPTER]
TIMEBASE=1/1000
START=2267936
END=2273841
title=e230

[CHAPTER]
TIMEBASE=1/1000
START=2272841
END=2278752
title=e231

[CHAPTER]
TIMEBASE=1/1000
START=2277752
END=2283600
title=e232

[CHAPTER]
TIMEBASE=1/1000
START=2282600
END=2288711
title=e233

[CHAPTER]
TIMEBASE=1/1000
START=2287711
END=2294027
title=e234

[CHAPTER]
TIMEBASE=1/1000
START=2293027
END=2299180
title=e235

[CHAPTER]
TIMEBASE=1/1000
START=2298180
END=2309728
title=e236[G]

[CHAPTER]
TIMEBASE=1/1000
START=2308728
END=2330210
title=e237[G]

[CHAPTER]
TIMEBASE=1/1000
START=2329210
END=2335558
title=e238

[CHAPTER]
TIMEBASE=1/1000
START=2334558
END=2341247
title=e239

[CHAPTER]
TIMEBASE=1/1000
START=2340247
END=2347228
title=e240

[CHAPTER]
TIMEBASE=1/1000
START=2346228
END=2357150
title=e241[G]

[CHAPTER]
TIMEBASE=1/1000
START=2356150
END=2365958
title=e242[G]

[CHAPTER]
TIMEBASE=1/1000
START=2364958
END=2375249
title=e243[G]

[CHAPTER]
TIMEBASE=1/1000
START=2374249
END=2380840
title=e244

[CHAPTER]
TIMEBASE=1/1000
START=2379840
END=2385777
title=e245

[CHAPTER]
TIMEBASE=1/1000
START=2384777
END=2394883
title=e246[G]

[CHAPTER]
TIMEBASE=1/1000
START=2393883
END=2401202
title=e247

[CHAPTER]
TIMEBASE=1/1000
START=2400202
END=2406279
title=e248

[CHAPTER]
TIMEBASE=1/1000
START=2405279
END=2411152
title=e249

[CHAPTER]
TIMEBASE=1/1000
START=2410152
END=2416693
title=e250

[CHAPTER]
TIMEBASE=1/1000
START=2415693
END=2425309
title=e251[G]

[CHAPTER]
TIMEBASE=1/1000
START=2424309
END=2440087
title=e252[G]

[CHAPTER]
TIMEBASE=1/1000
START=2439087
END=2445123
title=e253

[CHAPTER]
TIMEBASE=1/1000
START=2444123
END=2450581
title=e254

[CHAPTER]
TIMEBASE=1/1000
START=2449581
END=2462743
title=e255[G]

[CHAPTER]
TIMEBASE=1/1000
START=2461743
END=2467966
title=e256

[CHAPTER]
TIMEBASE=1/1000
START=2466966
END=2476358
title=e257[G]

[CHAPTER]
TIMEBASE=1/1000
START=2475358
END=2485916
title=e258[G]

[CHAPTER]
TIMEBASE=1/1000
START=2484916
END=2494941
title=e259[G]

[CHAPTER]
TIMEBASE=1/1000
START=2493941
END=2507770
title=e260[G]

[CHAPTER]
TIMEBASE=1/1000
START=2506770
END=2513038
title=e261

[CHAPTER]
TIMEBASE=1/1000
START=2512038
END=2521747
title=e262[G]

[CHAPTER]
TIMEBASE=1/1000
START=2520747
END=2536927
title=e263[G]

[CHAPTER]
TIMEBASE=1/1000
START=2535927
END=2542341
title=e264

[CHAPTER]
TIMEBASE=1/1000
START=2541341
END=2548174
title=e265

[CHAPTER]
TIMEBASE=1/1000
START=2547174
END=2553390
title=e266

[CHAPTER]
TIMEBASE=1/1000
START=2552390
END=2558746
title=e267

[CHAPTER]
TIMEBASE=1/1000
START=2557746
END=2563728
title=e268

[CHAPTER]
TIMEBASE=1/1000
START=2562728
END=2572275
title=e269[G]

[CHAPTER]
TIMEBASE=1/1000
START=2571275
END=2577252
title=e270

[CHAPTER]
TIMEBASE=1/1000
START=2576252
END=2582934
title=e271

[CHAPTER]
TIMEBASE=1/1000
START=2581934
END=2588395
title=e272

[CHAPTER]
TIMEBASE=1/1000
START=2587395
END=2603218
title=e273[G]

[CHAPTER]
TIMEBASE=1/1000
START=2602218
END=2618383
title=e274[G]

[CHAPTER]
TIMEBASE=1/1000
START=2617383
END=2623705
title=e275

[CHAPTER]
TIMEBASE=1/1000
START=2622705
END=2628905
title=e276

[CHAPTER]
TIMEBASE=1/1000
START=2627905
END=2639446
title=e277[G]

[CHAPTER]
TIMEBASE=1/1000
START=2638446
END=2644830
title=e278

[CHAPTER]
TIMEBASE=1/1000
START=2643830
END=2661153
title=e279[G]

[CHAPTER]
TIMEBASE=1/1000
START=2660153
END=2666257
title=e280
