;FFMETADATA1
major_brand=isom
minor_version=512
compatible_brands=isomiso2avc1mp41
encoder=Lavf56.15.101

[CHAPTER]
TIMEBASE=1/1000
START=26334
END=118729
title=p001[G]

[CHAPTER]
TIMEBASE=1/1000
START=117729
END=145100
title=p002

[CHAPTER]
TIMEBASE=1/1000
START=144100
END=222381
title=p003[G]

[CHAPTER]
TIMEBASE=1/1000
START=221381
END=253397
title=p004[G]

[CHAPTER]
TIMEBASE=1/1000
START=252397
END=298924
title=e001[G]

[CHAPTER]
TIMEBASE=1/1000
START=297924
END=333542
title=e002[G]

[CHAPTER]
TIMEBASE=1/1000
START=332542
END=354074
title=e003[G]

[CHAPTER]
TIMEBASE=1/1000
START=353074
END=371029
title=e004[G]

[CHAPTER]
TIMEBASE=1/1000
START=370029
END=385260
title=e005[G]

[CHAPTER]
TIMEBASE=1/1000
START=384260
END=421075
title=e006[G]

[CHAPTER]
TIMEBASE=1/1000
START=420075
END=429343
title=e007

[CHAPTER]
TIMEBASE=1/1000
START=428343
END=449917
title=e008[G]

[CHAPTER]
TIMEBASE=1/1000
START=448917
END=469549
title=e009[G]

[CHAPTER]
TIMEBASE=1/1000
START=468549
END=484299
title=e010[G]

[CHAPTER]
TIMEBASE=1/1000
START=483299
END=497148
title=e011[G]

[CHAPTER]
TIMEBASE=1/1000
START=496148
END=508992
title=e012[G]

[CHAPTER]
TIMEBASE=1/1000
START=507992
END=522630
title=e013[G]

[CHAPTER]
TIMEBASE=1/1000
START=521630
END=538927
title=e014[G]

[CHAPTER]
TIMEBASE=1/1000
START=537927
END=547515
title=e015

[CHAPTER]
TIMEBASE=1/1000
START=546515
END=554924
title=e016

[CHAPTER]
TIMEBASE=1/1000
START=553924
END=560892
title=e017

[CHAPTER]
TIMEBASE=1/1000
START=559892
END=567315
title=e018

[CHAPTER]
TIMEBASE=1/1000
START=566315
END=573425
title=e019

[CHAPTER]
TIMEBASE=1/1000
START=572425
END=578892
title=e020

[CHAPTER]
TIMEBASE=1/1000
START=577892
END=595701
title=e021[G]

[CHAPTER]
TIMEBASE=1/1000
START=594701
END=607045
title=e022[G]

[CHAPTER]
TIMEBASE=1/1000
START=606045
END=619732
title=e023[G]

[CHAPTER]
TIMEBASE=1/1000
START=618732
END=634771
title=e024[G]

[CHAPTER]
TIMEBASE=1/1000
START=633771
END=646427
title=e025[G]

[CHAPTER]
TIMEBASE=1/1000
START=645427
END=657421
title=e026[G]

[CHAPTER]
TIMEBASE=1/1000
START=656421
END=669968
title=e027[G]

[CHAPTER]
TIMEBASE=1/1000
START=668968
END=687474
title=e028[G]

[CHAPTER]
TIMEBASE=1/1000
START=686474
END=707916
title=e029[G]

[CHAPTER]
TIMEBASE=1/1000
START=706916
END=719977
title=e030[G]

[CHAPTER]
TIMEBASE=1/1000
START=718977
END=733531
title=e031[G]

[CHAPTER]
TIMEBASE=1/1000
START=732531
END=757266
title=e032[G]

[CHAPTER]
TIMEBASE=1/1000
START=756266
END=764253
title=e033

[CHAPTER]
TIMEBASE=1/1000
START=763253
END=779863
title=e034[G]

[CHAPTER]
TIMEBASE=1/1000
START=778863
END=790958
title=e035[G]

[CHAPTER]
TIMEBASE=1/1000
START=789958
END=802725
title=e036[G]

[CHAPTER]
TIMEBASE=1/1000
START=801725
END=819993
title=e037[G]

[CHAPTER]
TIMEBASE=1/1000
START=818993
END=833011
title=e038[G]

[CHAPTER]
TIMEBASE=1/1000
START=832011
END=843853
title=e039[G]

[CHAPTER]
TIMEBASE=1/1000
START=842853
END=862560
title=e040[G]

[CHAPTER]
TIMEBASE=1/1000
START=861560
END=890492
title=e041[G]

[CHAPTER]
TIMEBASE=1/1000
START=889492
END=906608
title=e042[G]

[CHAPTER]
TIMEBASE=1/1000
START=905608
END=918469
title=e043[G]

[CHAPTER]
TIMEBASE=1/1000
START=917469
END=929293
title=e044[G]

[CHAPTER]
TIMEBASE=1/1000
START=928293
END=952982
title=e045[G]

[CHAPTER]
TIMEBASE=1/1000
START=951982
END=963506
title=e046[G]

[CHAPTER]
TIMEBASE=1/1000
START=962506
END=974552
title=e047[G]

[CHAPTER]
TIMEBASE=1/1000
START=973552
END=991156
title=e048[G]

[CHAPTER]
TIMEBASE=1/1000
START=990156
END=1002465
title=e049[G]

[CHAPTER]
TIMEBASE=1/1000
START=1001465
END=1013948
title=e050[G]

[CHAPTER]
TIMEBASE=1/1000
START=1012948
END=1025109
title=e051[G]

[CHAPTER]
TIMEBASE=1/1000
START=1024109
END=1040583
title=e052[G]

[CHAPTER]
TIMEBASE=1/1000
START=1039583
END=1051591
title=e053[G]

[CHAPTER]
TIMEBASE=1/1000
START=1050591
END=1062766
title=e054[G]

[CHAPTER]
TIMEBASE=1/1000
START=1061766
END=1073573
title=e055[G]

[CHAPTER]
TIMEBASE=1/1000
START=1072573
END=1086825
title=e056[G]

[CHAPTER]
TIMEBASE=1/1000
START=1085825
END=1098885
title=e057[G]

[CHAPTER]
TIMEBASE=1/1000
START=1097885
END=1113137
title=e058[G]

[CHAPTER]
TIMEBASE=1/1000
START=1112137
END=1127049
title=e059[G]

[CHAPTER]
TIMEBASE=1/1000
START=1126049
END=1139746
title=e060[G]

[CHAPTER]
TIMEBASE=1/1000
START=1138746
END=1152794
title=e061[G]

[CHAPTER]
TIMEBASE=1/1000
START=1151794
END=1164014
title=e062[G]

[CHAPTER]
TIMEBASE=1/1000
START=1163014
END=1175441
title=e063[G]

[CHAPTER]
TIMEBASE=1/1000
START=1174441
END=1191766
title=e064[G]

[CHAPTER]
TIMEBASE=1/1000
START=1190766
END=1205674
title=e065[G]

[CHAPTER]
TIMEBASE=1/1000
START=1204674
END=1212749
title=e066

[CHAPTER]
TIMEBASE=1/1000
START=1211749
END=1223301
title=e067[G]

[CHAPTER]
TIMEBASE=1/1000
START=1222301
END=1230486
title=e068

[CHAPTER]
TIMEBASE=1/1000
START=1229486
END=1240454
title=e069[G]

[CHAPTER]
TIMEBASE=1/1000
START=1239454
END=1254955
title=e070[G]

[CHAPTER]
TIMEBASE=1/1000
START=1253955
END=1267848
title=e071[G]

[CHAPTER]
TIMEBASE=1/1000
START=1266848
END=1274580
title=e072

[CHAPTER]
TIMEBASE=1/1000
START=1273580
END=1289670
title=e073[G]

[CHAPTER]
TIMEBASE=1/1000
START=1288670
END=1301202
title=e074[G]

[CHAPTER]
TIMEBASE=1/1000
START=1300202
END=1314842
title=e075

[CHAPTER]
TIMEBASE=1/1000
START=1313842
END=1321642
title=e076

[CHAPTER]
TIMEBASE=1/1000
START=1320642
END=1333605
title=e077[G]

[CHAPTER]
TIMEBASE=1/1000
START=1332605
END=1346734
title=e078[G]

[CHAPTER]
TIMEBASE=1/1000
START=1345734
END=1356449
title=e079[G]

[CHAPTER]
TIMEBASE=1/1000
START=1355449
END=1367659
title=e080[G]

[CHAPTER]
TIMEBASE=1/1000
START=1366659
END=1382147
title=e081[G]

[CHAPTER]
TIMEBASE=1/1000
START=1381147
END=1393575
title=e082[G]

[CHAPTER]
TIMEBASE=1/1000
START=1392575
END=1405945
title=e083[G]

[CHAPTER]
TIMEBASE=1/1000
START=1404945
END=1411671
title=e084

[CHAPTER]
TIMEBASE=1/1000
START=1410671
END=1431633
title=e085[G]

[CHAPTER]
TIMEBASE=1/1000
START=1430633
END=1444469
title=e086[G]

[CHAPTER]
TIMEBASE=1/1000
START=1443469
END=1457598
title=e087[G]

[CHAPTER]
TIMEBASE=1/1000
START=1456598
END=1469867
title=e088[G]

[CHAPTER]
TIMEBASE=1/1000
START=1468867
END=1481660
title=e089[G]

[CHAPTER]
TIMEBASE=1/1000
START=1480660
END=1495013
title=e090[G]

[CHAPTER]
TIMEBASE=1/1000
START=1494013
END=1506099
title=e091[G]

[CHAPTER]
TIMEBASE=1/1000
START=1505099
END=1515807
title=e092[G]

[CHAPTER]
TIMEBASE=1/1000
START=1514807
END=1526998
title=e093[G]

[CHAPTER]
TIMEBASE=1/1000
START=1525998
END=1537506
title=e094[G]

[CHAPTER]
TIMEBASE=1/1000
START=1536506
END=1543186
title=e095

[CHAPTER]
TIMEBASE=1/1000
START=1542186
END=1554264
title=e096[G]

[CHAPTER]
TIMEBASE=1/1000
START=1553264
END=1563969
title=e097[G]

[CHAPTER]
TIMEBASE=1/1000
START=1562969
END=1570032
title=e098

[CHAPTER]
TIMEBASE=1/1000
START=1569032
END=1576915
title=e099

[CHAPTER]
TIMEBASE=1/1000
START=1575915
END=1588038
title=e100[G]

[CHAPTER]
TIMEBASE=1/1000
START=1587038
END=1599990
title=e101[G]

[CHAPTER]
TIMEBASE=1/1000
START=1598990
END=1605990
title=e102

[CHAPTER]
TIMEBASE=1/1000
START=1604990
END=1616319
title=e103[G]

[CHAPTER]
TIMEBASE=1/1000
START=1615319
END=1626268
title=e104[G]

[CHAPTER]
TIMEBASE=1/1000
START=1625268
END=1633181
title=e105

[CHAPTER]
TIMEBASE=1/1000
START=1632181
END=1644591
title=e106[G]

[CHAPTER]
TIMEBASE=1/1000
START=1643591
END=1655703
title=e107[G]

[CHAPTER]
TIMEBASE=1/1000
START=1654703
END=1666541
title=e108[G]

[CHAPTER]
TIMEBASE=1/1000
START=1665541
END=1678015
title=e109[G]

[CHAPTER]
TIMEBASE=1/1000
START=1677015
END=1689359
title=e110[G]

[CHAPTER]
TIMEBASE=1/1000
START=1688359
END=1699542
title=e111[G]

[CHAPTER]
TIMEBASE=1/1000
START=1698542
END=1711285
title=e112[G]

[CHAPTER]
TIMEBASE=1/1000
START=1710285
END=1721351
title=e113[G]

[CHAPTER]
TIMEBASE=1/1000
START=1720351
END=1731528
title=e114[G]

[CHAPTER]
TIMEBASE=1/1000
START=1730528
END=1741790
title=e115[G]

[CHAPTER]
TIMEBASE=1/1000
START=1740790
END=1751889
title=e116[G]

[CHAPTER]
TIMEBASE=1/1000
START=1750889
END=1762990
title=e117[G]

[CHAPTER]
TIMEBASE=1/1000
START=1761990
END=1773732
title=e118[G]

[CHAPTER]
TIMEBASE=1/1000
START=1772732
END=1784116
title=e119[G]

[CHAPTER]
TIMEBASE=1/1000
START=1783116
END=1794585
title=e120[G]

[CHAPTER]
TIMEBASE=1/1000
START=1793585
END=1806780
title=e121[G]

[CHAPTER]
TIMEBASE=1/1000
START=1805780
END=1813039
title=e122

[CHAPTER]
TIMEBASE=1/1000
START=1812039
END=1822568
title=e123[G]

[CHAPTER]
TIMEBASE=1/1000
START=1821568
END=1828398
title=e124

[CHAPTER]
TIMEBASE=1/1000
START=1827398
END=1834275
title=e125

[CHAPTER]
TIMEBASE=1/1000
START=1833275
END=1845173
title=e126[G]

[CHAPTER]
TIMEBASE=1/1000
START=1844173
END=1851623
title=e127

[CHAPTER]
TIMEBASE=1/1000
START=1850623
END=1864342
title=e128[G]

[CHAPTER]
TIMEBASE=1/1000
START=1863342
END=1873787
title=e129[G]

[CHAPTER]
TIMEBASE=1/1000
START=1872787
END=1884231
title=e130[G]

[CHAPTER]
TIMEBASE=1/1000
START=1883231
END=1893817
title=e131[G]

[CHAPTER]
TIMEBASE=1/1000
START=1892817
END=1904251
title=e132[G]

[CHAPTER]
TIMEBASE=1/1000
START=1903251
END=1913922
title=e133[G]

[CHAPTER]
TIMEBASE=1/1000
START=1912922
END=1920079
title=e134

[CHAPTER]
TIMEBASE=1/1000
START=1919079
END=1929855
title=e135[G]

[CHAPTER]
TIMEBASE=1/1000
START=1928855
END=1941524
title=e136[G]

[CHAPTER]
TIMEBASE=1/1000
START=1940524
END=1952155
title=e137[G]

[CHAPTER]
TIMEBASE=1/1000
START=1951155
END=1961597
title=e138[G]

[CHAPTER]
TIMEBASE=1/1000
START=1960597
END=1972642
title=e139[G]

[CHAPTER]
TIMEBASE=1/1000
START=1971642
END=1982402
title=e140[G]

[CHAPTER]
TIMEBASE=1/1000
START=1981402
END=1993261
title=e141[G]

[CHAPTER]
TIMEBASE=1/1000
START=1992261
END=2006001
title=e142[G]

[CHAPTER]
TIMEBASE=1/1000
START=2005001
END=2016932
title=e143[G]

[CHAPTER]
TIMEBASE=1/1000
START=2015932
END=2028456
title=e144[G]

[CHAPTER]
TIMEBASE=1/1000
START=2027456
END=2039450
title=e145[G]

[CHAPTER]
TIMEBASE=1/1000
START=2038450
END=2049658
title=e146[G]

[CHAPTER]
TIMEBASE=1/1000
START=2048658
END=2059451
title=e147[G]

[CHAPTER]
TIMEBASE=1/1000
START=2058451
END=2072881
title=e148[G]

[CHAPTER]
TIMEBASE=1/1000
START=2071881
END=2084556
title=e149[G]

[CHAPTER]
TIMEBASE=1/1000
START=2083556
END=2096916
title=e150[G]

[CHAPTER]
TIMEBASE=1/1000
START=2095916
END=2110165
title=e151[G]

[CHAPTER]
TIMEBASE=1/1000
START=2109165
END=2119802
title=e152[G]

[CHAPTER]
TIMEBASE=1/1000
START=2118802
END=2125497
title=e153

[CHAPTER]
TIMEBASE=1/1000
START=2124497
END=2139555
title=e154[G]

[CHAPTER]
TIMEBASE=1/1000
START=2138555
END=2147994
title=e155[G]

[CHAPTER]
TIMEBASE=1/1000
START=2146994
END=2158791
title=e156[G]

[CHAPTER]
TIMEBASE=1/1000
START=2157791
END=2170355
title=e157[G]

[CHAPTER]
TIMEBASE=1/1000
START=2169355
END=2191070
title=e158[G]

[CHAPTER]
TIMEBASE=1/1000
START=2190070
END=2200130
title=e159[G]

[CHAPTER]
TIMEBASE=1/1000
START=2199130
END=2210547
title=e160[G]

[CHAPTER]
TIMEBASE=1/1000
START=2209547
END=2222812
title=e161[G]

[CHAPTER]
TIMEBASE=1/1000
START=2221812
END=2235522
title=e162[G]

[CHAPTER]
TIMEBASE=1/1000
START=2234522
END=2245765
title=e163[G]

[CHAPTER]
TIMEBASE=1/1000
START=2244765
END=2255621
title=e164[G]

[CHAPTER]
TIMEBASE=1/1000
START=2254621
END=2261733
title=e165

[CHAPTER]
TIMEBASE=1/1000
START=2260733
END=2270737
title=e166[G]

[CHAPTER]
TIMEBASE=1/1000
START=2269737
END=2278350
title=e167

[CHAPTER]
TIMEBASE=1/1000
START=2277350
END=2294723
title=e168[G]

[CHAPTER]
TIMEBASE=1/1000
START=2293723
END=2304981
title=e169[G]

[CHAPTER]
TIMEBASE=1/1000
START=2303981
END=2316108
title=e170[G]

[CHAPTER]
TIMEBASE=1/1000
START=2315108
END=2325924
title=e171[G]

[CHAPTER]
TIMEBASE=1/1000
START=2324924
END=2332495
title=e172

[CHAPTER]
TIMEBASE=1/1000
START=2331495
END=2343199
title=e173[G]

[CHAPTER]
TIMEBASE=1/1000
START=2342199
END=2352823
title=e174[G]

[CHAPTER]
TIMEBASE=1/1000
START=2351823
END=2363451
title=e175[G]

[CHAPTER]
TIMEBASE=1/1000
START=2362451
END=2376460
title=e176[G]

[CHAPTER]
TIMEBASE=1/1000
START=2375460
END=2388189
title=e177[G]

[CHAPTER]
TIMEBASE=1/1000
START=2387189
END=2398681
title=e178[G]

[CHAPTER]
TIMEBASE=1/1000
START=2397681
END=2408907
title=e179[G]

[CHAPTER]
TIMEBASE=1/1000
START=2407907
END=2421803
title=e180[G]

[CHAPTER]
TIMEBASE=1/1000
START=2420803
END=2427290
title=e181

[CHAPTER]
TIMEBASE=1/1000
START=2426290
END=2437040
title=e182[G]

[CHAPTER]
TIMEBASE=1/1000
START=2436040
END=2447324
title=e183[G]

[CHAPTER]
TIMEBASE=1/1000
START=2446324
END=2458103
title=e184[G]

[CHAPTER]
TIMEBASE=1/1000
START=2457103
END=2469776
title=e185[G]

[CHAPTER]
TIMEBASE=1/1000
START=2468776
END=2481038
title=e186[G]

[CHAPTER]
TIMEBASE=1/1000
START=2480038
END=2490677
title=e187[G]

[CHAPTER]
TIMEBASE=1/1000
START=2489677
END=2501505
title=e188[G]

[CHAPTER]
TIMEBASE=1/1000
START=2500505
END=2507086
title=e189

[CHAPTER]
TIMEBASE=1/1000
START=2506086
END=2512491
title=e190

[CHAPTER]
TIMEBASE=1/1000
START=2511491
END=2517800
title=e191

[CHAPTER]
TIMEBASE=1/1000
START=2516800
END=2527696
title=e192[G]

[CHAPTER]
TIMEBASE=1/1000
START=2526696
END=2537537
title=e193[G]

[CHAPTER]
TIMEBASE=1/1000
START=2536537
END=2546327
title=e194[G]

[CHAPTER]
TIMEBASE=1/1000
START=2545327
END=2559506
title=e195[G]

[CHAPTER]
TIMEBASE=1/1000
START=2558506
END=2566756
title=e196

[CHAPTER]
TIMEBASE=1/1000
START=2565756
END=2575904
title=e197[G]

[CHAPTER]
TIMEBASE=1/1000
START=2574904
END=2587947
title=e198[G]

[CHAPTER]
TIMEBASE=1/1000
START=2586947
END=2602761
title=e199[G]

[CHAPTER]
TIMEBASE=1/1000
START=2601761
END=2613618
title=e200[G]

[CHAPTER]
TIMEBASE=1/1000
START=2612618
END=2624279
title=e201[G]

[CHAPTER]
TIMEBASE=1/1000
START=2623279
END=2638854
title=e202[G]

[CHAPTER]
TIMEBASE=1/1000
START=2637854
END=2649017
title=e203[G]

[CHAPTER]
TIMEBASE=1/1000
START=2648017
END=2659761
title=e204[G]

[CHAPTER]
TIMEBASE=1/1000
START=2658761
END=2671545
title=e205[G]

[CHAPTER]
TIMEBASE=1/1000
START=2670545
END=2680662
title=e206[G]

[CHAPTER]
TIMEBASE=1/1000
START=2679662
END=2691226
title=e207[G]

[CHAPTER]
TIMEBASE=1/1000
START=2690226
END=2700843
title=e208[G]

[CHAPTER]
TIMEBASE=1/1000
START=2699843
END=2716189
title=e209[G]

[CHAPTER]
TIMEBASE=1/1000
START=2715189
END=2727236
title=e210[G]

[CHAPTER]
TIMEBASE=1/1000
START=2726236
END=2737227
title=e211[G]

[CHAPTER]
TIMEBASE=1/1000
START=2736227
END=2749536
title=e212[G]

[CHAPTER]
TIMEBASE=1/1000
START=2748536
END=2763115
title=e213[G]

[CHAPTER]
TIMEBASE=1/1000
START=2762115
END=2776129
title=e214[G]

[CHAPTER]
TIMEBASE=1/1000
START=2775129
END=2782124
title=e215

[CHAPTER]
TIMEBASE=1/1000
START=2781124
END=2791491
title=e216[G]

[CHAPTER]
TIMEBASE=1/1000
START=2790491
END=2800983
title=e217[G]

[CHAPTER]
TIMEBASE=1/1000
START=2799983
END=2811428
title=e218[G]

[CHAPTER]
TIMEBASE=1/1000
START=2810428
END=2818814
title=e219

[CHAPTER]
TIMEBASE=1/1000
START=2817814
END=2829839
title=e220[G]

[CHAPTER]
TIMEBASE=1/1000
START=2828839
END=2840117
title=e221[G]

[CHAPTER]
TIMEBASE=1/1000
START=2839117
END=2850427
title=e222[G]

[CHAPTER]
TIMEBASE=1/1000
START=2849427
END=2862657
title=e223[G]

[CHAPTER]
TIMEBASE=1/1000
START=2861657
END=2873647
title=e224[G]

[CHAPTER]
TIMEBASE=1/1000
START=2872647
END=2879786
title=e225

[CHAPTER]
TIMEBASE=1/1000
START=2878786
END=2889525
title=e226[G]

[CHAPTER]
TIMEBASE=1/1000
START=2888525
END=2896335
title=e227

[CHAPTER]
TIMEBASE=1/1000
START=2895335
END=2910306
title=e228[G]

[CHAPTER]
TIMEBASE=1/1000
START=2909306
END=2922468
title=e229[G]

[CHAPTER]
TIMEBASE=1/1000
START=2921468
END=2928682
title=e230

[CHAPTER]
TIMEBASE=1/1000
START=2927682
END=2938986
title=e231[G]

[CHAPTER]
TIMEBASE=1/1000
START=2937986
END=2944372
title=e232

[CHAPTER]
TIMEBASE=1/1000
START=2943372
END=2950136
title=e233

[CHAPTER]
TIMEBASE=1/1000
START=2949136
END=2955850
title=e234

[CHAPTER]
TIMEBASE=1/1000
START=2954850
END=2961478
title=e235

[CHAPTER]
TIMEBASE=1/1000
START=2960478
END=2967485
title=e236

[CHAPTER]
TIMEBASE=1/1000
START=2966485
END=2979601
title=e237[G]

[CHAPTER]
TIMEBASE=1/1000
START=2978601
END=2989126
title=e238[G]

[CHAPTER]
TIMEBASE=1/1000
START=2988126
END=3001032
title=e239[G]

[CHAPTER]
TIMEBASE=1/1000
START=3000032
END=3012785
title=e240[G]

[CHAPTER]
TIMEBASE=1/1000
START=3011785
END=3022282
title=e241

[CHAPTER]
TIMEBASE=1/1000
START=3021282
END=3031979
title=e242[G]

[CHAPTER]
TIMEBASE=1/1000
START=3030979
END=3041372
title=e243[G]

[CHAPTER]
TIMEBASE=1/1000
START=3040372
END=3047903
title=e244

[CHAPTER]
TIMEBASE=1/1000
START=3046903
END=3058893
title=e245[G]

[CHAPTER]
TIMEBASE=1/1000
START=3057893
END=3069216
title=e246[G]

[CHAPTER]
TIMEBASE=1/1000
START=3068216
END=3078687
title=e247[G]

[CHAPTER]
TIMEBASE=1/1000
START=3077687
END=3088676
title=e248[G]

[CHAPTER]
TIMEBASE=1/1000
START=3087676
END=3095551
title=e249

[CHAPTER]
TIMEBASE=1/1000
START=3094551
END=3101851
title=e250

[CHAPTER]
TIMEBASE=1/1000
START=3100851
END=3112506
title=e251[G]

[CHAPTER]
TIMEBASE=1/1000
START=3111506
END=3122613
title=e252[G]

[CHAPTER]
TIMEBASE=1/1000
START=3121613
END=3133567
title=e253[G]

[CHAPTER]
TIMEBASE=1/1000
START=3132567
END=3143893
title=e254[G]

[CHAPTER]
TIMEBASE=1/1000
START=3142893
END=3156786
title=e255[G]

[CHAPTER]
TIMEBASE=1/1000
START=3155786
END=3168154
title=e256[G]

[CHAPTER]
TIMEBASE=1/1000
START=3167154
END=3178479
title=e257[G]

[CHAPTER]
TIMEBASE=1/1000
START=3177479
END=3190278
title=e258[G]

[CHAPTER]
TIMEBASE=1/1000
START=3189278
END=3201283
title=e259[G]

[CHAPTER]
TIMEBASE=1/1000
START=3200283
END=3211625
title=e260[G]

[CHAPTER]
TIMEBASE=1/1000
START=3210625
END=3224004
title=e261[G]

[CHAPTER]
TIMEBASE=1/1000
START=3223004
END=3234539
title=e262[G]

[CHAPTER]
TIMEBASE=1/1000
START=3233539
END=3246172
title=e263[G]

[CHAPTER]
TIMEBASE=1/1000
START=3245172
END=3257082
title=e264[G]

[CHAPTER]
TIMEBASE=1/1000
START=3256082
END=3267285
title=e265[G]

[CHAPTER]
TIMEBASE=1/1000
START=3266285
END=3278388
title=e266[G]

[CHAPTER]
TIMEBASE=1/1000
START=3277388
END=3284610
title=e267

[CHAPTER]
TIMEBASE=1/1000
START=3283610
END=3296102
title=e268[G]

[CHAPTER]
TIMEBASE=1/1000
START=3295102
END=3306004
title=e269[G]

[CHAPTER]
TIMEBASE=1/1000
START=3305004
END=3315972
title=e270[G]

[CHAPTER]
TIMEBASE=1/1000
START=3314972
END=3326280
title=e271[G]

[CHAPTER]
TIMEBASE=1/1000
START=3325280
END=3336649
title=e272[G]

[CHAPTER]
TIMEBASE=1/1000
START=3335649
END=3346758
title=e273[G]

[CHAPTER]
TIMEBASE=1/1000
START=3345758
END=3357326
title=e274[G]

[CHAPTER]
TIMEBASE=1/1000
START=3356326
END=3367886
title=e275[G]

[CHAPTER]
TIMEBASE=1/1000
START=3366886
END=3377954
title=e276[G]

[CHAPTER]
TIMEBASE=1/1000
START=3376954
END=3388612
title=e277[G]

[CHAPTER]
TIMEBASE=1/1000
START=3387612
END=3399411
title=e278[G]

[CHAPTER]
TIMEBASE=1/1000
START=3398411
END=3412462
title=e279[G]

[CHAPTER]
TIMEBASE=1/1000
START=3411462
END=3422525
title=e280[G]
