;FFMETADATA1
major_brand=isom
minor_version=512
compatible_brands=isomiso2avc1mp41
encoder=Lavf56.15.101

[CHAPTER]
TIMEBASE=1/1000
START=22229
END=50283
title=p001[G]

[CHAPTER]
TIMEBASE=1/1000
START=49283
END=106761
title=p002[G]

[CHAPTER]
TIMEBASE=1/1000
START=105761
END=116603
title=p003

[CHAPTER]
TIMEBASE=1/1000
START=115603
END=177510
title=p004[G]

[CHAPTER]
TIMEBASE=1/1000
START=176510
END=205650
title=e001[G]

[CHAPTER]
TIMEBASE=1/1000
START=204650
END=224151
title=e002[G]

[CHAPTER]
TIMEBASE=1/1000
START=223151
END=230934
title=e003

[CHAPTER]
TIMEBASE=1/1000
START=229934
END=239246
title=e004

[CHAPTER]
TIMEBASE=1/1000
START=238246
END=290408
title=e005[G]

[CHAPTER]
TIMEBASE=1/1000
START=289408
END=314142
title=e006[G]

[CHAPTER]
TIMEBASE=1/1000
START=313142
END=333489
title=e007[G]

[CHAPTER]
TIMEBASE=1/1000
START=332489
END=340418
title=e008

[CHAPTER]
TIMEBASE=1/1000
START=339418
END=363653
title=e009[G]

[CHAPTER]
TIMEBASE=1/1000
START=362653
END=390926
title=e010[G]

[CHAPTER]
TIMEBASE=1/1000
START=389926
END=397316
title=e011

[CHAPTER]
TIMEBASE=1/1000
START=396316
END=409110
title=e012[G]

[CHAPTER]
TIMEBASE=1/1000
START=408110
END=432980
title=e013[G]

[CHAPTER]
TIMEBASE=1/1000
START=431980
END=439084
title=e014

[CHAPTER]
TIMEBASE=1/1000
START=438084
END=478564
title=e015[G]

[CHAPTER]
TIMEBASE=1/1000
START=477564
END=494183
title=e016[G]

[CHAPTER]
TIMEBASE=1/1000
START=493183
END=511665
title=e017[G]

[CHAPTER]
TIMEBASE=1/1000
START=510665
END=531416
title=e018[G]

[CHAPTER]
TIMEBASE=1/1000
START=530416
END=569315
title=e019[G]

[CHAPTER]
TIMEBASE=1/1000
START=568315
END=589315
title=e020[G]

[CHAPTER]
TIMEBASE=1/1000
START=588315
END=595421
title=e021

[CHAPTER]
TIMEBASE=1/1000
START=594421
END=606743
title=e022[G]

[CHAPTER]
TIMEBASE=1/1000
START=605743
END=627716
title=e023[G]

[CHAPTER]
TIMEBASE=1/1000
START=626716
END=647516
title=e024[G]

[CHAPTER]
TIMEBASE=1/1000
START=646516
END=693354
title=e025[G]

[CHAPTER]
TIMEBASE=1/1000
START=692354
END=706721
title=e026[G]

[CHAPTER]
TIMEBASE=1/1000
START=705721
END=727335
title=e027[G]

[CHAPTER]
TIMEBASE=1/1000
START=726335
END=759979
title=e028[G]

[CHAPTER]
TIMEBASE=1/1000
START=758979
END=790004
title=e029[G]

[CHAPTER]
TIMEBASE=1/1000
START=789004
END=808639
title=e030[G]

[CHAPTER]
TIMEBASE=1/1000
START=807639
END=834009
title=e031[G]

[CHAPTER]
TIMEBASE=1/1000
START=833009
END=839727
title=e032

[CHAPTER]
TIMEBASE=1/1000
START=838727
END=854695
title=e033[G]

[CHAPTER]
TIMEBASE=1/1000
START=853695
END=860389
title=e034

[CHAPTER]
TIMEBASE=1/1000
START=859389
END=866073
title=e035

[CHAPTER]
TIMEBASE=1/1000
START=865073
END=871508
title=e036

[CHAPTER]
TIMEBASE=1/1000
START=870508
END=886071
title=e037[G]

[CHAPTER]
TIMEBASE=1/1000
START=885071
END=898360
title=e038[G]

[CHAPTER]
TIMEBASE=1/1000
START=897360
END=915013
title=e039[G]

[CHAPTER]
TIMEBASE=1/1000
START=914013
END=920328
title=e040

[CHAPTER]
TIMEBASE=1/1000
START=919328
END=952045
title=e041[G]

[CHAPTER]
TIMEBASE=1/1000
START=951045
END=964321
title=e042[G]

[CHAPTER]
TIMEBASE=1/1000
START=963321
END=980103
title=e043[G]

[CHAPTER]
TIMEBASE=1/1000
START=979103
END=985848
title=e044

[CHAPTER]
TIMEBASE=1/1000
START=984848
END=998300
title=e045[G]

[CHAPTER]
TIMEBASE=1/1000
START=997300
END=1027093
title=e046[G]

[CHAPTER]
TIMEBASE=1/1000
START=1026093
END=1042289
title=e047[G]

[CHAPTER]
TIMEBASE=1/1000
START=1041289
END=1047536
title=e048

[CHAPTER]
TIMEBASE=1/1000
START=1046536
END=1066759
title=e049[G]

[CHAPTER]
TIMEBASE=1/1000
START=1065759
END=1086243
title=e050[G]

[CHAPTER]
TIMEBASE=1/1000
START=1085243
END=1091881
title=e051

[CHAPTER]
TIMEBASE=1/1000
START=1090881
END=1097270
title=e052

[CHAPTER]
TIMEBASE=1/1000
START=1096270
END=1109916
title=e053[G]

[CHAPTER]
TIMEBASE=1/1000
START=1108916
END=1115365
title=e054

[CHAPTER]
TIMEBASE=1/1000
START=1114365
END=1120706
title=e055

[CHAPTER]
TIMEBASE=1/1000
START=1119706
END=1126074
title=e056

[CHAPTER]
TIMEBASE=1/1000
START=1125074
END=1140024
title=e057[G]

[CHAPTER]
TIMEBASE=1/1000
START=1139024
END=1168832
title=e058[G]

[CHAPTER]
TIMEBASE=1/1000
START=1167832
END=1201941
title=e059[G]

[CHAPTER]
TIMEBASE=1/1000
START=1200941
END=1248791
title=e060[G]

[CHAPTER]
TIMEBASE=1/1000
START=1247791
END=1254954
title=e061

[CHAPTER]
TIMEBASE=1/1000
START=1253954
END=1269417
title=e062[G]

[CHAPTER]
TIMEBASE=1/1000
START=1268417
END=1275640
title=e063

[CHAPTER]
TIMEBASE=1/1000
START=1274640
END=1294056
title=e064[G]

[CHAPTER]
TIMEBASE=1/1000
START=1293056
END=1309104
title=e065[G]

[CHAPTER]
TIMEBASE=1/1000
START=1308104
END=1315442
title=e066

[CHAPTER]
TIMEBASE=1/1000
START=1314442
END=1345552
title=e067[G]

[CHAPTER]
TIMEBASE=1/1000
START=1344552
END=1350847
title=e068

[CHAPTER]
TIMEBASE=1/1000
START=1349847
END=1356719
title=e069

[CHAPTER]
TIMEBASE=1/1000
START=1355719
END=1362299
title=e070

[CHAPTER]
TIMEBASE=1/1000
START=1361299
END=1367420
title=e071

[CHAPTER]
TIMEBASE=1/1000
START=1366420
END=1372804
title=e072

[CHAPTER]
TIMEBASE=1/1000
START=1371804
END=1388087
title=e073[G]

[CHAPTER]
TIMEBASE=1/1000
START=1387087
END=1413243
title=e074[G]

[CHAPTER]
TIMEBASE=1/1000
START=1412243
END=1424385
title=e075[G]

[CHAPTER]
TIMEBASE=1/1000
START=1423385
END=1429706
title=e076

[CHAPTER]
TIMEBASE=1/1000
START=1428706
END=1448238
title=e077[G]

[CHAPTER]
TIMEBASE=1/1000
START=1447238
END=1486388
title=e078[G]

[CHAPTER]
TIMEBASE=1/1000
START=1485388
END=1491476
title=e079

[CHAPTER]
TIMEBASE=1/1000
START=1490476
END=1501352
title=e080[G]

[CHAPTER]
TIMEBASE=1/1000
START=1500352
END=1507750
title=e081

[CHAPTER]
TIMEBASE=1/1000
START=1506750
END=1527724
title=e082[G]

[CHAPTER]
TIMEBASE=1/1000
START=1526724
END=1541602
title=e083[G]

[CHAPTER]
TIMEBASE=1/1000
START=1540602
END=1563267
title=e084[G]

[CHAPTER]
TIMEBASE=1/1000
START=1562267
END=1609001
title=e085[G]

[CHAPTER]
TIMEBASE=1/1000
START=1608001
END=1627973
title=e086[G]

[CHAPTER]
TIMEBASE=1/1000
START=1626973
END=1633426
title=e087

[CHAPTER]
TIMEBASE=1/1000
START=1632426
END=1638793
title=e088

[CHAPTER]
TIMEBASE=1/1000
START=1637793
END=1644291
title=e089

[CHAPTER]
TIMEBASE=1/1000
START=1643291
END=1653598
title=e090[G]

[CHAPTER]
TIMEBASE=1/1000
START=1652598
END=1687796
title=e091[G]

[CHAPTER]
TIMEBASE=1/1000
START=1686796
END=1693706
title=e092

[CHAPTER]
TIMEBASE=1/1000
START=1692706
END=1705934
title=e093[G]

[CHAPTER]
TIMEBASE=1/1000
START=1704934
END=1717400
title=e094[G]

[CHAPTER]
TIMEBASE=1/1000
START=1716400
END=1735316
title=e095[G]

[CHAPTER]
TIMEBASE=1/1000
START=1734316
END=1740834
title=e096

[CHAPTER]
TIMEBASE=1/1000
START=1739834
END=1745944
title=e097

[CHAPTER]
TIMEBASE=1/1000
START=1744944
END=1761642
title=e098[G]

[CHAPTER]
TIMEBASE=1/1000
START=1760642
END=1766828
title=e099

[CHAPTER]
TIMEBASE=1/1000
START=1765828
END=1772235
title=e100

[CHAPTER]
TIMEBASE=1/1000
START=1771235
END=1784896
title=e101[G]

[CHAPTER]
TIMEBASE=1/1000
START=1783896
END=1800929
title=e102[G]

[CHAPTER]
TIMEBASE=1/1000
START=1799929
END=1824745
title=e103[G]

[CHAPTER]
TIMEBASE=1/1000
START=1823745
END=1830613
title=e104

[CHAPTER]
TIMEBASE=1/1000
START=1829613
END=1835684
title=e105

[CHAPTER]
TIMEBASE=1/1000
START=1834684
END=1840796
title=e106

[CHAPTER]
TIMEBASE=1/1000
START=1839796
END=1846062
title=e107

[CHAPTER]
TIMEBASE=1/1000
START=1845062
END=1858720
title=e108[G]

[CHAPTER]
TIMEBASE=1/1000
START=1857720
END=1868034
title=e109[G]

[CHAPTER]
TIMEBASE=1/1000
START=1867034
END=1873352
title=e110

[CHAPTER]
TIMEBASE=1/1000
START=1872352
END=1884051
title=e111[G]

[CHAPTER]
TIMEBASE=1/1000
START=1883051
END=1889446
title=e112

[CHAPTER]
TIMEBASE=1/1000
START=1888446
END=1922342
title=e113[G]

[CHAPTER]
TIMEBASE=1/1000
START=1921342
END=1934134
title=e114[G]

[CHAPTER]
TIMEBASE=1/1000
START=1933134
END=1944583
title=e115[G]

[CHAPTER]
TIMEBASE=1/1000
START=1943583
END=1949891
title=e116

[CHAPTER]
TIMEBASE=1/1000
START=1948891
END=1979692
title=e117

[CHAPTER]
TIMEBASE=1/1000
START=1978692
END=1984847
title=e118

[CHAPTER]
TIMEBASE=1/1000
START=1983847
END=1990336
title=e119

[CHAPTER]
TIMEBASE=1/1000
START=1989336
END=1996229
title=e120

[CHAPTER]
TIMEBASE=1/1000
START=1995229
END=2007593
title=e121[G]

[CHAPTER]
TIMEBASE=1/1000
START=2006593
END=2012664
title=e122

[CHAPTER]
TIMEBASE=1/1000
START=2011664
END=2029965
title=e123[G]

[CHAPTER]
TIMEBASE=1/1000
START=2028965
END=2035680
title=e124

[CHAPTER]
TIMEBASE=1/1000
START=2034680
END=2041280
title=e125

[CHAPTER]
TIMEBASE=1/1000
START=2040280
END=2046638
title=e126

[CHAPTER]
TIMEBASE=1/1000
START=2045638
END=2051717
title=e127

[CHAPTER]
TIMEBASE=1/1000
START=2050717
END=2056861
title=e128

[CHAPTER]
TIMEBASE=1/1000
START=2055861
END=2062031
title=e129

[CHAPTER]
TIMEBASE=1/1000
START=2061031
END=2067328
title=e130

[CHAPTER]
TIMEBASE=1/1000
START=2066328
END=2077241
title=e131[G]

[CHAPTER]
TIMEBASE=1/1000
START=2076241
END=2136118
title=e132[G]

[CHAPTER]
TIMEBASE=1/1000
START=2135118
END=2149036
title=e133[G]

[CHAPTER]
TIMEBASE=1/1000
START=2148036
END=2154140
title=e134

[CHAPTER]
TIMEBASE=1/1000
START=2153140
END=2166206
title=e135[G]

[CHAPTER]
TIMEBASE=1/1000
START=2165206
END=2171377
title=e136

[CHAPTER]
TIMEBASE=1/1000
START=2170377
END=2183452
title=e137[G]

[CHAPTER]
TIMEBASE=1/1000
START=2182452
END=2189215
title=e138

[CHAPTER]
TIMEBASE=1/1000
START=2188215
END=2198697
title=e139[G]

[CHAPTER]
TIMEBASE=1/1000
START=2197697
END=2204375
title=e140

[CHAPTER]
TIMEBASE=1/1000
START=2203375
END=2219038
title=e141[G]

[CHAPTER]
TIMEBASE=1/1000
START=2218038
END=2224969
title=e142

[CHAPTER]
TIMEBASE=1/1000
START=2223969
END=2236096
title=e143[G]

[CHAPTER]
TIMEBASE=1/1000
START=2235096
END=2245366
title=e144[G]

[CHAPTER]
TIMEBASE=1/1000
START=2244366
END=2256998
title=e145[G]

[CHAPTER]
TIMEBASE=1/1000
START=2255998
END=2262305
title=e146

[CHAPTER]
TIMEBASE=1/1000
START=2261305
END=2267644
title=e147

[CHAPTER]
TIMEBASE=1/1000
START=2266644
END=2272626
title=e148

[CHAPTER]
TIMEBASE=1/1000
START=2271626
END=2283259
title=e149[G]

[CHAPTER]
TIMEBASE=1/1000
START=2282259
END=2289915
title=e150

[CHAPTER]
TIMEBASE=1/1000
START=2288915
END=2298950
title=e151[G]

[CHAPTER]
TIMEBASE=1/1000
START=2297950
END=2308843
title=e152[G]

[CHAPTER]
TIMEBASE=1/1000
START=2307843
END=2317678
title=e153[G]

[CHAPTER]
TIMEBASE=1/1000
START=2316678
END=2322619
title=e154

[CHAPTER]
TIMEBASE=1/1000
START=2321619
END=2331860
title=e155[G]

[CHAPTER]
TIMEBASE=1/1000
START=2330860
END=2354147
title=e156[G]

[CHAPTER]
TIMEBASE=1/1000
START=2353147
END=2359401
title=e157

[CHAPTER]
TIMEBASE=1/1000
START=2358401
END=2364943
title=e158

[CHAPTER]
TIMEBASE=1/1000
START=2363943
END=2370519
title=e159

[CHAPTER]
TIMEBASE=1/1000
START=2369519
END=2388896
title=e160[G]

[CHAPTER]
TIMEBASE=1/1000
START=2387896
END=2398937
title=e161[G]

[CHAPTER]
TIMEBASE=1/1000
START=2397937
END=2404179
title=e162

[CHAPTER]
TIMEBASE=1/1000
START=2403179
END=2409394
title=e163

[CHAPTER]
TIMEBASE=1/1000
START=2408394
END=2414787
title=e164

[CHAPTER]
TIMEBASE=1/1000
START=2413787
END=2434838
title=e165[G]

[CHAPTER]
TIMEBASE=1/1000
START=2433838
END=2440542
title=e166

[CHAPTER]
TIMEBASE=1/1000
START=2439542
END=2445997
title=e167

[CHAPTER]
TIMEBASE=1/1000
START=2444997
END=2451420
title=e168

[CHAPTER]
TIMEBASE=1/1000
START=2450420
END=2456727
title=e169

[CHAPTER]
TIMEBASE=1/1000
START=2455727
END=2461789
title=e170

[CHAPTER]
TIMEBASE=1/1000
START=2460789
END=2467017
title=e171

[CHAPTER]
TIMEBASE=1/1000
START=2466017
END=2476470
title=e172[G]

[CHAPTER]
TIMEBASE=1/1000
START=2475470
END=2502890
title=e173[G]

[CHAPTER]
TIMEBASE=1/1000
START=2501890
END=2508150
title=e174

[CHAPTER]
TIMEBASE=1/1000
START=2507150
END=2513806
title=e175

[CHAPTER]
TIMEBASE=1/1000
START=2512806
END=2530913
title=e176[G]

[CHAPTER]
TIMEBASE=1/1000
START=2529913
END=2536193
title=e177

[CHAPTER]
TIMEBASE=1/1000
START=2535193
END=2541229
title=e178

[CHAPTER]
TIMEBASE=1/1000
START=2540229
END=2552068
title=e179[G]

[CHAPTER]
TIMEBASE=1/1000
START=2551068
END=2558564
title=e180

[CHAPTER]
TIMEBASE=1/1000
START=2557564
END=2563537
title=e181

[CHAPTER]
TIMEBASE=1/1000
START=2562537
END=2568647
title=e182

[CHAPTER]
TIMEBASE=1/1000
START=2567647
END=2573685
title=e183

[CHAPTER]
TIMEBASE=1/1000
START=2572685
END=2584314
title=e184[G]

[CHAPTER]
TIMEBASE=1/1000
START=2583314
END=2593562
title=e185[G]

[CHAPTER]
TIMEBASE=1/1000
START=2592562
END=2602640
title=e186[G]

[CHAPTER]
TIMEBASE=1/1000
START=2601640
END=2607777
title=e187

[CHAPTER]
TIMEBASE=1/1000
START=2606777
END=2635940
title=e188[G]

[CHAPTER]
TIMEBASE=1/1000
START=2634940
END=2647332
title=e189[G]

[CHAPTER]
TIMEBASE=1/1000
START=2646332
END=2652386
title=e190

[CHAPTER]
TIMEBASE=1/1000
START=2651386
END=2657458
title=e191

[CHAPTER]
TIMEBASE=1/1000
START=2656458
END=2662561
title=e192

[CHAPTER]
TIMEBASE=1/1000
START=2661561
END=2668899
title=e193

[CHAPTER]
TIMEBASE=1/1000
START=2667899
END=2673864
title=e194

[CHAPTER]
TIMEBASE=1/1000
START=2672864
END=2683228
title=e195[G]

[CHAPTER]
TIMEBASE=1/1000
START=2682228
END=2688500
title=e196

[CHAPTER]
TIMEBASE=1/1000
START=2687500
END=2725065
title=e197[G]

[CHAPTER]
TIMEBASE=1/1000
START=2724065
END=2730527
title=e198

[CHAPTER]
TIMEBASE=1/1000
START=2729527
END=2739706
title=e199[G]

[CHAPTER]
TIMEBASE=1/1000
START=2738706
END=2763366
title=e200[G]

[CHAPTER]
TIMEBASE=1/1000
START=2762366
END=2769511
title=e201

[CHAPTER]
TIMEBASE=1/1000
START=2768511
END=2779524
title=e202[G]

[CHAPTER]
TIMEBASE=1/1000
START=2778524
END=2784710
title=e203

[CHAPTER]
TIMEBASE=1/1000
START=2783710
END=2790145
title=e204

[CHAPTER]
TIMEBASE=1/1000
START=2789145
END=2795444
title=e205

[CHAPTER]
TIMEBASE=1/1000
START=2794444
END=2805011
title=e206[G]

[CHAPTER]
TIMEBASE=1/1000
START=2804011
END=2810011
title=e207

[CHAPTER]
TIMEBASE=1/1000
START=2809011
END=2815629
title=e208

[CHAPTER]
TIMEBASE=1/1000
START=2814629
END=2820955
title=e209

[CHAPTER]
TIMEBASE=1/1000
START=2819955
END=2827005
title=e210

[CHAPTER]
TIMEBASE=1/1000
START=2826005
END=2832361
title=e211

[CHAPTER]
TIMEBASE=1/1000
START=2831361
END=2837735
title=e212

[CHAPTER]
TIMEBASE=1/1000
START=2836735
END=2847539
title=e213[G]

[CHAPTER]
TIMEBASE=1/1000
START=2846539
END=2852743
title=e214

[CHAPTER]
TIMEBASE=1/1000
START=2851743
END=2870225
title=e215[G]

[CHAPTER]
TIMEBASE=1/1000
START=2869225
END=2879850
title=e216[G]

[CHAPTER]
TIMEBASE=1/1000
START=2878850
END=2885570
title=e217

[CHAPTER]
TIMEBASE=1/1000
START=2884570
END=2895347
title=e218[G]

[CHAPTER]
TIMEBASE=1/1000
START=2894347
END=2900620
title=e219

[CHAPTER]
TIMEBASE=1/1000
START=2899620
END=2905963
title=e220

[CHAPTER]
TIMEBASE=1/1000
START=2904963
END=2912093
title=e221

[CHAPTER]
TIMEBASE=1/1000
START=2911093
END=2920486
title=e222[G]

[CHAPTER]
TIMEBASE=1/1000
START=2919486
END=2931077
title=e223[G]

[CHAPTER]
TIMEBASE=1/1000
START=2930077
END=2940201
title=e224[G]

[CHAPTER]
TIMEBASE=1/1000
START=2939201
END=2970745
title=e225[G]

[CHAPTER]
TIMEBASE=1/1000
START=2969745
END=2979908
title=e226[G]

[CHAPTER]
TIMEBASE=1/1000
START=2978908
END=2990812
title=e227[G]

[CHAPTER]
TIMEBASE=1/1000
START=2989812
END=3001136
title=e228[G]

[CHAPTER]
TIMEBASE=1/1000
START=3000136
END=3023692
title=e229[G]

[CHAPTER]
TIMEBASE=1/1000
START=3022692
END=3029836
title=e230

[CHAPTER]
TIMEBASE=1/1000
START=3028836
END=3038667
title=e231[G]

[CHAPTER]
TIMEBASE=1/1000
START=3037667
END=3043610
title=e232

[CHAPTER]
TIMEBASE=1/1000
START=3042610
END=3059537
title=e233[G]

[CHAPTER]
TIMEBASE=1/1000
START=3058537
END=3078472
title=e234[G]

[CHAPTER]
TIMEBASE=1/1000
START=3077472
END=3096239
title=e235[G]

[CHAPTER]
TIMEBASE=1/1000
START=3095239
END=3105844
title=e236[G]

[CHAPTER]
TIMEBASE=1/1000
START=3104844
END=3110915
title=e237

[CHAPTER]
TIMEBASE=1/1000
START=3109915
END=3125095
title=e238[G]

[CHAPTER]
TIMEBASE=1/1000
START=3124095
END=3132900
title=e239

[CHAPTER]
TIMEBASE=1/1000
START=3131900
END=3142981
title=e240[G]

[CHAPTER]
TIMEBASE=1/1000
START=3141981
END=3149424
title=e241

[CHAPTER]
TIMEBASE=1/1000
START=3148424
END=3158461
title=e242[G]

[CHAPTER]
TIMEBASE=1/1000
START=3157461
END=3174618
title=e243[G]

[CHAPTER]
TIMEBASE=1/1000
START=3173618
END=3190683
title=e244[G]

[CHAPTER]
TIMEBASE=1/1000
START=3189683
END=3218625
title=e245[G]

[CHAPTER]
TIMEBASE=1/1000
START=3217625
END=3224547
title=e246

[CHAPTER]
TIMEBASE=1/1000
START=3223547
END=3229959
title=e247

[CHAPTER]
TIMEBASE=1/1000
START=3228959
END=3235263
title=e248

[CHAPTER]
TIMEBASE=1/1000
START=3234263
END=3240112
title=e249

[CHAPTER]
TIMEBASE=1/1000
START=3239112
END=3250603
title=e250[G]

[CHAPTER]
TIMEBASE=1/1000
START=3249603
END=3264486
title=e251[G]

[CHAPTER]
TIMEBASE=1/1000
START=3263486
END=3269611
title=e252

[CHAPTER]
TIMEBASE=1/1000
START=3268611
END=3282997
title=e253[G]

[CHAPTER]
TIMEBASE=1/1000
START=3281997
END=3301159
title=e254[G]

[CHAPTER]
TIMEBASE=1/1000
START=3300159
END=3311221
title=e255

[CHAPTER]
TIMEBASE=1/1000
START=3310221
END=3316579
title=e256

[CHAPTER]
TIMEBASE=1/1000
START=3315579
END=3342477
title=e257[G]

[CHAPTER]
TIMEBASE=1/1000
START=3341477
END=3349638
title=e258

[CHAPTER]
TIMEBASE=1/1000
START=3348638
END=3355117
title=e259

[CHAPTER]
TIMEBASE=1/1000
START=3354117
END=3366819
title=e260[G]

[CHAPTER]
TIMEBASE=1/1000
START=3365819
END=3372228
title=e261

[CHAPTER]
TIMEBASE=1/1000
START=3371228
END=3377418
title=e262

[CHAPTER]
TIMEBASE=1/1000
START=3376418
END=3382538
title=e263

[CHAPTER]
TIMEBASE=1/1000
START=3381538
END=3391856
title=e264[G]

[CHAPTER]
TIMEBASE=1/1000
START=3390856
END=3397208
title=e265

[CHAPTER]
TIMEBASE=1/1000
START=3396208
END=3406654
title=e266[G]

[CHAPTER]
TIMEBASE=1/1000
START=3405654
END=3415742
title=e267[G]

[CHAPTER]
TIMEBASE=1/1000
START=3414742
END=3429756
title=e268[G]

[CHAPTER]
TIMEBASE=1/1000
START=3428756
END=3440165
title=e269[G]

[CHAPTER]
TIMEBASE=1/1000
START=3439165
END=3445630
title=e270

[CHAPTER]
TIMEBASE=1/1000
START=3444630
END=3454974
title=e271[G]

[CHAPTER]
TIMEBASE=1/1000
START=3453974
END=3461121
title=e272

[CHAPTER]
TIMEBASE=1/1000
START=3460121
END=3490595
title=e273[G]

[CHAPTER]
TIMEBASE=1/1000
START=3489595
END=3503941
title=e274[G]

[CHAPTER]
TIMEBASE=1/1000
START=3502941
END=3513410
title=e275[G]

[CHAPTER]
TIMEBASE=1/1000
START=3512410
END=3518936
title=e276

[CHAPTER]
TIMEBASE=1/1000
START=3517936
END=3524203
title=e277

[CHAPTER]
TIMEBASE=1/1000
START=3523203
END=3529198
title=e278

[CHAPTER]
TIMEBASE=1/1000
START=3528198
END=3534278
title=e279

[CHAPTER]
TIMEBASE=1/1000
START=3533278
END=3544651
title=e280[G]
