;FFMETADATA1
major_brand=isom
minor_version=512
compatible_brands=isomiso2avc1mp41
encoder=Lavf56.15.101

[CHAPTER]
TIMEBASE=1/1000
START=17587
END=71834
title=p001[G]

[CHAPTER]
TIMEBASE=1/1000
START=70834
END=91497
title=p002[G]

[CHAPTER]
TIMEBASE=1/1000
START=90497
END=203701
title=p003[G]

[CHAPTER]
TIMEBASE=1/1000
START=202701
END=223835
title=p004[G]

[CHAPTER]
TIMEBASE=1/1000
START=222835
END=242821
title=e001[G]

[CHAPTER]
TIMEBASE=1/1000
START=241821
END=250310
title=e002

[CHAPTER]
TIMEBASE=1/1000
START=249310
END=270704
title=e003[G]

[CHAPTER]
TIMEBASE=1/1000
START=269704
END=314626
title=e004[G]

[CHAPTER]
TIMEBASE=1/1000
START=313626
END=328737
title=e005[G]

[CHAPTER]
TIMEBASE=1/1000
START=327737
END=335275
title=e006

[CHAPTER]
TIMEBASE=1/1000
START=334275
END=371213
title=e007[G]

[CHAPTER]
TIMEBASE=1/1000
START=370213
END=390040
title=e008[G]

[CHAPTER]
TIMEBASE=1/1000
START=389040
END=407405
title=e009[G]

[CHAPTER]
TIMEBASE=1/1000
START=406405
END=428449
title=e010[G]

[CHAPTER]
TIMEBASE=1/1000
START=427449
END=434698
title=e011

[CHAPTER]
TIMEBASE=1/1000
START=433698
END=452413
title=e012[G]

[CHAPTER]
TIMEBASE=1/1000
START=451413
END=473146
title=e013[G]

[CHAPTER]
TIMEBASE=1/1000
START=472146
END=515055
title=e014[G]

[CHAPTER]
TIMEBASE=1/1000
START=514055
END=522277
title=e015

[CHAPTER]
TIMEBASE=1/1000
START=521277
END=538119
title=e016[G]

[CHAPTER]
TIMEBASE=1/1000
START=537119
END=557259
title=e017[G]

[CHAPTER]
TIMEBASE=1/1000
START=556259
END=572440
title=e018[G]

[CHAPTER]
TIMEBASE=1/1000
START=571440
END=595410
title=e019[G]

[CHAPTER]
TIMEBASE=1/1000
START=594410
END=607747
title=e020[G]

[CHAPTER]
TIMEBASE=1/1000
START=606747
END=613759
title=e021

[CHAPTER]
TIMEBASE=1/1000
START=612759
END=629451
title=e022[G]

[CHAPTER]
TIMEBASE=1/1000
START=628451
END=656728
title=e023[G]

[CHAPTER]
TIMEBASE=1/1000
START=655728
END=688071
title=e024[G]

[CHAPTER]
TIMEBASE=1/1000
START=687071
END=707607
title=e025[G]

[CHAPTER]
TIMEBASE=1/1000
START=706607
END=723815
title=e026[G]

[CHAPTER]
TIMEBASE=1/1000
START=722815
END=729617
title=e027

[CHAPTER]
TIMEBASE=1/1000
START=728617
END=748152
title=e028[G]

[CHAPTER]
TIMEBASE=1/1000
START=747152
END=765605
title=e029[G]

[CHAPTER]
TIMEBASE=1/1000
START=764605
END=779581
title=e030[G]

[CHAPTER]
TIMEBASE=1/1000
START=778581
END=786593
title=e031

[CHAPTER]
TIMEBASE=1/1000
START=785593
END=804669
title=e032[G]

[CHAPTER]
TIMEBASE=1/1000
START=803669
END=819720
title=e033[G]

[CHAPTER]
TIMEBASE=1/1000
START=818720
END=835217
title=e034[G]

[CHAPTER]
TIMEBASE=1/1000
START=834217
END=849849
title=e035[G]

[CHAPTER]
TIMEBASE=1/1000
START=848849
END=861839
title=e036[G]

[CHAPTER]
TIMEBASE=1/1000
START=860839
END=875915
title=e037[G]

[CHAPTER]
TIMEBASE=1/1000
START=874915
END=889563
title=e038[G]

[CHAPTER]
TIMEBASE=1/1000
START=888563
END=901458
title=e039[G]

[CHAPTER]
TIMEBASE=1/1000
START=900458
END=914337
title=e040[G]

[CHAPTER]
TIMEBASE=1/1000
START=913337
END=923194
title=e041

[CHAPTER]
TIMEBASE=1/1000
START=922194
END=938626
title=e042[G]

[CHAPTER]
TIMEBASE=1/1000
START=937626
END=956934
title=e043[G]

[CHAPTER]
TIMEBASE=1/1000
START=955934
END=969362
title=e044[G]

[CHAPTER]
TIMEBASE=1/1000
START=968362
END=988229
title=e045[G]

[CHAPTER]
TIMEBASE=1/1000
START=987229
END=1003079
title=e046[G]

[CHAPTER]
TIMEBASE=1/1000
START=1002079
END=1017757
title=e047[G]

[CHAPTER]
TIMEBASE=1/1000
START=1016757
END=1028817
title=e048[G]

[CHAPTER]
TIMEBASE=1/1000
START=1027817
END=1043264
title=e049[G]

[CHAPTER]
TIMEBASE=1/1000
START=1042264
END=1057009
title=e050[G]

[CHAPTER]
TIMEBASE=1/1000
START=1056009
END=1069402
title=e051[G]

[CHAPTER]
TIMEBASE=1/1000
START=1068402
END=1080542
title=e052[G]

[CHAPTER]
TIMEBASE=1/1000
START=1079542
END=1090549
title=e053[G]

[CHAPTER]
TIMEBASE=1/1000
START=1089549
END=1107680
title=e054[G]

[CHAPTER]
TIMEBASE=1/1000
START=1106680
END=1122644
title=e055[G]

[CHAPTER]
TIMEBASE=1/1000
START=1121644
END=1135813
title=e056[G]

[CHAPTER]
TIMEBASE=1/1000
START=1134813
END=1152155
title=e057[G]

[CHAPTER]
TIMEBASE=1/1000
START=1151155
END=1168022
title=e058[G]

[CHAPTER]
TIMEBASE=1/1000
START=1167022
END=1189590
title=e059[G]

[CHAPTER]
TIMEBASE=1/1000
START=1188590
END=1199766
title=e060[G]

[CHAPTER]
TIMEBASE=1/1000
START=1198766
END=1216693
title=e061[G]

[CHAPTER]
TIMEBASE=1/1000
START=1215693
END=1228520
title=e062[G]

[CHAPTER]
TIMEBASE=1/1000
START=1227520
END=1240917
title=e063[G]

[CHAPTER]
TIMEBASE=1/1000
START=1239917
END=1255162
title=e064[G]

[CHAPTER]
TIMEBASE=1/1000
START=1254162
END=1266053
title=e065[G]

[CHAPTER]
TIMEBASE=1/1000
START=1265053
END=1277271
title=e066[G]

[CHAPTER]
TIMEBASE=1/1000
START=1276271
END=1297014
title=e067[G]

[CHAPTER]
TIMEBASE=1/1000
START=1296014
END=1309777
title=e068[G]

[CHAPTER]
TIMEBASE=1/1000
START=1308777
END=1315541
title=e069

[CHAPTER]
TIMEBASE=1/1000
START=1314541
END=1331564
title=e070[G]

[CHAPTER]
TIMEBASE=1/1000
START=1330564
END=1346191
title=e071[G]

[CHAPTER]
TIMEBASE=1/1000
START=1345191
END=1360785
title=e072[G]

[CHAPTER]
TIMEBASE=1/1000
START=1359785
END=1370998
title=e073[G]

[CHAPTER]
TIMEBASE=1/1000
START=1369998
END=1389207
title=e074[G]

[CHAPTER]
TIMEBASE=1/1000
START=1388207
END=1400390
title=e075[G]

[CHAPTER]
TIMEBASE=1/1000
START=1399390
END=1414635
title=e076[G]

[CHAPTER]
TIMEBASE=1/1000
START=1413635
END=1427198
title=e077[G]

[CHAPTER]
TIMEBASE=1/1000
START=1426198
END=1438802
title=e078[G]

[CHAPTER]
TIMEBASE=1/1000
START=1437802
END=1450619
title=e079[G]

[CHAPTER]
TIMEBASE=1/1000
START=1449619
END=1463808
title=e080

[CHAPTER]
TIMEBASE=1/1000
START=1462808
END=1476602
title=e081[G]

[CHAPTER]
TIMEBASE=1/1000
START=1475602
END=1488100
title=e082[G]

[CHAPTER]
TIMEBASE=1/1000
START=1487100
END=1501429
title=e083[G]

[CHAPTER]
TIMEBASE=1/1000
START=1500429
END=1507264
title=e084

[CHAPTER]
TIMEBASE=1/1000
START=1506264
END=1517325
title=e085

[CHAPTER]
TIMEBASE=1/1000
START=1516325
END=1528734
title=e086[G]

[CHAPTER]
TIMEBASE=1/1000
START=1527734
END=1541845
title=e087[G]

[CHAPTER]
TIMEBASE=1/1000
START=1540845
END=1552888
title=e088[G]

[CHAPTER]
TIMEBASE=1/1000
START=1551888
END=1564161
title=e089[G]

[CHAPTER]
TIMEBASE=1/1000
START=1563161
END=1576852
title=e090[G]

[CHAPTER]
TIMEBASE=1/1000
START=1575852
END=1588651
title=e091[G]

[CHAPTER]
TIMEBASE=1/1000
START=1587651
END=1601747
title=e092[G]

[CHAPTER]
TIMEBASE=1/1000
START=1600747
END=1614504
title=e093[G]

[CHAPTER]
TIMEBASE=1/1000
START=1613504
END=1625012
title=e094[G]

[CHAPTER]
TIMEBASE=1/1000
START=1624012
END=1635324
title=e095[G]

[CHAPTER]
TIMEBASE=1/1000
START=1634324
END=1646584
title=e096[G]

[CHAPTER]
TIMEBASE=1/1000
START=1645584
END=1659382
title=e097[G]

[CHAPTER]
TIMEBASE=1/1000
START=1658382
END=1667535
title=e098

[CHAPTER]
TIMEBASE=1/1000
START=1666535
END=1674055
title=e099

[CHAPTER]
TIMEBASE=1/1000
START=1673055
END=1683965
title=e100[G]

[CHAPTER]
TIMEBASE=1/1000
START=1682965
END=1695142
title=e101[G]

[CHAPTER]
TIMEBASE=1/1000
START=1694142
END=1702249
title=e102

[CHAPTER]
TIMEBASE=1/1000
START=1701249
END=1711807
title=e103[G]

[CHAPTER]
TIMEBASE=1/1000
START=1710807
END=1723801
title=e104[G]

[CHAPTER]
TIMEBASE=1/1000
START=1722801
END=1735362
title=e105[G]

[CHAPTER]
TIMEBASE=1/1000
START=1734362
END=1745722
title=e106[G]

[CHAPTER]
TIMEBASE=1/1000
START=1744722
END=1756332
title=e107[G]

[CHAPTER]
TIMEBASE=1/1000
START=1755332
END=1768240
title=e108[G]

[CHAPTER]
TIMEBASE=1/1000
START=1767240
END=1779768
title=e109[G]

[CHAPTER]
TIMEBASE=1/1000
START=1778768
END=1791462
title=e110[G]

[CHAPTER]
TIMEBASE=1/1000
START=1790462
END=1802338
title=e111[G]

[CHAPTER]
TIMEBASE=1/1000
START=1801338
END=1814047
title=e112[G]

[CHAPTER]
TIMEBASE=1/1000
START=1813047
END=1825220
title=e113[G]

[CHAPTER]
TIMEBASE=1/1000
START=1824220
END=1836189
title=e114[G]

[CHAPTER]
TIMEBASE=1/1000
START=1835189
END=1848431
title=e115[G]

[CHAPTER]
TIMEBASE=1/1000
START=1847431
END=1858853
title=e116[G]

[CHAPTER]
TIMEBASE=1/1000
START=1857853
END=1868692
title=e117[G]

[CHAPTER]
TIMEBASE=1/1000
START=1867692
END=1881895
title=e118[G]

[CHAPTER]
TIMEBASE=1/1000
START=1880895
END=1892211
title=e119[G]

[CHAPTER]
TIMEBASE=1/1000
START=1891211
END=1903753
title=e120[G]

[CHAPTER]
TIMEBASE=1/1000
START=1902753
END=1911490
title=e121

[CHAPTER]
TIMEBASE=1/1000
START=1910490
END=1921135
title=e122[G]

[CHAPTER]
TIMEBASE=1/1000
START=1920135
END=1926506
title=e123

[CHAPTER]
TIMEBASE=1/1000
START=1925506
END=1937021
title=e124[G]

[CHAPTER]
TIMEBASE=1/1000
START=1936021
END=1942511
title=e125

[CHAPTER]
TIMEBASE=1/1000
START=1941511
END=1948378
title=e126

[CHAPTER]
TIMEBASE=1/1000
START=1947378
END=1954114
title=e127

[CHAPTER]
TIMEBASE=1/1000
START=1953114
END=1964076
title=e128[G]

[CHAPTER]
TIMEBASE=1/1000
START=1963076
END=1974021
title=e129[G]

[CHAPTER]
TIMEBASE=1/1000
START=1973021
END=1985426
title=e130[G]

[CHAPTER]
TIMEBASE=1/1000
START=1984426
END=1991394
title=e131

[CHAPTER]
TIMEBASE=1/1000
START=1990394
END=2005851
title=e132[G]

[CHAPTER]
TIMEBASE=1/1000
START=2004851
END=2017378
title=e133[G]

[CHAPTER]
TIMEBASE=1/1000
START=2016378
END=2023346
title=e134

[CHAPTER]
TIMEBASE=1/1000
START=2022346
END=2034285
title=e135[G]

[CHAPTER]
TIMEBASE=1/1000
START=2033285
END=2043713
title=e136[G]

[CHAPTER]
TIMEBASE=1/1000
START=2042713
END=2054980
title=e137[G]

[CHAPTER]
TIMEBASE=1/1000
START=2053980
END=2065493
title=e138[G]

[CHAPTER]
TIMEBASE=1/1000
START=2064493
END=2075253
title=e139[G]

[CHAPTER]
TIMEBASE=1/1000
START=2074253
END=2086088
title=e140[G]

[CHAPTER]
TIMEBASE=1/1000
START=2085088
END=2096131
title=e141[G]

[CHAPTER]
TIMEBASE=1/1000
START=2095131
END=2102236
title=e142

[CHAPTER]
TIMEBASE=1/1000
START=2101236
END=2112337
title=e143[G]

[CHAPTER]
TIMEBASE=1/1000
START=2111337
END=2122910
title=e144[G]

[CHAPTER]
TIMEBASE=1/1000
START=2121910
END=2135818
title=e145[G]

[CHAPTER]
TIMEBASE=1/1000
START=2134818
END=2147647
title=e146[G]

[CHAPTER]
TIMEBASE=1/1000
START=2146647
END=2160127
title=e147[G]

[CHAPTER]
TIMEBASE=1/1000
START=2159127
END=2173076
title=e148[G]

[CHAPTER]
TIMEBASE=1/1000
START=2172076
END=2184859
title=e149[G]

[CHAPTER]
TIMEBASE=1/1000
START=2183859
END=2198114
title=e150[G]

[CHAPTER]
TIMEBASE=1/1000
START=2197114
END=2208072
title=e151[G]

[CHAPTER]
TIMEBASE=1/1000
START=2207072
END=2217630
title=e152[G]

[CHAPTER]
TIMEBASE=1/1000
START=2216630
END=2223268
title=e153

[CHAPTER]
TIMEBASE=1/1000
START=2222268
END=2236339
title=e154[G]

[CHAPTER]
TIMEBASE=1/1000
START=2235339
END=2247022
title=e155[G]

[CHAPTER]
TIMEBASE=1/1000
START=2246022
END=2258828
title=e156[G]

[CHAPTER]
TIMEBASE=1/1000
START=2257828
END=2269075
title=e157[G]

[CHAPTER]
TIMEBASE=1/1000
START=2268075
END=2280893
title=e158[G]

[CHAPTER]
TIMEBASE=1/1000
START=2279893
END=2291817
title=e159[G]

[CHAPTER]
TIMEBASE=1/1000
START=2290817
END=2301817
title=e160[G]

[CHAPTER]
TIMEBASE=1/1000
START=2300817
END=2310855
title=e161

[CHAPTER]
TIMEBASE=1/1000
START=2309855
END=2321934
title=e162[G]

[CHAPTER]
TIMEBASE=1/1000
START=2320934
END=2327436
title=e163

[CHAPTER]
TIMEBASE=1/1000
START=2326436
END=2338887
title=e164[G]

[CHAPTER]
TIMEBASE=1/1000
START=2337887
END=2350697
title=e165[G]

[CHAPTER]
TIMEBASE=1/1000
START=2349697
END=2361819
title=e166[G]

[CHAPTER]
TIMEBASE=1/1000
START=2360819
END=2373193
title=e167[G]

[CHAPTER]
TIMEBASE=1/1000
START=2372193
END=2384588
title=e168[G]

[CHAPTER]
TIMEBASE=1/1000
START=2383588
END=2395457
title=e169[G]

[CHAPTER]
TIMEBASE=1/1000
START=2394457
END=2408652
title=e170

[CHAPTER]
TIMEBASE=1/1000
START=2407652
END=2415020
title=e171

[CHAPTER]
TIMEBASE=1/1000
START=2414020
END=2425708
title=e172[G]

[CHAPTER]
TIMEBASE=1/1000
START=2424708
END=2435248
title=e173[G]

[CHAPTER]
TIMEBASE=1/1000
START=2434248
END=2445821
title=e174[G]

[CHAPTER]
TIMEBASE=1/1000
START=2444821
END=2451565
title=e175

[CHAPTER]
TIMEBASE=1/1000
START=2450565
END=2462339
title=e176[G]

[CHAPTER]
TIMEBASE=1/1000
START=2461339
END=2469537
title=e177

[CHAPTER]
TIMEBASE=1/1000
START=2468537
END=2480086
title=e178[G]

[CHAPTER]
TIMEBASE=1/1000
START=2479086
END=2490763
title=e179[G]

[CHAPTER]
TIMEBASE=1/1000
START=2489763
END=2500918
title=e180[G]

[CHAPTER]
TIMEBASE=1/1000
START=2499918
END=2511769
title=e181[G]

[CHAPTER]
TIMEBASE=1/1000
START=2510769
END=2523092
title=e182[G]

[CHAPTER]
TIMEBASE=1/1000
START=2522092
END=2532275
title=e183[G]

[CHAPTER]
TIMEBASE=1/1000
START=2531275
END=2543139
title=e184[G]

[CHAPTER]
TIMEBASE=1/1000
START=2542139
END=2553295
title=e185[G]

[CHAPTER]
TIMEBASE=1/1000
START=2552295
END=2559153
title=e186

[CHAPTER]
TIMEBASE=1/1000
START=2558153
END=2569622
title=e187[G]

[CHAPTER]
TIMEBASE=1/1000
START=2568622
END=2580324
title=e188[G]

[CHAPTER]
TIMEBASE=1/1000
START=2579324
END=2591795
title=e189[G]

[CHAPTER]
TIMEBASE=1/1000
START=2590795
END=2604944
title=e190[G]

[CHAPTER]
TIMEBASE=1/1000
START=2603944
END=2611214
title=e191

[CHAPTER]
TIMEBASE=1/1000
START=2610214
END=2617360
title=e192

[CHAPTER]
TIMEBASE=1/1000
START=2616360
END=2622927
title=e193

[CHAPTER]
TIMEBASE=1/1000
START=2621927
END=2633270
title=e194[G]

[CHAPTER]
TIMEBASE=1/1000
START=2632270
END=2643160
title=e195[G]

[CHAPTER]
TIMEBASE=1/1000
START=2642160
END=2653355
title=e196[G]

[CHAPTER]
TIMEBASE=1/1000
START=2652355
END=2662794
title=e197[G]

[CHAPTER]
TIMEBASE=1/1000
START=2661794
END=2672637
title=e198[G]

[CHAPTER]
TIMEBASE=1/1000
START=2671637
END=2682667
title=e199[G]

[CHAPTER]
TIMEBASE=1/1000
START=2681667
END=2692603
title=e200[G]

[CHAPTER]
TIMEBASE=1/1000
START=2691603
END=2705309
title=e201[G]

[CHAPTER]
TIMEBASE=1/1000
START=2704309
END=2714688
title=e202[G]

[CHAPTER]
TIMEBASE=1/1000
START=2713688
END=2724127
title=e203[G]

[CHAPTER]
TIMEBASE=1/1000
START=2723127
END=2735350
title=e204[G]

[CHAPTER]
TIMEBASE=1/1000
START=2734350
END=2741117
title=e205

[CHAPTER]
TIMEBASE=1/1000
START=2740117
END=2751974
title=e206[G]

[CHAPTER]
TIMEBASE=1/1000
START=2750974
END=2761313
title=e207[G]

[CHAPTER]
TIMEBASE=1/1000
START=2760313
END=2783728
title=e208[G]

[CHAPTER]
TIMEBASE=1/1000
START=2782728
END=2797687
title=e209[G]

[CHAPTER]
TIMEBASE=1/1000
START=2796687
END=2810287
title=e210[G]

[CHAPTER]
TIMEBASE=1/1000
START=2809287
END=2815874
title=e211

[CHAPTER]
TIMEBASE=1/1000
START=2814874
END=2825117
title=e212[G]

[CHAPTER]
TIMEBASE=1/1000
START=2824117
END=2836510
title=e213[G]

[CHAPTER]
TIMEBASE=1/1000
START=2835510
END=2847119
title=e214[G]

[CHAPTER]
TIMEBASE=1/1000
START=2846119
END=2857642
title=e215[G]

[CHAPTER]
TIMEBASE=1/1000
START=2856642
END=2866754
title=e216[G]

[CHAPTER]
TIMEBASE=1/1000
START=2865754
END=2878843
title=e217[G]

[CHAPTER]
TIMEBASE=1/1000
START=2877843
END=2889300
title=e218[G]

[CHAPTER]
TIMEBASE=1/1000
START=2888300
END=2898975
title=e219[G]

[CHAPTER]
TIMEBASE=1/1000
START=2897975
END=2908857
title=e220[G]

[CHAPTER]
TIMEBASE=1/1000
START=2907857
END=2915180
title=e221

[CHAPTER]
TIMEBASE=1/1000
START=2914180
END=2920769
title=e222

[CHAPTER]
TIMEBASE=1/1000
START=2919769
END=2930476
title=e223[G]

[CHAPTER]
TIMEBASE=1/1000
START=2929476
END=2942634
title=e224[G]

[CHAPTER]
TIMEBASE=1/1000
START=2941634
END=2954389
title=e225[G]

[CHAPTER]
TIMEBASE=1/1000
START=2953389
END=2960690
title=e226

[CHAPTER]
TIMEBASE=1/1000
START=2959690
END=2969938
title=e227[G]

[CHAPTER]
TIMEBASE=1/1000
START=2968938
END=2976972
title=e228

[CHAPTER]
TIMEBASE=1/1000
START=2975972
END=2982509
title=e229

[CHAPTER]
TIMEBASE=1/1000
START=2981509
END=2993660
title=e230[G]

[CHAPTER]
TIMEBASE=1/1000
START=2992660
END=2999540
title=e231

[CHAPTER]
TIMEBASE=1/1000
START=2998540
END=3011629
title=e232[G]

[CHAPTER]
TIMEBASE=1/1000
START=3010629
END=3023276
title=e233[G]

[CHAPTER]
TIMEBASE=1/1000
START=3022276
END=3028493
title=e234

[CHAPTER]
TIMEBASE=1/1000
START=3027493
END=3037968
title=e235[G]

[CHAPTER]
TIMEBASE=1/1000
START=3036968
END=3044546
title=e236

[CHAPTER]
TIMEBASE=1/1000
START=3043546
END=3050237
title=e237

[CHAPTER]
TIMEBASE=1/1000
START=3049237
END=3061406
title=e238[G]

[CHAPTER]
TIMEBASE=1/1000
START=3060406
END=3066915
title=e239

[CHAPTER]
TIMEBASE=1/1000
START=3065915
END=3079306
title=e240[G]

[CHAPTER]
TIMEBASE=1/1000
START=3078306
END=3086722
title=e241

[CHAPTER]
TIMEBASE=1/1000
START=3085722
END=3092377
title=e242

[CHAPTER]
TIMEBASE=1/1000
START=3091377
END=3103239
title=e243[G]

[CHAPTER]
TIMEBASE=1/1000
START=3102239
END=3112981
title=e244[G]

[CHAPTER]
TIMEBASE=1/1000
START=3111981
END=3123105
title=e245[G]

[CHAPTER]
TIMEBASE=1/1000
START=3122105
END=3133969
title=e246[G]

[CHAPTER]
TIMEBASE=1/1000
START=3132969
END=3139565
title=e247

[CHAPTER]
TIMEBASE=1/1000
START=3138565
END=3145222
title=e248

[CHAPTER]
TIMEBASE=1/1000
START=3144222
END=3151645
title=e249

[CHAPTER]
TIMEBASE=1/1000
START=3150645
END=3162143
title=e250[G]

[CHAPTER]
TIMEBASE=1/1000
START=3161143
END=3168076
title=e251

[CHAPTER]
TIMEBASE=1/1000
START=3167076
END=3178625
title=e252[G]

[CHAPTER]
TIMEBASE=1/1000
START=3177625
END=3184385
title=e253

[CHAPTER]
TIMEBASE=1/1000
START=3183385
END=3189856
title=e254

[CHAPTER]
TIMEBASE=1/1000
START=3188856
END=3195838
title=e255

[CHAPTER]
TIMEBASE=1/1000
START=3194838
END=3202399
title=e256

[CHAPTER]
TIMEBASE=1/1000
START=3201399
END=3211351
title=e257[G]

[CHAPTER]
TIMEBASE=1/1000
START=3210351
END=3222558
title=e258[G]

[CHAPTER]
TIMEBASE=1/1000
START=3221558
END=3233656
title=e259[G]

[CHAPTER]
TIMEBASE=1/1000
START=3232656
END=3243959
title=e260[G]

[CHAPTER]
TIMEBASE=1/1000
START=3242959
END=3249405
title=e261

[CHAPTER]
TIMEBASE=1/1000
START=3248405
END=3258238
title=e262[G]

[CHAPTER]
TIMEBASE=1/1000
START=3257238
END=3263613
title=e263

[CHAPTER]
TIMEBASE=1/1000
START=3262613
END=3275303
title=e264[G]

[CHAPTER]
TIMEBASE=1/1000
START=3274303
END=3287820
title=e265[G]

[CHAPTER]
TIMEBASE=1/1000
START=3286820
END=3298963
title=e266[G]

[CHAPTER]
TIMEBASE=1/1000
START=3297963
END=3305086
title=e267

[CHAPTER]
TIMEBASE=1/1000
START=3304086
END=3317345
title=e268[G]

[CHAPTER]
TIMEBASE=1/1000
START=3316345
END=3323406
title=e269

[CHAPTER]
TIMEBASE=1/1000
START=3322406
END=3336958
title=e270[G]

[CHAPTER]
TIMEBASE=1/1000
START=3335958
END=3347071
title=e271[G]

[CHAPTER]
TIMEBASE=1/1000
START=3346071
END=3359082
title=e272[G]

[CHAPTER]
TIMEBASE=1/1000
START=3358082
END=3368539
title=e273[G]

[CHAPTER]
TIMEBASE=1/1000
START=3367539
END=3374142
title=e274

[CHAPTER]
TIMEBASE=1/1000
START=3373142
END=3388892
title=e275[G]

[CHAPTER]
TIMEBASE=1/1000
START=3387892
END=3400699
title=e276[G]

[CHAPTER]
TIMEBASE=1/1000
START=3399699
END=3412622
title=e277[G]

[CHAPTER]
TIMEBASE=1/1000
START=3411622
END=3422598
title=e278[G]

[CHAPTER]
TIMEBASE=1/1000
START=3421598
END=3428736
title=e279

[CHAPTER]
TIMEBASE=1/1000
START=3427736
END=3440052
title=e280[G]
