;FFMETADATA1
major_brand=isom
minor_version=512
compatible_brands=isomiso2avc1mp41
encoder=Lavf56.15.101

[CHAPTER]
TIMEBASE=1/1000
START=28258
END=60485
title=p003[G]

[CHAPTER]
TIMEBASE=1/1000
START=59485
END=87392
title=p004[G]

[CHAPTER]
TIMEBASE=1/1000
START=86392
END=111962
title=e001[G]

[CHAPTER]
TIMEBASE=1/1000
START=110962
END=119310
title=e002

[CHAPTER]
TIMEBASE=1/1000
START=118310
END=149177
title=e003[G]

[CHAPTER]
TIMEBASE=1/1000
START=148177
END=155004
title=e004

[CHAPTER]
TIMEBASE=1/1000
START=154004
END=178305
title=e005[G]

[CHAPTER]
TIMEBASE=1/1000
START=177305
END=188847
title=e006[G]

[CHAPTER]
TIMEBASE=1/1000
START=187847
END=194672
title=e007

[CHAPTER]
TIMEBASE=1/1000
START=193672
END=205912
title=e008[G]

[CHAPTER]
TIMEBASE=1/1000
START=204912
END=225224
title=e009[G]

[CHAPTER]
TIMEBASE=1/1000
START=224224
END=244431
title=e010[G]

[CHAPTER]
TIMEBASE=1/1000
START=243431
END=265811
title=e011[G]

[CHAPTER]
TIMEBASE=1/1000
START=264811
END=278540
title=e012[G]

[CHAPTER]
TIMEBASE=1/1000
START=277540
END=296022
title=e013[G]

[CHAPTER]
TIMEBASE=1/1000
START=295022
END=313168
title=e014[G]

[CHAPTER]
TIMEBASE=1/1000
START=312168
END=324797
title=e015[G]

[CHAPTER]
TIMEBASE=1/1000
START=323797
END=334789
title=e016[G]

[CHAPTER]
TIMEBASE=1/1000
START=333789
END=341020
title=e017

[CHAPTER]
TIMEBASE=1/1000
START=340020
END=361443
title=e018[G]

[CHAPTER]
TIMEBASE=1/1000
START=360443
END=367239
title=e019

[CHAPTER]
TIMEBASE=1/1000
START=366239
END=382545
title=e020[G]

[CHAPTER]
TIMEBASE=1/1000
START=381545
END=396991
title=e021[G]

[CHAPTER]
TIMEBASE=1/1000
START=395991
END=414060
title=e022[G]

[CHAPTER]
TIMEBASE=1/1000
START=413060
END=430519
title=e023[G]

[CHAPTER]
TIMEBASE=1/1000
START=429519
END=451255
title=e024[G]

[CHAPTER]
TIMEBASE=1/1000
START=450255
END=456837
title=e025

[CHAPTER]
TIMEBASE=1/1000
START=455837
END=462288
title=e026

[CHAPTER]
TIMEBASE=1/1000
START=461288
END=472739
title=e027[G]

[CHAPTER]
TIMEBASE=1/1000
START=471739
END=483100
title=e028[G]

[CHAPTER]
TIMEBASE=1/1000
START=482100
END=503867
title=e029[G]

[CHAPTER]
TIMEBASE=1/1000
START=502867
END=515843
title=e030[G]

[CHAPTER]
TIMEBASE=1/1000
START=514843
END=528486
title=e031[G]

[CHAPTER]
TIMEBASE=1/1000
START=527486
END=534004
title=e032

[CHAPTER]
TIMEBASE=1/1000
START=533004
END=550241
title=e033[G]

[CHAPTER]
TIMEBASE=1/1000
START=549241
END=571693
title=e034[G]

[CHAPTER]
TIMEBASE=1/1000
START=570693
END=593378
title=e035[G]

[CHAPTER]
TIMEBASE=1/1000
START=592378
END=606037
title=e036[G]

[CHAPTER]
TIMEBASE=1/1000
START=605037
END=615105
title=e037[G]

[CHAPTER]
TIMEBASE=1/1000
START=614105
END=631826
title=e038[G]

[CHAPTER]
TIMEBASE=1/1000
START=630826
END=653928
title=e039[G]

[CHAPTER]
TIMEBASE=1/1000
START=652928
END=661002
title=e040

[CHAPTER]
TIMEBASE=1/1000
START=660002
END=676532
title=e041[G]

[CHAPTER]
TIMEBASE=1/1000
START=675532
END=685890
title=e042[G]

[CHAPTER]
TIMEBASE=1/1000
START=684890
END=699033
title=e043[G]

[CHAPTER]
TIMEBASE=1/1000
START=698033
END=724323
title=e044[G]

[CHAPTER]
TIMEBASE=1/1000
START=723323
END=729533
title=e045

[CHAPTER]
TIMEBASE=1/1000
START=728533
END=740538
title=e046[G]

[CHAPTER]
TIMEBASE=1/1000
START=739538
END=751247
title=e047[G]

[CHAPTER]
TIMEBASE=1/1000
START=750247
END=768859
title=e048[G]

[CHAPTER]
TIMEBASE=1/1000
START=767859
END=786558
title=e049[G]

[CHAPTER]
TIMEBASE=1/1000
START=785558
END=797436
title=e050[G]

[CHAPTER]
TIMEBASE=1/1000
START=796436
END=815151
title=e051[G]

[CHAPTER]
TIMEBASE=1/1000
START=814151
END=829596
title=e052[G]

[CHAPTER]
TIMEBASE=1/1000
START=828596
END=839522
title=e053[G]

[CHAPTER]
TIMEBASE=1/1000
START=838522
END=855852
title=e054[G]

[CHAPTER]
TIMEBASE=1/1000
START=854852
END=866882
title=e055[G]

[CHAPTER]
TIMEBASE=1/1000
START=865882
END=887565
title=e056[G]

[CHAPTER]
TIMEBASE=1/1000
START=886565
END=913135
title=e057[G]

[CHAPTER]
TIMEBASE=1/1000
START=912135
END=918552
title=e058

[CHAPTER]
TIMEBASE=1/1000
START=917552
END=934621
title=e059[G]

[CHAPTER]
TIMEBASE=1/1000
START=933621
END=946047
title=e060[G]

[CHAPTER]
TIMEBASE=1/1000
START=945047
END=963009
title=e061[G]

[CHAPTER]
TIMEBASE=1/1000
START=962009
END=981278
title=e062[G]

[CHAPTER]
TIMEBASE=1/1000
START=980278
END=989089
title=e063

[CHAPTER]
TIMEBASE=1/1000
START=988089
END=1000009
title=e064[G]

[CHAPTER]
TIMEBASE=1/1000
START=999009
END=1008770
title=e065[G]

[CHAPTER]
TIMEBASE=1/1000
START=1007770
END=1015894
title=e066

[CHAPTER]
TIMEBASE=1/1000
START=1014894
END=1025301
title=e067[G]

[CHAPTER]
TIMEBASE=1/1000
START=1024301
END=1041481
title=e068[G]

[CHAPTER]
TIMEBASE=1/1000
START=1040481
END=1052154
title=e069[G]

[CHAPTER]
TIMEBASE=1/1000
START=1051154
END=1068252
title=e070[G]

[CHAPTER]
TIMEBASE=1/1000
START=1067252
END=1081224
title=e071[G]

[CHAPTER]
TIMEBASE=1/1000
START=1080224
END=1113825
title=e072[G]

[CHAPTER]
TIMEBASE=1/1000
START=1112825
END=1124736
title=e073[G]

[CHAPTER]
TIMEBASE=1/1000
START=1123736
END=1133945
title=e074[G]

[CHAPTER]
TIMEBASE=1/1000
START=1132945
END=1150107
title=e075[G]

[CHAPTER]
TIMEBASE=1/1000
START=1149107
END=1178673
title=e076[G]

[CHAPTER]
TIMEBASE=1/1000
START=1177673
END=1188425
title=e077[G]

[CHAPTER]
TIMEBASE=1/1000
START=1187425
END=1193873
title=e078

[CHAPTER]
TIMEBASE=1/1000
START=1192873
END=1206589
title=e079[G]

[CHAPTER]
TIMEBASE=1/1000
START=1205589
END=1232611
title=e080[G]

[CHAPTER]
TIMEBASE=1/1000
START=1231611
END=1255004
title=e081[G]

[CHAPTER]
TIMEBASE=1/1000
START=1254004
END=1264382
title=e082[G]

[CHAPTER]
TIMEBASE=1/1000
START=1263382
END=1269726
title=e083

[CHAPTER]
TIMEBASE=1/1000
START=1268726
END=1288093
title=e084[G]

[CHAPTER]
TIMEBASE=1/1000
START=1287093
END=1299433
title=e085[G]

[CHAPTER]
TIMEBASE=1/1000
START=1298433
END=1304668
title=e086

[CHAPTER]
TIMEBASE=1/1000
START=1303668
END=1314615
title=e087[G]

[CHAPTER]
TIMEBASE=1/1000
START=1313615
END=1319733
title=e088

[CHAPTER]
TIMEBASE=1/1000
START=1318733
END=1329155
title=e089[G]

[CHAPTER]
TIMEBASE=1/1000
START=1328155
END=1340988
title=e090[G]

[CHAPTER]
TIMEBASE=1/1000
START=1339988
END=1364843
title=e091[G]

[CHAPTER]
TIMEBASE=1/1000
START=1363843
END=1370120
title=e092

[CHAPTER]
TIMEBASE=1/1000
START=1369120
END=1375315
title=e093

[CHAPTER]
TIMEBASE=1/1000
START=1374315
END=1380356
title=e094

[CHAPTER]
TIMEBASE=1/1000
START=1379356
END=1391859
title=e095[G]

[CHAPTER]
TIMEBASE=1/1000
START=1390859
END=1403603
title=e096[G]

[CHAPTER]
TIMEBASE=1/1000
START=1402603
END=1418869
title=e097[G]

[CHAPTER]
TIMEBASE=1/1000
START=1417869
END=1428959
title=e098[G]

[CHAPTER]
TIMEBASE=1/1000
START=1427959
END=1434265
title=e099

[CHAPTER]
TIMEBASE=1/1000
START=1433265
END=1451111
title=e100[G]

[CHAPTER]
TIMEBASE=1/1000
START=1450111
END=1463728
title=e101[G]

[CHAPTER]
TIMEBASE=1/1000
START=1462728
END=1473403
title=e102[G]

[CHAPTER]
TIMEBASE=1/1000
START=1472403
END=1485177
title=e103[G]

[CHAPTER]
TIMEBASE=1/1000
START=1484177
END=1501886
title=e104[G]

[CHAPTER]
TIMEBASE=1/1000
START=1500886
END=1507228
title=e105

[CHAPTER]
TIMEBASE=1/1000
START=1506228
END=1515972
title=e106[G]

[CHAPTER]
TIMEBASE=1/1000
START=1514972
END=1529117
title=e107[G]

[CHAPTER]
TIMEBASE=1/1000
START=1528117
END=1545411
title=e108[G]

[CHAPTER]
TIMEBASE=1/1000
START=1544411
END=1576569
title=e109[G]

[CHAPTER]
TIMEBASE=1/1000
START=1575569
END=1585080
title=e110

[CHAPTER]
TIMEBASE=1/1000
START=1584080
END=1594736
title=e111[G]

[CHAPTER]
TIMEBASE=1/1000
START=1593736
END=1609064
title=e112[G]

[CHAPTER]
TIMEBASE=1/1000
START=1608064
END=1622015
title=e113[G]

[CHAPTER]
TIMEBASE=1/1000
START=1621015
END=1635154
title=e114[G]

[CHAPTER]
TIMEBASE=1/1000
START=1634154
END=1641379
title=e115

[CHAPTER]
TIMEBASE=1/1000
START=1640379
END=1650981
title=e116[G]

[CHAPTER]
TIMEBASE=1/1000
START=1649981
END=1656405
title=e117

[CHAPTER]
TIMEBASE=1/1000
START=1655405
END=1665282
title=e118[G]

[CHAPTER]
TIMEBASE=1/1000
START=1664282
END=1675091
title=e119[G]

[CHAPTER]
TIMEBASE=1/1000
START=1674091
END=1680274
title=e120

[CHAPTER]
TIMEBASE=1/1000
START=1679274
END=1687018
title=e121

[CHAPTER]
TIMEBASE=1/1000
START=1686018
END=1698524
title=e122[G]

[CHAPTER]
TIMEBASE=1/1000
START=1697524
END=1707281
title=e123[G]

[CHAPTER]
TIMEBASE=1/1000
START=1706281
END=1712676
title=e124

[CHAPTER]
TIMEBASE=1/1000
START=1711676
END=1723071
title=e125[G]

[CHAPTER]
TIMEBASE=1/1000
START=1722071
END=1728568
title=e126

[CHAPTER]
TIMEBASE=1/1000
START=1727568
END=1743700
title=e127[G]

[CHAPTER]
TIMEBASE=1/1000
START=1742700
END=1766779
title=e128[G]

[CHAPTER]
TIMEBASE=1/1000
START=1765779
END=1776294
title=e129[G]

[CHAPTER]
TIMEBASE=1/1000
START=1775294
END=1786153
title=e130[G]

[CHAPTER]
TIMEBASE=1/1000
START=1785153
END=1800600
title=e131[G]

[CHAPTER]
TIMEBASE=1/1000
START=1799600
END=1816052
title=e132[G]

[CHAPTER]
TIMEBASE=1/1000
START=1815052
END=1829651
title=e133[G]

[CHAPTER]
TIMEBASE=1/1000
START=1828651
END=1840317
title=e134[G]

[CHAPTER]
TIMEBASE=1/1000
START=1839317
END=1846174
title=e135

[CHAPTER]
TIMEBASE=1/1000
START=1845174
END=1851526
title=e136

[CHAPTER]
TIMEBASE=1/1000
START=1850526
END=1862852
title=e137[G]

[CHAPTER]
TIMEBASE=1/1000
START=1861852
END=1876074
title=e138[G]

[CHAPTER]
TIMEBASE=1/1000
START=1875074
END=1881800
title=e139

[CHAPTER]
TIMEBASE=1/1000
START=1880800
END=1891469
title=e140[G]

[CHAPTER]
TIMEBASE=1/1000
START=1890469
END=1903105
title=e141[G]

[CHAPTER]
TIMEBASE=1/1000
START=1902105
END=1913947
title=e142[G]

[CHAPTER]
TIMEBASE=1/1000
START=1912947
END=1924208
title=e143[G]

[CHAPTER]
TIMEBASE=1/1000
START=1923208
END=1932094
title=e144

[CHAPTER]
TIMEBASE=1/1000
START=1931094
END=1941031
title=e145[G]

[CHAPTER]
TIMEBASE=1/1000
START=1940031
END=1950451
title=e146[G]

[CHAPTER]
TIMEBASE=1/1000
START=1949451
END=1968316
title=e147[G]

[CHAPTER]
TIMEBASE=1/1000
START=1967316
END=1980030
title=e148[G]

[CHAPTER]
TIMEBASE=1/1000
START=1979030
END=1990487
title=e149[G]

[CHAPTER]
TIMEBASE=1/1000
START=1989487
END=1995667
title=e150

[CHAPTER]
TIMEBASE=1/1000
START=1994667
END=2004314
title=e151[G]

[CHAPTER]
TIMEBASE=1/1000
START=2003314
END=2016082
title=e152[G]

[CHAPTER]
TIMEBASE=1/1000
START=2015082
END=2027215
title=e153[G]

[CHAPTER]
TIMEBASE=1/1000
START=2026215
END=2036062
title=e154[G]

[CHAPTER]
TIMEBASE=1/1000
START=2035062
END=2041775
title=e155

[CHAPTER]
TIMEBASE=1/1000
START=2040775
END=2060300
title=e156[G]

[CHAPTER]
TIMEBASE=1/1000
START=2059300
END=2071631
title=e157[G]

[CHAPTER]
TIMEBASE=1/1000
START=2070631
END=2076934
title=e158

[CHAPTER]
TIMEBASE=1/1000
START=2075934
END=2093810
title=e159[G]

[CHAPTER]
TIMEBASE=1/1000
START=2092810
END=2104885
title=e160[G]

[CHAPTER]
TIMEBASE=1/1000
START=2103885
END=2115262
title=e161[G]

[CHAPTER]
TIMEBASE=1/1000
START=2114262
END=2133742
title=e162[G]

[CHAPTER]
TIMEBASE=1/1000
START=2132742
END=2150959
title=e163[G]

[CHAPTER]
TIMEBASE=1/1000
START=2149959
END=2162252
title=e164[G]

[CHAPTER]
TIMEBASE=1/1000
START=2161252
END=2173136
title=e165[G]

[CHAPTER]
TIMEBASE=1/1000
START=2172136
END=2184052
title=e166[G]

[CHAPTER]
TIMEBASE=1/1000
START=2183052
END=2196281
title=e167[G]

[CHAPTER]
TIMEBASE=1/1000
START=2195281
END=2201928
title=e168

[CHAPTER]
TIMEBASE=1/1000
START=2200928
END=2207116
title=e169

[CHAPTER]
TIMEBASE=1/1000
START=2206116
END=2216047
title=e170[G]

[CHAPTER]
TIMEBASE=1/1000
START=2215047
END=2221979
title=e171

[CHAPTER]
TIMEBASE=1/1000
START=2220979
END=2230305
title=e172

[CHAPTER]
TIMEBASE=1/1000
START=2229305
END=2235340
title=e173

[CHAPTER]
TIMEBASE=1/1000
START=2234340
END=2244004
title=e174[G]

[CHAPTER]
TIMEBASE=1/1000
START=2243004
END=2262537
title=e175[G]

[CHAPTER]
TIMEBASE=1/1000
START=2261537
END=2271012
title=e176

[CHAPTER]
TIMEBASE=1/1000
START=2270012
END=2281097
title=e177[G]

[CHAPTER]
TIMEBASE=1/1000
START=2280097
END=2291292
title=e178[G]

[CHAPTER]
TIMEBASE=1/1000
START=2290292
END=2301969
title=e179[G]

[CHAPTER]
TIMEBASE=1/1000
START=2300969
END=2325590
title=e180[G]

[CHAPTER]
TIMEBASE=1/1000
START=2324590
END=2341758
title=e181[G]

[CHAPTER]
TIMEBASE=1/1000
START=2340758
END=2351734
title=e182[G]

[CHAPTER]
TIMEBASE=1/1000
START=2350734
END=2361784
title=e183[G]

[CHAPTER]
TIMEBASE=1/1000
START=2360784
END=2373639
title=e184[G]

[CHAPTER]
TIMEBASE=1/1000
START=2372639
END=2383558
title=e185[G]

[CHAPTER]
TIMEBASE=1/1000
START=2382558
END=2392700
title=e186[G]

[CHAPTER]
TIMEBASE=1/1000
START=2391700
END=2403641
title=e187[G]

[CHAPTER]
TIMEBASE=1/1000
START=2402641
END=2409436
title=e188

[CHAPTER]
TIMEBASE=1/1000
START=2408436
END=2430232
title=e189[G]

[CHAPTER]
TIMEBASE=1/1000
START=2429232
END=2439509
title=e190[G]

[CHAPTER]
TIMEBASE=1/1000
START=2438509
END=2444857
title=e191

[CHAPTER]
TIMEBASE=1/1000
START=2443857
END=2450138
title=e192

[CHAPTER]
TIMEBASE=1/1000
START=2449138
END=2459217
title=e193[G]

[CHAPTER]
TIMEBASE=1/1000
START=2458217
END=2464304
title=e194

[CHAPTER]
TIMEBASE=1/1000
START=2463304
END=2474173
title=e195[G]

[CHAPTER]
TIMEBASE=1/1000
START=2473173
END=2483767
title=e196[G]

[CHAPTER]
TIMEBASE=1/1000
START=2482767
END=2493925
title=e197[G]

[CHAPTER]
TIMEBASE=1/1000
START=2492925
END=2500280
title=e198

[CHAPTER]
TIMEBASE=1/1000
START=2499280
END=2505408
title=e199

[CHAPTER]
TIMEBASE=1/1000
START=2504408
END=2516078
title=e200[G]

[CHAPTER]
TIMEBASE=1/1000
START=2515078
END=2532076
title=e201[G]

[CHAPTER]
TIMEBASE=1/1000
START=2531076
END=2541461
title=e202[G]

[CHAPTER]
TIMEBASE=1/1000
START=2540461
END=2546588
title=e203

[CHAPTER]
TIMEBASE=1/1000
START=2545588
END=2562733
title=e204[G]

[CHAPTER]
TIMEBASE=1/1000
START=2561733
END=2572307
title=e205[G]

[CHAPTER]
TIMEBASE=1/1000
START=2571307
END=2583837
title=e206[G]

[CHAPTER]
TIMEBASE=1/1000
START=2582837
END=2589864
title=e207

[CHAPTER]
TIMEBASE=1/1000
START=2588864
END=2610344
title=e208[G]

[CHAPTER]
TIMEBASE=1/1000
START=2609344
END=2620316
title=e209[G]

[CHAPTER]
TIMEBASE=1/1000
START=2619316
END=2630909
title=e210[G]

[CHAPTER]
TIMEBASE=1/1000
START=2629909
END=2641514
title=e211[G]

[CHAPTER]
TIMEBASE=1/1000
START=2640514
END=2646445
title=e212

[CHAPTER]
TIMEBASE=1/1000
START=2645445
END=2651883
title=e213

[CHAPTER]
TIMEBASE=1/1000
START=2650883
END=2661553
title=e214[G]

[CHAPTER]
TIMEBASE=1/1000
START=2660553
END=2670827
title=e215[G]

[CHAPTER]
TIMEBASE=1/1000
START=2669827
END=2675988
title=e216

[CHAPTER]
TIMEBASE=1/1000
START=2674988
END=2681661
title=e217

[CHAPTER]
TIMEBASE=1/1000
START=2680661
END=2686728
title=e218

[CHAPTER]
TIMEBASE=1/1000
START=2685728
END=2696680
title=e219[G]

[CHAPTER]
TIMEBASE=1/1000
START=2695680
END=2707211
title=e220[G]

[CHAPTER]
TIMEBASE=1/1000
START=2706211
END=2717534
title=e221[G]

[CHAPTER]
TIMEBASE=1/1000
START=2716534
END=2727325
title=e222[G]

[CHAPTER]
TIMEBASE=1/1000
START=2726325
END=2737540
title=e223[G]

[CHAPTER]
TIMEBASE=1/1000
START=2736540
END=2742901
title=e224

[CHAPTER]
TIMEBASE=1/1000
START=2741901
END=2754135
title=e225[G]

[CHAPTER]
TIMEBASE=1/1000
START=2753135
END=2760079
title=e226

[CHAPTER]
TIMEBASE=1/1000
START=2759079
END=2768730
title=e227[G]

[CHAPTER]
TIMEBASE=1/1000
START=2767730
END=2773988
title=e228

[CHAPTER]
TIMEBASE=1/1000
START=2772988
END=2779242
title=e229

[CHAPTER]
TIMEBASE=1/1000
START=2778242
END=2789013
title=e230[G]

[CHAPTER]
TIMEBASE=1/1000
START=2788013
END=2798087
title=e231[G]

[CHAPTER]
TIMEBASE=1/1000
START=2797087
END=2808096
title=e232[G]

[CHAPTER]
TIMEBASE=1/1000
START=2807096
END=2813340
title=e233

[CHAPTER]
TIMEBASE=1/1000
START=2812340
END=2829865
title=e234[G]

[CHAPTER]
TIMEBASE=1/1000
START=2828865
END=2839189
title=e235[G]

[CHAPTER]
TIMEBASE=1/1000
START=2838189
END=2844592
title=e236

[CHAPTER]
TIMEBASE=1/1000
START=2843592
END=2853736
title=e237[G]

[CHAPTER]
TIMEBASE=1/1000
START=2852736
END=2865531
title=e238[G]

[CHAPTER]
TIMEBASE=1/1000
START=2864531
END=2871652
title=e239

[CHAPTER]
TIMEBASE=1/1000
START=2870652
END=2877111
title=e240

[CHAPTER]
TIMEBASE=1/1000
START=2876111
END=2887589
title=e241[G]

[CHAPTER]
TIMEBASE=1/1000
START=2886589
END=2892891
title=e242

[CHAPTER]
TIMEBASE=1/1000
START=2891891
END=2898449
title=e243

[CHAPTER]
TIMEBASE=1/1000
START=2897449
END=2908131
title=e244[G]

[CHAPTER]
TIMEBASE=1/1000
START=2907131
END=2916807
title=e245[G]

[CHAPTER]
TIMEBASE=1/1000
START=2915807
END=2921879
title=e246

[CHAPTER]
TIMEBASE=1/1000
START=2920879
END=2927004
title=e247

[CHAPTER]
TIMEBASE=1/1000
START=2926004
END=2931857
title=e248

[CHAPTER]
TIMEBASE=1/1000
START=2930857
END=2936840
title=e249

[CHAPTER]
TIMEBASE=1/1000
START=2935840
END=2945650
title=e250[G]

[CHAPTER]
TIMEBASE=1/1000
START=2944650
END=2953704
title=e251

[CHAPTER]
TIMEBASE=1/1000
START=2952704
END=2973372
title=e252[G]

[CHAPTER]
TIMEBASE=1/1000
START=2972372
END=2996360
title=e253[G]

[CHAPTER]
TIMEBASE=1/1000
START=2995360
END=3006114
title=e254[G]

[CHAPTER]
TIMEBASE=1/1000
START=3005114
END=3016061
title=e255[G]

[CHAPTER]
TIMEBASE=1/1000
START=3015061
END=3033723
title=e256[G]

[CHAPTER]
TIMEBASE=1/1000
START=3032723
END=3039468
title=e257

[CHAPTER]
TIMEBASE=1/1000
START=3038468
END=3049554
title=e258[G]

[CHAPTER]
TIMEBASE=1/1000
START=3048554
END=3059602
title=e259[G]

[CHAPTER]
TIMEBASE=1/1000
START=3058602
END=3070918
title=e260[G]

[CHAPTER]
TIMEBASE=1/1000
START=3069918
END=3076194
title=e261

[CHAPTER]
TIMEBASE=1/1000
START=3075194
END=3082323
title=e262

[CHAPTER]
TIMEBASE=1/1000
START=3081323
END=3087528
title=e263

[CHAPTER]
TIMEBASE=1/1000
START=3086528
END=3099632
title=e264[G]

[CHAPTER]
TIMEBASE=1/1000
START=3098632
END=3111959
title=e265[G]

[CHAPTER]
TIMEBASE=1/1000
START=3110959
END=3121348
title=e266

[CHAPTER]
TIMEBASE=1/1000
START=3120348
END=3132576
title=e267[G]

[CHAPTER]
TIMEBASE=1/1000
START=3131576
END=3144105
title=e268[G]

[CHAPTER]
TIMEBASE=1/1000
START=3143105
END=3149276
title=e269

[CHAPTER]
TIMEBASE=1/1000
START=3148276
END=3159115
title=e270[G]

[CHAPTER]
TIMEBASE=1/1000
START=3158115
END=3168374
title=e271[G]

[CHAPTER]
TIMEBASE=1/1000
START=3167374
END=3173895
title=e272

[CHAPTER]
TIMEBASE=1/1000
START=3172895
END=3179336
title=e273

[CHAPTER]
TIMEBASE=1/1000
START=3178336
END=3184341
title=e274

[CHAPTER]
TIMEBASE=1/1000
START=3183341
END=3189660
title=e275

[CHAPTER]
TIMEBASE=1/1000
START=3188660
END=3194989
title=e276

[CHAPTER]
TIMEBASE=1/1000
START=3193989
END=3204338
title=e277[G]

[CHAPTER]
TIMEBASE=1/1000
START=3203338
END=3213131
title=e278[G]

[CHAPTER]
TIMEBASE=1/1000
START=3212131
END=3218487
title=e279

[CHAPTER]
TIMEBASE=1/1000
START=3217487
END=3223862
title=e280
