;FFMETADATA1
major_brand=isom
minor_version=512
compatible_brands=isomiso2avc1mp41
encoder=Lavf56.15.101

[CHAPTER]
TIMEBASE=1/1000
START=27616
END=92864
title=p001[G]

[CHAPTER]
TIMEBASE=1/1000
START=91864
END=122185
title=p002[G]

[CHAPTER]
TIMEBASE=1/1000
START=121185
END=208357
title=p003[G]

[CHAPTER]
TIMEBASE=1/1000
START=207357
END=252378
title=p004[G]

[CHAPTER]
TIMEBASE=1/1000
START=251378
END=286958
title=e001[G]

[CHAPTER]
TIMEBASE=1/1000
START=285958
END=296282
title=e002

[CHAPTER]
TIMEBASE=1/1000
START=295282
END=302357
title=e003

[CHAPTER]
TIMEBASE=1/1000
START=301357
END=336703
title=e004[G]

[CHAPTER]
TIMEBASE=1/1000
START=335703
END=375835
title=e005[G]

[CHAPTER]
TIMEBASE=1/1000
START=374835
END=400475
title=e006[G]

[CHAPTER]
TIMEBASE=1/1000
START=399475
END=406386
title=e007

[CHAPTER]
TIMEBASE=1/1000
START=405386
END=421579
title=e008[G]

[CHAPTER]
TIMEBASE=1/1000
START=420579
END=461066
title=e009[G]

[CHAPTER]
TIMEBASE=1/1000
START=460066
END=487151
title=e010[G]

[CHAPTER]
TIMEBASE=1/1000
START=486151
END=513411
title=e011[G]

[CHAPTER]
TIMEBASE=1/1000
START=512411
END=522706
title=e012

[CHAPTER]
TIMEBASE=1/1000
START=521706
END=549455
title=e013[G]

[CHAPTER]
TIMEBASE=1/1000
START=548455
END=562181
title=e014[G]

[CHAPTER]
TIMEBASE=1/1000
START=561181
END=597155
title=e015[G]

[CHAPTER]
TIMEBASE=1/1000
START=596155
END=606500
title=e016

[CHAPTER]
TIMEBASE=1/1000
START=605500
END=645258
title=e017[G]

[CHAPTER]
TIMEBASE=1/1000
START=644258
END=661686
title=e018[G]

[CHAPTER]
TIMEBASE=1/1000
START=660686
END=684454
title=e019[G]

[CHAPTER]
TIMEBASE=1/1000
START=683454
END=693255
title=e020

[CHAPTER]
TIMEBASE=1/1000
START=692255
END=737917
title=e021[G]

[CHAPTER]
TIMEBASE=1/1000
START=736917
END=759355
title=e022[G]

[CHAPTER]
TIMEBASE=1/1000
START=758355
END=789495
title=e023[G]

[CHAPTER]
TIMEBASE=1/1000
START=788495
END=809881
title=e024[G]

[CHAPTER]
TIMEBASE=1/1000
START=808881
END=816476
title=e025

[CHAPTER]
TIMEBASE=1/1000
START=815476
END=835233
title=e026[G]

[CHAPTER]
TIMEBASE=1/1000
START=834233
END=873483
title=e027[G]

[CHAPTER]
TIMEBASE=1/1000
START=872483
END=888655
title=e028[G]

[CHAPTER]
TIMEBASE=1/1000
START=887655
END=919839
title=e029[G]

[CHAPTER]
TIMEBASE=1/1000
START=918839
END=933336
title=e030[G]

[CHAPTER]
TIMEBASE=1/1000
START=932336
END=938806
title=e031

[CHAPTER]
TIMEBASE=1/1000
START=937806
END=944205
title=e032

[CHAPTER]
TIMEBASE=1/1000
START=943205
END=949560
title=e033

[CHAPTER]
TIMEBASE=1/1000
START=948560
END=954836
title=e034

[CHAPTER]
TIMEBASE=1/1000
START=953836
END=960177
title=e035

[CHAPTER]
TIMEBASE=1/1000
START=959177
END=965404
title=e036

[CHAPTER]
TIMEBASE=1/1000
START=964404
END=970534
title=e037

[CHAPTER]
TIMEBASE=1/1000
START=969534
END=1020996
title=e038[G]

[CHAPTER]
TIMEBASE=1/1000
START=1019996
END=1033141
title=e039[G]

[CHAPTER]
TIMEBASE=1/1000
START=1032141
END=1039188
title=e040

[CHAPTER]
TIMEBASE=1/1000
START=1038188
END=1052823
title=e041[G]

[CHAPTER]
TIMEBASE=1/1000
START=1051823
END=1082866
title=e042[G]

[CHAPTER]
TIMEBASE=1/1000
START=1081866
END=1088338
title=e043

[CHAPTER]
TIMEBASE=1/1000
START=1087338
END=1108890
title=e044[G]

[CHAPTER]
TIMEBASE=1/1000
START=1107890
END=1123304
title=e045[G]

[CHAPTER]
TIMEBASE=1/1000
START=1122304
END=1128482
title=e046

[CHAPTER]
TIMEBASE=1/1000
START=1127482
END=1187257
title=e047[G]

[CHAPTER]
TIMEBASE=1/1000
START=1186257
END=1222636
title=e048[G]

[CHAPTER]
TIMEBASE=1/1000
START=1221636
END=1227829
title=e049

[CHAPTER]
TIMEBASE=1/1000
START=1226829
END=1238581
title=e050

[CHAPTER]
TIMEBASE=1/1000
START=1237581
END=1249443
title=e051[G]

[CHAPTER]
TIMEBASE=1/1000
START=1248443
END=1278099
title=e052[G]

[CHAPTER]
TIMEBASE=1/1000
START=1277099
END=1301277
title=e053[G]

[CHAPTER]
TIMEBASE=1/1000
START=1300277
END=1316130
title=e054[G]

[CHAPTER]
TIMEBASE=1/1000
START=1315130
END=1324121
title=e055

[CHAPTER]
TIMEBASE=1/1000
START=1323121
END=1343691
title=e056[G]

[CHAPTER]
TIMEBASE=1/1000
START=1342691
END=1348864
title=e057

[CHAPTER]
TIMEBASE=1/1000
START=1347864
END=1358687
title=e058[G]

[CHAPTER]
TIMEBASE=1/1000
START=1357687
END=1374096
title=e059[G]

[CHAPTER]
TIMEBASE=1/1000
START=1373096
END=1379420
title=e060

[CHAPTER]
TIMEBASE=1/1000
START=1378420
END=1384991
title=e061

[CHAPTER]
TIMEBASE=1/1000
START=1383991
END=1396637
title=e062[G]

[CHAPTER]
TIMEBASE=1/1000
START=1395637
END=1405645
title=e063[G]

[CHAPTER]
TIMEBASE=1/1000
START=1404645
END=1417105
title=e064[G]

[CHAPTER]
TIMEBASE=1/1000
START=1416105
END=1430449
title=e065[G]

[CHAPTER]
TIMEBASE=1/1000
START=1429449
END=1450440
title=e066[G]

[CHAPTER]
TIMEBASE=1/1000
START=1449440
END=1459642
title=e067[G]

[CHAPTER]
TIMEBASE=1/1000
START=1458642
END=1484147
title=e068[G]

[CHAPTER]
TIMEBASE=1/1000
START=1483147
END=1502955
title=e069[G]

[CHAPTER]
TIMEBASE=1/1000
START=1501955
END=1530637
title=e070[G]

[CHAPTER]
TIMEBASE=1/1000
START=1529637
END=1536455
title=e071

[CHAPTER]
TIMEBASE=1/1000
START=1535455
END=1545937
title=e072[G]

[CHAPTER]
TIMEBASE=1/1000
START=1544937
END=1555024
title=e073[G]

[CHAPTER]
TIMEBASE=1/1000
START=1554024
END=1566997
title=e074[G]

[CHAPTER]
TIMEBASE=1/1000
START=1565997
END=1572072
title=e075

[CHAPTER]
TIMEBASE=1/1000
START=1571072
END=1577238
title=e076

[CHAPTER]
TIMEBASE=1/1000
START=1576238
END=1587468
title=e077[G]

[CHAPTER]
TIMEBASE=1/1000
START=1586468
END=1599428
title=e078[G]

[CHAPTER]
TIMEBASE=1/1000
START=1598428
END=1609410
title=e079[G]

[CHAPTER]
TIMEBASE=1/1000
START=1608410
END=1628326
title=e080[G]

[CHAPTER]
TIMEBASE=1/1000
START=1627326
END=1635112
title=e081

[CHAPTER]
TIMEBASE=1/1000
START=1634112
END=1640651
title=e082

[CHAPTER]
TIMEBASE=1/1000
START=1639651
END=1671332
title=e083[G]

[CHAPTER]
TIMEBASE=1/1000
START=1670332
END=1676942
title=e084

[CHAPTER]
TIMEBASE=1/1000
START=1675942
END=1691509
title=e085[G]

[CHAPTER]
TIMEBASE=1/1000
START=1690509
END=1703017
title=e086[G]

[CHAPTER]
TIMEBASE=1/1000
START=1702017
END=1720313
title=e087[G]

[CHAPTER]
TIMEBASE=1/1000
START=1719313
END=1725492
title=e088

[CHAPTER]
TIMEBASE=1/1000
START=1724492
END=1738662
title=e089[G]

[CHAPTER]
TIMEBASE=1/1000
START=1737662
END=1755682
title=e090[G]

[CHAPTER]
TIMEBASE=1/1000
START=1754682
END=1775648
title=e091[G]

[CHAPTER]
TIMEBASE=1/1000
START=1774648
END=1790005
title=e092[G]

[CHAPTER]
TIMEBASE=1/1000
START=1789005
END=1795466
title=e093

[CHAPTER]
TIMEBASE=1/1000
START=1794466
END=1800604
title=e094

[CHAPTER]
TIMEBASE=1/1000
START=1799604
END=1817676
title=e095[G]

[CHAPTER]
TIMEBASE=1/1000
START=1816676
END=1828045
title=e096[G]

[CHAPTER]
TIMEBASE=1/1000
START=1827045
END=1838101
title=e097[G]

[CHAPTER]
TIMEBASE=1/1000
START=1837101
END=1856565
title=e098[G]

[CHAPTER]
TIMEBASE=1/1000
START=1855565
END=1862372
title=e099

[CHAPTER]
TIMEBASE=1/1000
START=1861372
END=1867444
title=e100

[CHAPTER]
TIMEBASE=1/1000
START=1866444
END=1879810
title=e101[G]

[CHAPTER]
TIMEBASE=1/1000
START=1878810
END=1885022
title=e102

[CHAPTER]
TIMEBASE=1/1000
START=1884022
END=1899153
title=e103[G]

[CHAPTER]
TIMEBASE=1/1000
START=1898153
END=1904812
title=e104

[CHAPTER]
TIMEBASE=1/1000
START=1903812
END=1913338
title=e105[G]

[CHAPTER]
TIMEBASE=1/1000
START=1912338
END=1918534
title=e106

[CHAPTER]
TIMEBASE=1/1000
START=1917534
END=1928339
title=e107[G]

[CHAPTER]
TIMEBASE=1/1000
START=1927339
END=1933765
title=e108

[CHAPTER]
TIMEBASE=1/1000
START=1932765
END=1946519
title=e109[G]

[CHAPTER]
TIMEBASE=1/1000
START=1945519
END=1951764
title=e110

[CHAPTER]
TIMEBASE=1/1000
START=1950764
END=1966130
title=e111[G]

[CHAPTER]
TIMEBASE=1/1000
START=1965130
END=1985427
title=e112[G]

[CHAPTER]
TIMEBASE=1/1000
START=1984427
END=1996672
title=e113[G]

[CHAPTER]
TIMEBASE=1/1000
START=1995672
END=2011586
title=e114[G]

[CHAPTER]
TIMEBASE=1/1000
START=2010586
END=2017029
title=e115

[CHAPTER]
TIMEBASE=1/1000
START=2016029
END=2026496
title=e116[G]

[CHAPTER]
TIMEBASE=1/1000
START=2025496
END=2031682
title=e117

[CHAPTER]
TIMEBASE=1/1000
START=2030682
END=2042128
title=e118[G]

[CHAPTER]
TIMEBASE=1/1000
START=2041128
END=2047328
title=e119

[CHAPTER]
TIMEBASE=1/1000
START=2046328
END=2057673
title=e120[G]

[CHAPTER]
TIMEBASE=1/1000
START=2056673
END=2064024
title=e121

[CHAPTER]
TIMEBASE=1/1000
START=2063024
END=2077691
title=e122[G]

[CHAPTER]
TIMEBASE=1/1000
START=2076691
END=2099490
title=e123[G]

[CHAPTER]
TIMEBASE=1/1000
START=2098490
END=2109818
title=e124[G]

[CHAPTER]
TIMEBASE=1/1000
START=2108818
END=2114891
title=e125

[CHAPTER]
TIMEBASE=1/1000
START=2113891
END=2121281
title=e126

[CHAPTER]
TIMEBASE=1/1000
START=2120281
END=2126565
title=e127

[CHAPTER]
TIMEBASE=1/1000
START=2125565
END=2141574
title=e128[G]

[CHAPTER]
TIMEBASE=1/1000
START=2140574
END=2146758
title=e129

[CHAPTER]
TIMEBASE=1/1000
START=2145758
END=2152660
title=e130

[CHAPTER]
TIMEBASE=1/1000
START=2151660
END=2158054
title=e131

[CHAPTER]
TIMEBASE=1/1000
START=2157054
END=2173179
title=e132[G]

[CHAPTER]
TIMEBASE=1/1000
START=2172179
END=2178318
title=e133

[CHAPTER]
TIMEBASE=1/1000
START=2177318
END=2188014
title=e134[G]

[CHAPTER]
TIMEBASE=1/1000
START=2187014
END=2197630
title=e135[G]

[CHAPTER]
TIMEBASE=1/1000
START=2196630
END=2202735
title=e136

[CHAPTER]
TIMEBASE=1/1000
START=2201735
END=2213084
title=e137[G]

[CHAPTER]
TIMEBASE=1/1000
START=2212084
END=2220119
title=e138

[CHAPTER]
TIMEBASE=1/1000
START=2219119
END=2234343
title=e139[G]

[CHAPTER]
TIMEBASE=1/1000
START=2233343
END=2246850
title=e140[G]

[CHAPTER]
TIMEBASE=1/1000
START=2245850
END=2256469
title=e141[G]

[CHAPTER]
TIMEBASE=1/1000
START=2255469
END=2273128
title=e142[G]

[CHAPTER]
TIMEBASE=1/1000
START=2272128
END=2278857
title=e143

[CHAPTER]
TIMEBASE=1/1000
START=2277857
END=2284326
title=e144

[CHAPTER]
TIMEBASE=1/1000
START=2283326
END=2299849
title=e145[G]

[CHAPTER]
TIMEBASE=1/1000
START=2298849
END=2310467
title=e146[G]

[CHAPTER]
TIMEBASE=1/1000
START=2309467
END=2315649
title=e147

[CHAPTER]
TIMEBASE=1/1000
START=2314649
END=2320984
title=e148

[CHAPTER]
TIMEBASE=1/1000
START=2319984
END=2329610
title=e149[G]

[CHAPTER]
TIMEBASE=1/1000
START=2328610
END=2340168
title=e150[G]

[CHAPTER]
TIMEBASE=1/1000
START=2339168
END=2345389
title=e151

[CHAPTER]
TIMEBASE=1/1000
START=2344389
END=2361492
title=e152[G]

[CHAPTER]
TIMEBASE=1/1000
START=2360492
END=2366831
title=e153

[CHAPTER]
TIMEBASE=1/1000
START=2365831
END=2373288
title=e154

[CHAPTER]
TIMEBASE=1/1000
START=2372288
END=2378433
title=e155

[CHAPTER]
TIMEBASE=1/1000
START=2377433
END=2391077
title=e156[G]

[CHAPTER]
TIMEBASE=1/1000
START=2390077
END=2417615
title=e157[G]

[CHAPTER]
TIMEBASE=1/1000
START=2416615
END=2429073
title=e158[G]

[CHAPTER]
TIMEBASE=1/1000
START=2428073
END=2434344
title=e159

[CHAPTER]
TIMEBASE=1/1000
START=2433344
END=2446340
title=e160[G]

[CHAPTER]
TIMEBASE=1/1000
START=2445340
END=2466255
title=e161[G]

[CHAPTER]
TIMEBASE=1/1000
START=2465255
END=2471957
title=e162

[CHAPTER]
TIMEBASE=1/1000
START=2470957
END=2477880
title=e163

[CHAPTER]
TIMEBASE=1/1000
START=2476880
END=2483743
title=e164

[CHAPTER]
TIMEBASE=1/1000
START=2482743
END=2488958
title=e165

[CHAPTER]
TIMEBASE=1/1000
START=2487958
END=2493962
title=e166

[CHAPTER]
TIMEBASE=1/1000
START=2492962
END=2503054
title=e167[G]

[CHAPTER]
TIMEBASE=1/1000
START=2502054
END=2508320
title=e168

[CHAPTER]
TIMEBASE=1/1000
START=2507320
END=2519091
title=e169[G]

[CHAPTER]
TIMEBASE=1/1000
START=2518091
END=2531433
title=e170[G]

[CHAPTER]
TIMEBASE=1/1000
START=2530433
END=2536461
title=e171

[CHAPTER]
TIMEBASE=1/1000
START=2535461
END=2553970
title=e172[G]

[CHAPTER]
TIMEBASE=1/1000
START=2552970
END=2559410
title=e173

[CHAPTER]
TIMEBASE=1/1000
START=2558410
END=2582441
title=e174[G]

[CHAPTER]
TIMEBASE=1/1000
START=2581441
END=2589140
title=e175

[CHAPTER]
TIMEBASE=1/1000
START=2588140
END=2598803
title=e176[G]

[CHAPTER]
TIMEBASE=1/1000
START=2597803
END=2609913
title=e177[G]

[CHAPTER]
TIMEBASE=1/1000
START=2608913
END=2619372
title=e178[G]

[CHAPTER]
TIMEBASE=1/1000
START=2618372
END=2638845
title=e179[G]

[CHAPTER]
TIMEBASE=1/1000
START=2637845
END=2650354
title=e180[G]

[CHAPTER]
TIMEBASE=1/1000
START=2649354
END=2691185
title=e181[G]

[CHAPTER]
TIMEBASE=1/1000
START=2690185
END=2700764
title=e182[G]

[CHAPTER]
TIMEBASE=1/1000
START=2699764
END=2706402
title=e183

[CHAPTER]
TIMEBASE=1/1000
START=2705402
END=2711528
title=e184

[CHAPTER]
TIMEBASE=1/1000
START=2710528
END=2716685
title=e185

[CHAPTER]
TIMEBASE=1/1000
START=2715685
END=2721833
title=e186

[CHAPTER]
TIMEBASE=1/1000
START=2720833
END=2743823
title=e187[G]

[CHAPTER]
TIMEBASE=1/1000
START=2742823
END=2776490
title=e188[G]

[CHAPTER]
TIMEBASE=1/1000
START=2775490
END=2786383
title=e189

[CHAPTER]
TIMEBASE=1/1000
START=2785383
END=2791748
title=e190

[CHAPTER]
TIMEBASE=1/1000
START=2790748
END=2818795
title=e191[G]

[CHAPTER]
TIMEBASE=1/1000
START=2817795
END=2824122
title=e192

[CHAPTER]
TIMEBASE=1/1000
START=2823122
END=2829113
title=e193

[CHAPTER]
TIMEBASE=1/1000
START=2828113
END=2834099
title=e194

[CHAPTER]
TIMEBASE=1/1000
START=2833099
END=2839302
title=e195

[CHAPTER]
TIMEBASE=1/1000
START=2838302
END=2848737
title=e196[G]

[CHAPTER]
TIMEBASE=1/1000
START=2847737
END=2853876
title=e197

[CHAPTER]
TIMEBASE=1/1000
START=2852876
END=2858946
title=e198

[CHAPTER]
TIMEBASE=1/1000
START=2857946
END=2864187
title=e199

[CHAPTER]
TIMEBASE=1/1000
START=2863187
END=2869338
title=e200

[CHAPTER]
TIMEBASE=1/1000
START=2868338
END=2875671
title=e201

[CHAPTER]
TIMEBASE=1/1000
START=2874671
END=2890464
title=e202[G]

[CHAPTER]
TIMEBASE=1/1000
START=2889464
END=2905112
title=e203[G]

[CHAPTER]
TIMEBASE=1/1000
START=2904112
END=2910212
title=e204

[CHAPTER]
TIMEBASE=1/1000
START=2909212
END=2915316
title=e205

[CHAPTER]
TIMEBASE=1/1000
START=2914316
END=2920334
title=e206

[CHAPTER]
TIMEBASE=1/1000
START=2919334
END=2945244
title=e207[G]

[CHAPTER]
TIMEBASE=1/1000
START=2944244
END=2961060
title=e208[G]

[CHAPTER]
TIMEBASE=1/1000
START=2960060
END=2973867
title=e209[G]

[CHAPTER]
TIMEBASE=1/1000
START=2972867
END=2983460
title=e210[G]

[CHAPTER]
TIMEBASE=1/1000
START=2982460
END=2989302
title=e211

[CHAPTER]
TIMEBASE=1/1000
START=2988302
END=2994588
title=e212

[CHAPTER]
TIMEBASE=1/1000
START=2993588
END=3005611
title=e213[G]

[CHAPTER]
TIMEBASE=1/1000
START=3004611
END=3015853
title=e214[G]

[CHAPTER]
TIMEBASE=1/1000
START=3014853
END=3021242
title=e215

[CHAPTER]
TIMEBASE=1/1000
START=3020242
END=3026424
title=e216

[CHAPTER]
TIMEBASE=1/1000
START=3025424
END=3041089
title=e217[G]

[CHAPTER]
TIMEBASE=1/1000
START=3040089
END=3050030
title=e218[G]

[CHAPTER]
TIMEBASE=1/1000
START=3049030
END=3055179
title=e219

[CHAPTER]
TIMEBASE=1/1000
START=3054179
END=3065826
title=e220[G]

[CHAPTER]
TIMEBASE=1/1000
START=3064826
END=3075436
title=e221[G]

[CHAPTER]
TIMEBASE=1/1000
START=3074436
END=3080398
title=e222

[CHAPTER]
TIMEBASE=1/1000
START=3079398
END=3088968
title=e223[G]

[CHAPTER]
TIMEBASE=1/1000
START=3087968
END=3094013
title=e224

[CHAPTER]
TIMEBASE=1/1000
START=3093013
END=3106211
title=e225[G]

[CHAPTER]
TIMEBASE=1/1000
START=3105211
END=3122548
title=e226[G]

[CHAPTER]
TIMEBASE=1/1000
START=3121548
END=3128476
title=e227

[CHAPTER]
TIMEBASE=1/1000
START=3127476
END=3134164
title=e228

[CHAPTER]
TIMEBASE=1/1000
START=3133164
END=3139377
title=e229

[CHAPTER]
TIMEBASE=1/1000
START=3138377
END=3148422
title=e230[G]

[CHAPTER]
TIMEBASE=1/1000
START=3147422
END=3153791
title=e231

[CHAPTER]
TIMEBASE=1/1000
START=3152791
END=3168765
title=e232[G]

[CHAPTER]
TIMEBASE=1/1000
START=3167765
END=3173842
title=e233

[CHAPTER]
TIMEBASE=1/1000
START=3172842
END=3183281
title=e234[G]

[CHAPTER]
TIMEBASE=1/1000
START=3182281
END=3188962
title=e235

[CHAPTER]
TIMEBASE=1/1000
START=3187962
END=3204349
title=e236[G]

[CHAPTER]
TIMEBASE=1/1000
START=3203349
END=3213541
title=e237[G]

[CHAPTER]
TIMEBASE=1/1000
START=3212541
END=3230510
title=e238[G]

[CHAPTER]
TIMEBASE=1/1000
START=3229510
END=3237712
title=e239

[CHAPTER]
TIMEBASE=1/1000
START=3236712
END=3246187
title=e240

[CHAPTER]
TIMEBASE=1/1000
START=3245187
END=3252355
title=e241

[CHAPTER]
TIMEBASE=1/1000
START=3251355
END=3257950
title=e242

[CHAPTER]
TIMEBASE=1/1000
START=3256950
END=3263439
title=e243

[CHAPTER]
TIMEBASE=1/1000
START=3262439
END=3272730
title=e244[G]

[CHAPTER]
TIMEBASE=1/1000
START=3271730
END=3278074
title=e245

[CHAPTER]
TIMEBASE=1/1000
START=3277074
END=3288487
title=e246[G]

[CHAPTER]
TIMEBASE=1/1000
START=3287487
END=3293768
title=e247

[CHAPTER]
TIMEBASE=1/1000
START=3292768
END=3299250
title=e248

[CHAPTER]
TIMEBASE=1/1000
START=3298250
END=3307761
title=e249[G]

[CHAPTER]
TIMEBASE=1/1000
START=3306761
END=3321183
title=e250[G]

[CHAPTER]
TIMEBASE=1/1000
START=3320183
END=3333625
title=e251[G]

[CHAPTER]
TIMEBASE=1/1000
START=3332625
END=3344552
title=e252[G]

[CHAPTER]
TIMEBASE=1/1000
START=3343552
END=3350587
title=e253

[CHAPTER]
TIMEBASE=1/1000
START=3349587
END=3356827
title=e254

[CHAPTER]
TIMEBASE=1/1000
START=3355827
END=3362110
title=e255

[CHAPTER]
TIMEBASE=1/1000
START=3361110
END=3381768
title=e256[G]

[CHAPTER]
TIMEBASE=1/1000
START=3380768
END=3390998
title=e257[G]

[CHAPTER]
TIMEBASE=1/1000
START=3389998
END=3410744
title=e258[G]

[CHAPTER]
TIMEBASE=1/1000
START=3409744
END=3424837
title=e259[G]

[CHAPTER]
TIMEBASE=1/1000
START=3423837
END=3430893
title=e260

[CHAPTER]
TIMEBASE=1/1000
START=3429893
END=3440988
title=e261[G]

[CHAPTER]
TIMEBASE=1/1000
START=3439988
END=3452769
title=e262[G]

[CHAPTER]
TIMEBASE=1/1000
START=3451769
END=3458134
title=e263

[CHAPTER]
TIMEBASE=1/1000
START=3457134
END=3463355
title=e264

[CHAPTER]
TIMEBASE=1/1000
START=3462355
END=3469277
title=e265

[CHAPTER]
TIMEBASE=1/1000
START=3468277
END=3481009
title=e266[G]

[CHAPTER]
TIMEBASE=1/1000
START=3480009
END=3491156
title=e267[G]

[CHAPTER]
TIMEBASE=1/1000
START=3490156
END=3513020
title=e268[G]

[CHAPTER]
TIMEBASE=1/1000
START=3512020
END=3518925
title=e269

[CHAPTER]
TIMEBASE=1/1000
START=3517925
END=3528263
title=e270[G]

[CHAPTER]
TIMEBASE=1/1000
START=3527263
END=3548813
title=e271[G]

[CHAPTER]
TIMEBASE=1/1000
START=3547813
END=3563308
title=e272[G]

[CHAPTER]
TIMEBASE=1/1000
START=3562308
END=3581929
title=e273[G]

[CHAPTER]
TIMEBASE=1/1000
START=3580929
END=3598424
title=e274[G]

[CHAPTER]
TIMEBASE=1/1000
START=3597424
END=3612659
title=e275[G]

[CHAPTER]
TIMEBASE=1/1000
START=3611659
END=3628235
title=e276[G]

[CHAPTER]
TIMEBASE=1/1000
START=3627235
END=3634256
title=e277

[CHAPTER]
TIMEBASE=1/1000
START=3633256
END=3639477
title=e278

[CHAPTER]
TIMEBASE=1/1000
START=3638477
END=3644820
title=e279

[CHAPTER]
TIMEBASE=1/1000
START=3643820
END=3665420
title=e280[G]
